\relax 
\providecommand\hyper@newdestlabel[2]{}
\@writefile{toc}{\contentsline {chapter}{\numberline {32}Autochanger Support}{315}{chapter.32}}
\@writefile{lof}{\addvspace {10\p@ }}
\@writefile{lot}{\addvspace {10\p@ }}
\newlabel{AutochangersChapter}{{32}{315}{Autochanger Support}{chapter.32}{}}
\@writefile{general}{\indexentry{Support!Autochanger }{315}}
\@writefile{general}{\indexentry{Autochanger Support }{315}}
\newlabel{SCSI devices}{{32}{316}{Autochanger Support}{chapter.32}{}}
\@writefile{toc}{\contentsline {section}{\numberline {32.1}Knowing What SCSI Devices You Have}{316}{section.32.1}}
\@writefile{general}{\indexentry{Have!Knowing What SCSI Devices You }{316}}
\@writefile{general}{\indexentry{Knowing What SCSI Devices You Have }{316}}
\@writefile{general}{\indexentry{SCSI devices}{316}}
\@writefile{general}{\indexentry{devices!SCSI}{316}}
\newlabel{64@xvr}{{}{316}{Knowing What SCSI Devices You Have}{section.32.1}{}}
\newlabel{64@vr}{{}{316}{Knowing What SCSI Devices You Have}{section.32.1}{}}
\newlabel{65@xvr}{{}{316}{Knowing What SCSI Devices You Have}{section.32.1}{}}
\newlabel{65@vr}{{}{316}{Knowing What SCSI Devices You Have}{section.32.1}{}}
\newlabel{scripts}{{32.1}{316}{Knowing What SCSI Devices You Have}{section.32.1}{}}
\@writefile{toc}{\contentsline {section}{\numberline {32.2}Example Scripts}{316}{section.32.2}}
\@writefile{general}{\indexentry{Scripts!Example }{316}}
\@writefile{general}{\indexentry{Example Scripts }{316}}
\newlabel{Slots}{{32.2}{316}{Example Scripts}{section.32.2}{}}
\@writefile{toc}{\contentsline {section}{\numberline {32.3}Slots}{317}{section.32.3}}
\@writefile{general}{\indexentry{Slots }{317}}
\newlabel{mult}{{32.3}{317}{Slots}{section.32.3}{}}
\@writefile{toc}{\contentsline {section}{\numberline {32.4}Multiple Devices}{317}{section.32.4}}
\@writefile{general}{\indexentry{Devices!Multiple}{317}}
\@writefile{general}{\indexentry{Multiple Devices}{317}}
\newlabel{ConfigRecords}{{32.4}{317}{Multiple Devices}{section.32.4}{}}
\@writefile{toc}{\contentsline {section}{\numberline {32.5}Device Configuration Records}{317}{section.32.5}}
\@writefile{general}{\indexentry{Records!Device Configuration}{317}}
\@writefile{general}{\indexentry{Device Configuration Records}{317}}
\@writefile{sd}{\indexentry{Autochanger  }{317}}
\@writefile{sd}{\indexentry{Maximum Changer Wait  }{317}}
\@writefile{sd}{\indexentry{Drive Index  }{317}}
\@writefile{toc}{\contentsline {chapter}{\numberline {33}Autochanger Resource}{319}{chapter.33}}
\@writefile{lof}{\addvspace {10\p@ }}
\@writefile{lot}{\addvspace {10\p@ }}
\@writefile{sd}{\indexentry{Autochanger Resource}{319}}
\@writefile{sd}{\indexentry{Resource!Autochanger}{319}}
\@writefile{sd}{\indexentry{Name}{319}}
\@writefile{sd}{\indexentry{Changer Device  }{319}}
\@writefile{sd}{\indexentry{Changer Command  }{319}}
\newlabel{example}{{33}{320}{Autochanger Resource}{chapter.33}{}}
\@writefile{toc}{\contentsline {section}{\numberline {33.1}An Example Configuration File}{320}{section.33.1}}
\@writefile{general}{\indexentry{Example Configuration File }{320}}
\@writefile{general}{\indexentry{File!Example Configuration }{320}}
\@writefile{toc}{\contentsline {section}{\numberline {33.2}A Multi-drive Example Configuration File}{321}{section.33.2}}
\@writefile{general}{\indexentry{Multi-drive Example Configuration File }{321}}
\newlabel{SpecifyingSlots}{{33.2}{321}{A Multi-drive Example Configuration File}{section.33.2}{}}
\@writefile{toc}{\contentsline {section}{\numberline {33.3}Specifying Slots When Labeling}{321}{section.33.3}}
\@writefile{general}{\indexentry{Specifying Slots When Labeling }{321}}
\@writefile{general}{\indexentry{Labeling!Specifying Slots When }{321}}
\@writefile{toc}{\contentsline {section}{\numberline {33.4}Changing Cartridges}{322}{section.33.4}}
\@writefile{general}{\indexentry{Changing Cartridges }{322}}
\newlabel{Magazines}{{33.4}{322}{Changing Cartridges}{section.33.4}{}}
\@writefile{toc}{\contentsline {section}{\numberline {33.5}Dealing with Multiple Magazines}{322}{section.33.5}}
\@writefile{general}{\indexentry{Dealing with Multiple Magazines }{322}}
\@writefile{general}{\indexentry{Magazines!Dealing with Multiple }{322}}
\newlabel{simulating}{{33.5}{322}{Dealing with Multiple Magazines}{Item.102}{}}
\@writefile{toc}{\contentsline {section}{\numberline {33.6}Simulating Barcodes in your Autochanger}{322}{section.33.6}}
\@writefile{general}{\indexentry{Autochanger!Simulating Barcodes in your }{322}}
\@writefile{general}{\indexentry{Simulating Barcodes in your Autochanger }{322}}
\newlabel{updateslots}{{33.6}{323}{Simulating Barcodes in your Autochanger}{section.33.6}{}}
\@writefile{toc}{\contentsline {section}{\numberline {33.7}The Full Form of the Update Slots Command}{323}{section.33.7}}
\@writefile{general}{\indexentry{Full Form of the Update Slots Command }{323}}
\@writefile{general}{\indexentry{Command!Full Form of the Update Slots }{323}}
\newlabel{FreeBSD}{{33.7}{323}{The Full Form of the Update Slots Command}{section.33.7}{}}
\@writefile{toc}{\contentsline {section}{\numberline {33.8}FreeBSD Issues}{323}{section.33.8}}
\@writefile{general}{\indexentry{Issues!FreeBSD }{323}}
\@writefile{general}{\indexentry{FreeBSD Issues }{323}}
\newlabel{66@xvr}{{}{323}{FreeBSD Issues}{section.33.8}{}}
\newlabel{66@vr}{{}{323}{FreeBSD Issues}{section.33.8}{}}
\newlabel{AutochangerTesting}{{33.8}{323}{FreeBSD Issues}{section.33.8}{}}
\@writefile{toc}{\contentsline {section}{\numberline {33.9}Testing Autochanger and Adapting mtx-changer script}{323}{section.33.9}}
\@writefile{general}{\indexentry{Testing the Autochanger }{323}}
\@writefile{general}{\indexentry{Adapting Your mtx-changer script}{323}}
\@writefile{sd}{\indexentry{mtx-changer list}{323}}
\@writefile{sd}{\indexentry{mtx-changer listall}{324}}
\@writefile{sd}{\indexentry{mtx-changer listall}{324}}
\@writefile{sd}{\indexentry{mtx-changer slots}{324}}
\@writefile{sd}{\indexentry{mtx-changer unload}{324}}
\@writefile{sd}{\indexentry{mtx-changer load}{324}}
\@writefile{sd}{\indexentry{mtx-changer loaded}{324}}
\newlabel{using}{{33.9}{325}{Testing Autochanger and Adapting mtx-changer script}{section.33.9}{}}
\@writefile{toc}{\contentsline {section}{\numberline {33.10}Using the Autochanger}{325}{section.33.10}}
\@writefile{general}{\indexentry{Using the Autochanger }{325}}
\@writefile{general}{\indexentry{Autochanger!Using the }{325}}
\newlabel{Barcodes}{{33.10}{326}{Using the Autochanger}{section.33.10}{}}
\@writefile{toc}{\contentsline {section}{\numberline {33.11}Barcode Support}{326}{section.33.11}}
\@writefile{general}{\indexentry{Support!Barcode }{326}}
\@writefile{general}{\indexentry{Barcode Support }{326}}
\@writefile{toc}{\contentsline {section}{\numberline {33.12}Use bconsole to display Autochanger content}{326}{section.33.12}}
\newlabel{interface}{{33.12}{326}{Use bconsole to display Autochanger content}{section.33.12}{}}
\@writefile{toc}{\contentsline {section}{\numberline {33.13}Bacula Autochanger Interface}{326}{section.33.13}}
\@writefile{general}{\indexentry{Interface!Bacula Autochanger }{326}}
\@writefile{general}{\indexentry{Bacula Autochanger Interface }{326}}
\@setckpt{autochangers}{
\setcounter{page}{328}
\setcounter{equation}{0}
\setcounter{enumi}{3}
\setcounter{enumii}{0}
\setcounter{enumiii}{0}
\setcounter{enumiv}{0}
\setcounter{footnote}{0}
\setcounter{mpfootnote}{0}
\setcounter{part}{0}
\setcounter{chapter}{33}
\setcounter{section}{13}
\setcounter{subsection}{0}
\setcounter{subsubsection}{0}
\setcounter{paragraph}{0}
\setcounter{subparagraph}{0}
\setcounter{figure}{0}
\setcounter{table}{0}
\setcounter{Item}{102}
\setcounter{Hfootnote}{2}
\setcounter{bookmark@seq@number}{403}
\setcounter{lpart}{0}
\setcounter{lchapter}{1}
\setcounter{lsection}{0}
\setcounter{lsubsection}{0}
\setcounter{lsubsubsection}{0}
\setcounter{lparagraph}{0}
\setcounter{lsubparagraph}{0}
\setcounter{lsubsubparagraph}{0}
\setcounter{float@type}{4}
\setcounter{LT@tables}{7}
\setcounter{LT@chunks}{5}
\setcounter{vrcnt}{66}
\setcounter{AM@survey}{0}
\setcounter{section@level}{1}
}
