\relax 
\providecommand\hyper@newdestlabel[2]{}
\@writefile{toc}{\contentsline {chapter}{\numberline {30}File Deduplication using Base Jobs}{307}{chapter.30}}
\@writefile{lof}{\addvspace {10\p@ }}
\@writefile{lot}{\addvspace {10\p@ }}
\@writefile{general}{\indexentry{Base Jobs}{307}}
\@writefile{general}{\indexentry{File Deduplication}{307}}
\newlabel{basejobs}{{30}{307}{File Deduplication using Base Jobs}{chapter.30}{}}
\@setckpt{basejob}{
\setcounter{page}{309}
\setcounter{equation}{0}
\setcounter{enumi}{10}
\setcounter{enumii}{0}
\setcounter{enumiii}{0}
\setcounter{enumiv}{0}
\setcounter{footnote}{0}
\setcounter{mpfootnote}{0}
\setcounter{part}{0}
\setcounter{chapter}{30}
\setcounter{section}{0}
\setcounter{subsection}{0}
\setcounter{subsubsection}{0}
\setcounter{paragraph}{0}
\setcounter{subparagraph}{0}
\setcounter{figure}{0}
\setcounter{table}{0}
\setcounter{Item}{99}
\setcounter{Hfootnote}{2}
\setcounter{bookmark@seq@number}{373}
\setcounter{lpart}{0}
\setcounter{lchapter}{1}
\setcounter{lsection}{0}
\setcounter{lsubsection}{0}
\setcounter{lsubsubsection}{0}
\setcounter{lparagraph}{0}
\setcounter{lsubparagraph}{0}
\setcounter{lsubsubparagraph}{0}
\setcounter{float@type}{4}
\setcounter{LT@tables}{7}
\setcounter{LT@chunks}{5}
\setcounter{vrcnt}{63}
\setcounter{AM@survey}{0}
\setcounter{section@level}{2}
}
