\relax 
\providecommand\hyper@newdestlabel[2]{}
\@writefile{toc}{\contentsline {chapter}{\numberline {47}The Bootstrap File}{397}{chapter.47}}
\@writefile{lof}{\addvspace {10\p@ }}
\@writefile{lot}{\addvspace {10\p@ }}
\newlabel{BootstrapChapter}{{47}{397}{The Bootstrap File}{chapter.47}{}}
\@writefile{general}{\indexentry{File!Bootstrap }{397}}
\@writefile{general}{\indexentry{Bootstrap File }{397}}
\newlabel{67@xvr}{{}{397}{The Bootstrap File}{chapter.47}{}}
\newlabel{67@vr}{{}{397}{The Bootstrap File}{chapter.47}{}}
\@writefile{toc}{\contentsline {section}{\numberline {47.1}Bootstrap File Format}{397}{section.47.1}}
\@writefile{general}{\indexentry{Format!Bootstrap}{397}}
\@writefile{general}{\indexentry{Bootstrap File Format }{397}}
\@writefile{general}{\indexentry{Volume }{397}}
\@writefile{general}{\indexentry{Count}{397}}
\@writefile{general}{\indexentry{VolFile}{397}}
\@writefile{general}{\indexentry{VolBlock}{397}}
\@writefile{general}{\indexentry{VolSessionTime }{398}}
\@writefile{general}{\indexentry{VolSessionId }{398}}
\@writefile{general}{\indexentry{JobId }{398}}
\@writefile{general}{\indexentry{Job }{398}}
\@writefile{general}{\indexentry{Client }{398}}
\@writefile{general}{\indexentry{FileIndex}{398}}
\newlabel{FileRegex}{{47.1}{398}{Bootstrap File Format}{section.47.1}{}}
\@writefile{general}{\indexentry{FileRegex}{398}}
\@writefile{general}{\indexentry{Slot }{398}}
\@writefile{general}{\indexentry{Stream }{398}}
\@writefile{general}{\indexentry{*JobType }{398}}
\@writefile{general}{\indexentry{*JobLevel }{398}}
\@writefile{toc}{\contentsline {section}{\numberline {47.2}Automatic Generation of Bootstrap Files}{400}{section.47.2}}
\@writefile{general}{\indexentry{Files!Automatic Generation of Bootstrap }{400}}
\@writefile{general}{\indexentry{Automatic Generation of Bootstrap Files }{400}}
\newlabel{bscanBootstrap}{{47.2}{400}{Automatic Generation of Bootstrap Files}{section.47.2}{}}
\@writefile{toc}{\contentsline {section}{\numberline {47.3}Bootstrap for bscan}{400}{section.47.3}}
\@writefile{general}{\indexentry{bscan}{400}}
\@writefile{general}{\indexentry{bscan!bootstrap}{400}}
\@writefile{general}{\indexentry{bscan bootstrap}{400}}
\@writefile{toc}{\contentsline {section}{\numberline {47.4}A Final Bootstrap Example}{400}{section.47.4}}
\@writefile{general}{\indexentry{Bootstrap Example}{400}}
\@writefile{general}{\indexentry{Example!Bootstrap}{400}}
\@setckpt{bootstrap}{
\setcounter{page}{402}
\setcounter{equation}{0}
\setcounter{enumi}{5}
\setcounter{enumii}{0}
\setcounter{enumiii}{0}
\setcounter{enumiv}{0}
\setcounter{footnote}{0}
\setcounter{mpfootnote}{0}
\setcounter{part}{0}
\setcounter{chapter}{47}
\setcounter{section}{4}
\setcounter{subsection}{0}
\setcounter{subsubsection}{0}
\setcounter{paragraph}{0}
\setcounter{subparagraph}{0}
\setcounter{figure}{0}
\setcounter{table}{0}
\setcounter{Item}{180}
\setcounter{Hfootnote}{2}
\setcounter{bookmark@seq@number}{512}
\setcounter{lpart}{0}
\setcounter{lchapter}{1}
\setcounter{lsection}{0}
\setcounter{lsubsection}{0}
\setcounter{lsubsubsection}{0}
\setcounter{lparagraph}{0}
\setcounter{lsubparagraph}{0}
\setcounter{lsubsubparagraph}{0}
\setcounter{float@type}{4}
\setcounter{LT@tables}{9}
\setcounter{LT@chunks}{6}
\setcounter{vrcnt}{67}
\setcounter{AM@survey}{0}
\setcounter{section@level}{1}
}
