\relax 
\providecommand\hyper@newdestlabel[2]{}
\@writefile{toc}{\contentsline {chapter}{\numberline {45}Catalog Maintenance}{385}{chapter.45}}
\@writefile{lof}{\addvspace {10\p@ }}
\@writefile{lot}{\addvspace {10\p@ }}
\newlabel{CatMaintenanceChapter}{{45}{385}{Catalog Maintenance}{chapter.45}{}}
\@writefile{general}{\indexentry{Maintenance!Catalog }{385}}
\@writefile{general}{\indexentry{Catalog Maintenance }{385}}
\newlabel{Retention}{{45}{385}{Catalog Maintenance}{chapter.45}{}}
\@writefile{toc}{\contentsline {section}{\numberline {45.1}Setting Retention Periods}{385}{section.45.1}}
\@writefile{general}{\indexentry{Setting Retention Periods }{385}}
\@writefile{general}{\indexentry{Periods!Setting Retention }{385}}
\@writefile{general}{\indexentry{File Retention  }{385}}
\@writefile{general}{\indexentry{Job Retention  }{385}}
\@writefile{general}{\indexentry{AutoPrune  }{386}}
\newlabel{CompactingMySQL}{{45.1}{386}{Setting Retention Periods}{section.45.1}{}}
\@writefile{toc}{\contentsline {section}{\numberline {45.2}Compacting Your MySQL Database}{386}{section.45.2}}
\@writefile{general}{\indexentry{Database!Compacting Your MySQL }{386}}
\@writefile{general}{\indexentry{Compacting Your MySQL Database }{386}}
\newlabel{DatabaseRepair}{{45.2}{386}{Compacting Your MySQL Database}{section.45.2}{}}
\newlabel{RepairingMySQL}{{45.2}{386}{Compacting Your MySQL Database}{section.45.2}{}}
\@writefile{toc}{\contentsline {section}{\numberline {45.3}Repairing Your MySQL Database}{386}{section.45.3}}
\@writefile{general}{\indexentry{Database!Repairing Your MySQL }{386}}
\@writefile{general}{\indexentry{Repairing Your MySQL Database }{386}}
\@writefile{toc}{\contentsline {section}{\numberline {45.4}MySQL Table is Full}{387}{section.45.4}}
\@writefile{general}{\indexentry{Database!MySQL Table is Full}{387}}
\@writefile{general}{\indexentry{MySQL Table is Full}{387}}
\@writefile{toc}{\contentsline {section}{\numberline {45.5}MySQL Server Has Gone Away}{387}{section.45.5}}
\@writefile{general}{\indexentry{Database!MySQL Server Has Gone Away}{387}}
\@writefile{general}{\indexentry{MySQL Server Has Gone Away}{387}}
\@writefile{toc}{\contentsline {section}{\numberline {45.6}MySQL Temporary Tables}{387}{section.45.6}}
\newlabel{RepairingPSQL}{{45.6}{388}{MySQL Temporary Tables}{section.45.6}{}}
\@writefile{toc}{\contentsline {section}{\numberline {45.7}Repairing Your PostgreSQL Database}{388}{section.45.7}}
\@writefile{general}{\indexentry{Database!Repairing Your PostgreSQL }{388}}
\@writefile{general}{\indexentry{Repairing Your PostgreSQL Database }{388}}
\newlabel{DatabasePerformance}{{45.7}{388}{Repairing Your PostgreSQL Database}{section.45.7}{}}
\@writefile{toc}{\contentsline {section}{\numberline {45.8}Database Performance Issues}{388}{section.45.8}}
\@writefile{general}{\indexentry{Database Performance Issues}{388}}
\@writefile{general}{\indexentry{Performance!Database}{388}}
\@writefile{toc}{\contentsline {section}{\numberline {45.9}Performance Issues Indexes}{388}{section.45.9}}
\@writefile{general}{\indexentry{Database Performance Issues Indexes}{388}}
\@writefile{general}{\indexentry{Performance!Database}{388}}
\@writefile{toc}{\contentsline {subsection}{\numberline {45.9.1}PostgreSQL Indexes}{388}{subsection.45.9.1}}
\@writefile{toc}{\contentsline {subsection}{\numberline {45.9.2}MySQL Indexes}{389}{subsection.45.9.2}}
\newlabel{CompactingPostgres}{{45.9.2}{389}{MySQL Indexes}{subsection.45.9.2}{}}
\@writefile{toc}{\contentsline {section}{\numberline {45.10}Compacting Your PostgreSQL Database}{389}{section.45.10}}
\@writefile{general}{\indexentry{Database!Compacting Your PostgreSQL }{389}}
\@writefile{general}{\indexentry{Compacting Your PostgreSQL Database }{389}}
\@writefile{toc}{\contentsline {section}{\numberline {45.11}Migrating from SQLite to MySQL or PostgreSQL}{389}{section.45.11}}
\@writefile{general}{\indexentry{MySQL!Migrating from SQLite to }{389}}
\@writefile{general}{\indexentry{Migrating from SQLite to MySQL or PostgreSQL}{389}}
\newlabel{BackingUpBacula}{{45.11}{389}{Migrating from SQLite to MySQL or PostgreSQL}{section.45.11}{}}
\@writefile{toc}{\contentsline {section}{\numberline {45.12}Backing Up Your Bacula Database}{390}{section.45.12}}
\@writefile{general}{\indexentry{Backing Up Your Bacula Database }{390}}
\@writefile{general}{\indexentry{Database!Backing Up Your Bacula }{390}}
\newlabel{BackingUpBaculaSecurityConsiderations}{{45.12}{390}{Backing Up Your Bacula Database}{section.45.12}{}}
\@writefile{toc}{\contentsline {section}{\numberline {45.13}Security considerations}{390}{section.45.13}}
\@writefile{general}{\indexentry{Backing Up Your Bacula Database - Security Considerations }{390}}
\@writefile{general}{\indexentry{Database!Backing Up Your Bacula Database - Security Considerations }{390}}
\newlabel{BackingUPOtherDBs}{{45.13}{391}{Security considerations}{section.45.13}{}}
\@writefile{toc}{\contentsline {section}{\numberline {45.14}Backing Up Third Party Databases}{391}{section.45.14}}
\@writefile{general}{\indexentry{Backing Up Third Party Databases }{391}}
\@writefile{general}{\indexentry{Databases!Backing Up Third Party }{391}}
\newlabel{Size}{{45.14}{391}{Backing Up Third Party Databases}{section.45.14}{}}
\@writefile{toc}{\contentsline {section}{\numberline {45.15}Database Size}{391}{section.45.15}}
\@writefile{general}{\indexentry{Size!Database }{391}}
\@writefile{general}{\indexentry{Database Size }{391}}
\@setckpt{catmaintenance}{
\setcounter{page}{393}
\setcounter{equation}{0}
\setcounter{enumi}{5}
\setcounter{enumii}{0}
\setcounter{enumiii}{0}
\setcounter{enumiv}{0}
\setcounter{footnote}{0}
\setcounter{mpfootnote}{0}
\setcounter{part}{0}
\setcounter{chapter}{45}
\setcounter{section}{15}
\setcounter{subsection}{0}
\setcounter{subsubsection}{0}
\setcounter{paragraph}{0}
\setcounter{subparagraph}{0}
\setcounter{figure}{0}
\setcounter{table}{0}
\setcounter{Item}{180}
\setcounter{Hfootnote}{2}
\setcounter{bookmark@seq@number}{503}
\setcounter{lpart}{0}
\setcounter{lchapter}{1}
\setcounter{lsection}{0}
\setcounter{lsubsection}{0}
\setcounter{lsubsubsection}{0}
\setcounter{lparagraph}{0}
\setcounter{lsubparagraph}{0}
\setcounter{lsubsubparagraph}{0}
\setcounter{float@type}{4}
\setcounter{LT@tables}{9}
\setcounter{LT@chunks}{6}
\setcounter{vrcnt}{66}
\setcounter{AM@survey}{0}
\setcounter{section@level}{1}
}
