\relax 
\providecommand\hyper@newdestlabel[2]{}
\newlabel{CCbySAChapter}{{48.8}{405}{Creative Commons Attribution-ShareAlike 4.0 International}{section*.131}{}}
\@writefile{general}{\indexentry{Attribution-ShareAlike 4.0 }{405}}
\@writefile{general}{\indexentry{License!Attribution-ShareAlike 4.0 }{405}}
\@setckpt{cc-by-sa}{
\setcounter{page}{408}
\setcounter{equation}{0}
\setcounter{enumi}{5}
\setcounter{enumii}{0}
\setcounter{enumiii}{0}
\setcounter{enumiv}{0}
\setcounter{footnote}{0}
\setcounter{mpfootnote}{0}
\setcounter{part}{0}
\setcounter{chapter}{48}
\setcounter{section}{8}
\setcounter{subsection}{0}
\setcounter{subsubsection}{0}
\setcounter{paragraph}{0}
\setcounter{subparagraph}{0}
\setcounter{figure}{0}
\setcounter{table}{0}
\setcounter{Item}{180}
\setcounter{Hfootnote}{2}
\setcounter{bookmark@seq@number}{521}
\setcounter{lpart}{0}
\setcounter{lchapter}{1}
\setcounter{lsection}{1}
\setcounter{lsubsection}{0}
\setcounter{lsubsubsection}{0}
\setcounter{lparagraph}{0}
\setcounter{lsubparagraph}{0}
\setcounter{lsubsubparagraph}{0}
\setcounter{float@type}{4}
\setcounter{LT@tables}{9}
\setcounter{LT@chunks}{6}
\setcounter{vrcnt}{67}
\setcounter{AM@survey}{0}
\setcounter{section@level}{1}
}
