\relax 
\providecommand\hyper@newdestlabel[2]{}
\@writefile{toc}{\contentsline {chapter}{\numberline {16}Critical Items to Implement Before Production}{143}{chapter.16}}
\@writefile{lof}{\addvspace {10\p@ }}
\@writefile{lot}{\addvspace {10\p@ }}
\newlabel{CriticalChapter}{{16}{143}{Critical Items to Implement Before Production}{chapter.16}{}}
\@writefile{general}{\indexentry{Production!Critical Items to Implement Before }{143}}
\@writefile{general}{\indexentry{Critical Items to Implement Before Production }{143}}
\newlabel{Critical}{{16}{143}{Critical Items to Implement Before Production}{chapter.16}{}}
\@writefile{toc}{\contentsline {section}{\numberline {16.1}Critical Items}{143}{section.16.1}}
\@writefile{general}{\indexentry{Critical Items }{143}}
\@writefile{general}{\indexentry{Items!Critical }{143}}
\newlabel{21@xvr}{{}{143}{Critical Items}{section.16.1}{}}
\newlabel{21@vr}{{}{143}{Critical Items}{section.16.1}{}}
\newlabel{22@xvr}{{}{143}{Critical Items}{section.16.1}{}}
\newlabel{22@vr}{{}{143}{Critical Items}{section.16.1}{}}
\newlabel{23@xvr}{{}{143}{Critical Items}{section.16.1}{}}
\newlabel{23@vr}{{}{143}{Critical Items}{section.16.1}{}}
\@writefile{toc}{\contentsline {section}{\numberline {16.2}Recommended Items}{144}{section.16.2}}
\@writefile{general}{\indexentry{Items!Recommended }{144}}
\@writefile{general}{\indexentry{Recommended Items }{144}}
\newlabel{24@xvr}{{}{144}{Recommended Items}{section.16.2}{}}
\newlabel{24@vr}{{}{144}{Recommended Items}{section.16.2}{}}
\@setckpt{critical}{
\setcounter{page}{145}
\setcounter{equation}{0}
\setcounter{enumi}{16}
\setcounter{enumii}{0}
\setcounter{enumiii}{0}
\setcounter{enumiv}{0}
\setcounter{footnote}{0}
\setcounter{mpfootnote}{0}
\setcounter{part}{0}
\setcounter{chapter}{16}
\setcounter{section}{2}
\setcounter{subsection}{0}
\setcounter{subsubsection}{0}
\setcounter{paragraph}{0}
\setcounter{subparagraph}{0}
\setcounter{figure}{0}
\setcounter{table}{0}
\setcounter{Item}{43}
\setcounter{Hfootnote}{1}
\setcounter{bookmark@seq@number}{237}
\setcounter{lpart}{0}
\setcounter{lchapter}{1}
\setcounter{lsection}{0}
\setcounter{lsubsection}{0}
\setcounter{lsubsubsection}{0}
\setcounter{lparagraph}{0}
\setcounter{lsubparagraph}{0}
\setcounter{lsubsubparagraph}{0}
\setcounter{float@type}{4}
\setcounter{LT@tables}{3}
\setcounter{LT@chunks}{1}
\setcounter{vrcnt}{24}
\setcounter{AM@survey}{0}
\setcounter{section@level}{1}
}
