\relax 
\providecommand\hyper@newdestlabel[2]{}
\@writefile{toc}{\contentsline {chapter}{\numberline {41}Data Encryption}{365}{chapter.41}}
\@writefile{lof}{\addvspace {10\p@ }}
\@writefile{lot}{\addvspace {10\p@ }}
\newlabel{DataEncryption}{{41}{365}{Data Encryption}{chapter.41}{}}
\@writefile{general}{\indexentry{Data Encryption}{365}}
\@writefile{general}{\indexentry{Encryption!Data}{365}}
\@writefile{general}{\indexentry{Data Encryption}{365}}
\@writefile{toc}{\contentsline {section}{\numberline {41.1}Building Bacula with Encryption Support}{365}{section.41.1}}
\@writefile{general}{\indexentry{Building Bacula with Encryption Support}{365}}
\@writefile{toc}{\contentsline {section}{\numberline {41.2}Encryption Technical Details}{366}{section.41.2}}
\@writefile{general}{\indexentry{Encryption Technical Details}{366}}
\@writefile{toc}{\contentsline {section}{\numberline {41.3}Decrypting with a Master Key}{366}{section.41.3}}
\@writefile{general}{\indexentry{Decrypting with a Master Key}{366}}
\@writefile{toc}{\contentsline {section}{\numberline {41.4}Generating Private/Public Encryption Keys}{366}{section.41.4}}
\@writefile{general}{\indexentry{Generating Private/Public Encryption Keypairs}{366}}
\@writefile{toc}{\contentsline {section}{\numberline {41.5}Example Data Encryption Configuration}{367}{section.41.5}}
\@writefile{general}{\indexentry{Example!File Daemon Configuration File}{367}}
\@writefile{general}{\indexentry{Example!Data Encryption Configuration File}{367}}
\@writefile{general}{\indexentry{Example Data Encryption Configuration}{367}}
\@setckpt{dataencryption}{
\setcounter{page}{368}
\setcounter{equation}{0}
\setcounter{enumi}{3}
\setcounter{enumii}{0}
\setcounter{enumiii}{0}
\setcounter{enumiv}{0}
\setcounter{footnote}{0}
\setcounter{mpfootnote}{0}
\setcounter{part}{0}
\setcounter{chapter}{41}
\setcounter{section}{5}
\setcounter{subsection}{0}
\setcounter{subsubsection}{0}
\setcounter{paragraph}{0}
\setcounter{subparagraph}{0}
\setcounter{figure}{0}
\setcounter{table}{0}
\setcounter{Item}{163}
\setcounter{Hfootnote}{2}
\setcounter{bookmark@seq@number}{463}
\setcounter{lpart}{0}
\setcounter{lchapter}{1}
\setcounter{lsection}{0}
\setcounter{lsubsection}{0}
\setcounter{lsubsubsection}{0}
\setcounter{lparagraph}{0}
\setcounter{lsubparagraph}{0}
\setcounter{lsubsubparagraph}{0}
\setcounter{float@type}{4}
\setcounter{LT@tables}{9}
\setcounter{LT@chunks}{6}
\setcounter{vrcnt}{66}
\setcounter{AM@survey}{0}
\setcounter{section@level}{1}
}
