\relax 
\providecommand\hyper@newdestlabel[2]{}
\@writefile{toc}{\contentsline {chapter}{\numberline {19}Configuring the Director}{165}{chapter.19}}
\@writefile{lof}{\addvspace {10\p@ }}
\@writefile{lot}{\addvspace {10\p@ }}
\newlabel{DirectorChapter}{{19}{165}{Configuring the Director}{chapter.19}{}}
\@writefile{general}{\indexentry{Director!Configuring the}{165}}
\@writefile{general}{\indexentry{Configuring the Director}{165}}
\@writefile{toc}{\contentsline {section}{\numberline {19.1}Director Resource Types}{165}{section.19.1}}
\@writefile{general}{\indexentry{Types!Director Resource}{165}}
\@writefile{general}{\indexentry{Director Resource Types}{165}}
\@writefile{toc}{\contentsline {section}{\numberline {19.2}The Director Resource}{166}{section.19.2}}
\newlabel{DirectorResource4}{{19.2}{166}{The Director Resource}{section.19.2}{}}
\@writefile{general}{\indexentry{Director Resource}{166}}
\@writefile{general}{\indexentry{Resource!Director}{166}}
\@writefile{dir}{\indexentry{Director}{166}}
\@writefile{dir}{\indexentry{Name}{166}}
\@writefile{dir}{\indexentry{Directive!Name}{166}}
\@writefile{dir}{\indexentry{Description}{166}}
\@writefile{dir}{\indexentry{Directive!Description}{166}}
\@writefile{dir}{\indexentry{Password}{166}}
\@writefile{dir}{\indexentry{Directive!Password}{166}}
\@writefile{dir}{\indexentry{Messages}{166}}
\@writefile{dir}{\indexentry{Directive!Messages}{166}}
\@writefile{dir}{\indexentry{Working Directory}{166}}
\@writefile{dir}{\indexentry{Directive!Working Directory}{166}}
\@writefile{dir}{\indexentry{Pid Directory}{166}}
\@writefile{dir}{\indexentry{Directive!Pid Directory}{166}}
\@writefile{dir}{\indexentry{Scripts Directory}{166}}
\@writefile{dir}{\indexentry{Directive!Scripts Directory}{166}}
\@writefile{dir}{\indexentry{QueryFile}{167}}
\@writefile{dir}{\indexentry{Directive!QueryFile}{167}}
\@writefile{dir}{\indexentry{Heartbeat Interval}{167}}
\@writefile{dir}{\indexentry{Directive!Heartbeat}{167}}
\newlabel{DirMaxConJobs}{{19.2}{167}{The Director Resource}{section.19.2}{}}
\@writefile{dir}{\indexentry{Maximum Concurrent Jobs}{167}}
\@writefile{dir}{\indexentry{Directive!Maximum Concurrent Jobs}{167}}
\@writefile{general}{\indexentry{Simultaneous Jobs}{167}}
\@writefile{general}{\indexentry{Concurrent Jobs}{167}}
\@writefile{dir}{\indexentry{FD Connect Timeout}{167}}
\@writefile{dir}{\indexentry{Directive!FD Connect Timeout}{167}}
\@writefile{dir}{\indexentry{SD Connect Timeout}{167}}
\@writefile{dir}{\indexentry{Directive!SD Connect Timeout}{167}}
\@writefile{dir}{\indexentry{DirAddresses}{167}}
\@writefile{dir}{\indexentry{Address}{167}}
\@writefile{general}{\indexentry{Address}{167}}
\@writefile{dir}{\indexentry{Directive!DirAddresses}{167}}
\@writefile{dir}{\indexentry{DirPort}{167}}
\@writefile{dir}{\indexentry{Directive!DirPort}{167}}
\@writefile{dir}{\indexentry{DirAddress}{168}}
\@writefile{dir}{\indexentry{Directive!DirAddress}{168}}
\@writefile{fd}{\indexentry{DirSourceAddress}{168}}
\@writefile{fd}{\indexentry{Directive!DirSourceAddress}{168}}
\@writefile{dir}{\indexentry{StatisticsRetention}{168}}
\@writefile{dir}{\indexentry{Directive!StatisticsRetention}{168}}
\newlabel{PruneStatistics}{{19.2}{168}{The Director Resource}{section.19.2}{}}
\@writefile{dir}{\indexentry{Directive!VerId}{168}}
\@writefile{dir}{\indexentry{MaximumConsoleConnections}{168}}
\@writefile{dir}{\indexentry{Directive!MaximumConsoleConnections}{168}}
\@writefile{dir}{\indexentry{Console}{168}}
\newlabel{Director:Director:MaximumReloadRequests}{{19.2}{168}{The Director Resource}{section.19.2}{}}
\@writefile{dir}{\indexentry{MaximumReloadRequests}{168}}
\@writefile{dir}{\indexentry{Directive!MaximumReloadRequests}{168}}
\@writefile{dir}{\indexentry{Console}{168}}
\@writefile{toc}{\contentsline {section}{\numberline {19.3}The Job Resource}{168}{section.19.3}}
\newlabel{JobResource}{{19.3}{168}{The Job Resource}{section.19.3}{}}
\@writefile{general}{\indexentry{Resource!Job}{168}}
\@writefile{general}{\indexentry{Job Resource}{168}}
\@writefile{dir}{\indexentry{Job}{169}}
\@writefile{dir}{\indexentry{Directive!Job}{169}}
\@writefile{dir}{\indexentry{Name}{169}}
\@writefile{dir}{\indexentry{Directive!Name}{169}}
\@writefile{dir}{\indexentry{Enable}{169}}
\@writefile{dir}{\indexentry{Directive!Enable}{169}}
\@writefile{dir}{\indexentry{Type}{169}}
\@writefile{dir}{\indexentry{Directive!Type}{169}}
\@writefile{dir}{\indexentry{Backup}{169}}
\@writefile{dir}{\indexentry{Restore}{169}}
\@writefile{dir}{\indexentry{Verify}{169}}
\@writefile{dir}{\indexentry{Admin}{169}}
\@writefile{dir}{\indexentry{Migration}{169}}
\newlabel{29@xvr}{{}{169}{The Job Resource}{section.19.3}{}}
\newlabel{29@vr}{{}{169}{The Job Resource}{section.19.3}{}}
\@writefile{dir}{\indexentry{Copy}{169}}
\newlabel{30@xvr}{{}{169}{The Job Resource}{section.19.3}{}}
\newlabel{30@vr}{{}{169}{The Job Resource}{section.19.3}{}}
\newlabel{Level}{{19.3}{169}{The Job Resource}{section.19.3}{}}
\@writefile{dir}{\indexentry{Level}{169}}
\@writefile{dir}{\indexentry{Directive!Level}{169}}
\@writefile{dir}{\indexentry{Full}{169}}
\@writefile{dir}{\indexentry{Incremental}{169}}
\@writefile{dir}{\indexentry{Differential}{170}}
\@writefile{dir}{\indexentry{VirtualFull}{171}}
\@writefile{dir}{\indexentry{InitCatalog}{171}}
\@writefile{dir}{\indexentry{Catalog}{171}}
\@writefile{dir}{\indexentry{VolumeToCatalog}{171}}
\@writefile{dir}{\indexentry{DiskToCatalog}{172}}
\@writefile{dir}{\indexentry{Accurate}{172}}
\@writefile{dir}{\indexentry{Verify Job}{172}}
\@writefile{dir}{\indexentry{Directive!Verify Job}{172}}
\@writefile{dir}{\indexentry{JobDefs}{172}}
\@writefile{dir}{\indexentry{Directive!JobDefs}{172}}
\@writefile{dir}{\indexentry{Bootstrap}{172}}
\@writefile{dir}{\indexentry{Directive!Bootstrap}{172}}
\newlabel{writebootstrap}{{19.3}{172}{The Job Resource}{section.19.3}{}}
\@writefile{dir}{\indexentry{Write Bootstrap}{172}}
\@writefile{dir}{\indexentry{Directive!Write Bootstrap}{172}}
\@writefile{dir}{\indexentry{Client}{173}}
\@writefile{dir}{\indexentry{Directive!Client}{173}}
\@writefile{dir}{\indexentry{FileSet}{173}}
\@writefile{dir}{\indexentry{Directive!FileSet}{173}}
\@writefile{dir}{\indexentry{Base}{173}}
\@writefile{dir}{\indexentry{Directive!Base}{173}}
\@writefile{dir}{\indexentry{Messages}{173}}
\@writefile{dir}{\indexentry{Directive!Messages}{173}}
\newlabel{Director:Job:SnapshotRetention}{{19.3}{173}{The Job Resource}{section.19.3}{}}
\@writefile{dir}{\indexentry{Snapshot Retention}{173}}
\@writefile{dir}{\indexentry{Directive!Snapshot Retention}{173}}
\@writefile{dir}{\indexentry{Pool}{173}}
\@writefile{dir}{\indexentry{Directive!Pool}{173}}
\@writefile{dir}{\indexentry{Full Backup Pool}{173}}
\@writefile{dir}{\indexentry{Directive!Full Backup Pool}{173}}
\@writefile{dir}{\indexentry{Differential Backup Pool}{173}}
\@writefile{dir}{\indexentry{Directive!Differential Backup Pool}{173}}
\@writefile{dir}{\indexentry{Incremental Backup Pool}{173}}
\@writefile{dir}{\indexentry{Directive!Incremental Backup Pool}{173}}
\newlabel{Director:Job:BackupsToKeep}{{19.3}{173}{The Job Resource}{section.19.3}{}}
\@writefile{dir}{\indexentry{Backups to Keep}{173}}
\@writefile{dir}{\indexentry{Directive!Backups To Keep}{173}}
\newlabel{Director:Job:DeleteConsolidatedJobs}{{19.3}{174}{The Job Resource}{section.19.3}{}}
\@writefile{dir}{\indexentry{Delete Consolidated Jobs}{174}}
\@writefile{dir}{\indexentry{Directive!Delete Consolidated Jobs}{174}}
\@writefile{dir}{\indexentry{Schedule}{174}}
\@writefile{dir}{\indexentry{Directive!Schedule}{174}}
\@writefile{dir}{\indexentry{Storage}{174}}
\@writefile{dir}{\indexentry{Directive!Storage}{174}}
\@writefile{dir}{\indexentry{Max Start Delay}{174}}
\@writefile{dir}{\indexentry{Directive!Max Start Delay}{174}}
\@writefile{dir}{\indexentry{Max Run Time}{174}}
\@writefile{dir}{\indexentry{Directive!Max Run Time}{174}}
\@writefile{dir}{\indexentry{Incremental Wait Run Time}{174}}
\@writefile{dir}{\indexentry{Differential Wait Run Time}{174}}
\@writefile{dir}{\indexentry{Directive!Differential Max Wait Time}{174}}
\@writefile{dir}{\indexentry{Incremental Max Run Time}{174}}
\@writefile{dir}{\indexentry{Directive!Incremental Max Run Time}{174}}
\@writefile{dir}{\indexentry{Differential Max Run Time}{174}}
\@writefile{dir}{\indexentry{Directive!Differential Max Run Time}{174}}
\@writefile{dir}{\indexentry{Max Run Sched Time}{174}}
\@writefile{dir}{\indexentry{Directive!Max Run Sched Time}{174}}
\@writefile{dir}{\indexentry{Max Wait Time}{174}}
\@writefile{dir}{\indexentry{Directive!Max Wait Time}{174}}
\newlabel{Director:Job:MaximumSpawnedJobs}{{19.3}{174}{The Job Resource}{figure.19.1}{}}
\@writefile{lof}{\contentsline {figure}{\numberline {19.1}{\ignorespaces Job time control directives}}{175}{figure.19.1}}
\newlabel{fig:differenttime}{{19.1}{175}{Job time control directives}{figure.19.1}{}}
\@writefile{dir}{\indexentry{Maximum Spawned Jobs}{175}}
\@writefile{dir}{\indexentry{Directive!Maximum Spawned Jobs}{175}}
\@writefile{dir}{\indexentry{Maximum Bandwidth}{175}}
\@writefile{dir}{\indexentry{Directive!Maximum Bandwidth}{175}}
\@writefile{dir}{\indexentry{Max Full Interval}{175}}
\@writefile{dir}{\indexentry{Directive!Max Full Interval}{175}}
\newlabel{PreferMountedVolumes}{{19.3}{175}{The Job Resource}{figure.19.1}{}}
\@writefile{dir}{\indexentry{Prefer Mounted Volumes}{175}}
\@writefile{dir}{\indexentry{Directive!Prefer Mounted Volumes}{175}}
\@writefile{dir}{\indexentry{Prune Jobs}{175}}
\@writefile{dir}{\indexentry{Directive!Prune Jobs}{175}}
\gdef \LT@v {\LT@entry 
    {5}{111.48874pt}\LT@entry 
    {5}{111.08875pt}\LT@entry 
    {5}{111.08875pt}\LT@entry 
    {5}{111.08875pt}}
\@writefile{dir}{\indexentry{Prune Files}{176}}
\@writefile{dir}{\indexentry{Directive!Prune Files}{176}}
\@writefile{dir}{\indexentry{Prune Volumes}{176}}
\@writefile{dir}{\indexentry{Directive!Prune Volumes}{176}}
\@writefile{dir}{\indexentry{RunScript}{176}}
\@writefile{dir}{\indexentry{Directive!Run Script}{176}}
\newlabel{character substitution}{{19.3}{176}{The Job Resource}{table.19.1}{}}
\gdef \LT@vi {\LT@entry 
    {5}{111.30016pt}\LT@entry 
    {1}{66.69096pt}\LT@entry 
    {1}{66.69096pt}\LT@entry 
    {1}{66.69096pt}\LT@entry 
    {1}{66.69096pt}\LT@entry 
    {1}{66.69096pt}}
\@writefile{dir}{\indexentry{Exit Status}{177}}
\@writefile{dir}{\indexentry{Run Before Job}{179}}
\@writefile{dir}{\indexentry{Directive!Run Before Job}{179}}
\@writefile{dir}{\indexentry{Directive!Run Before Job}{179}}
\@writefile{dir}{\indexentry{Run After Job}{180}}
\@writefile{dir}{\indexentry{Directive!Run After Job}{180}}
\newlabel{31@xvr}{{}{180}{The Job Resource}{Item.58}{}}
\newlabel{31@vr}{{}{180}{The Job Resource}{Item.58}{}}
\@writefile{dir}{\indexentry{Run After Job}{180}}
\@writefile{dir}{\indexentry{Directive!Run After Job}{180}}
\newlabel{32@xvr}{{}{180}{The Job Resource}{Item.58}{}}
\newlabel{32@vr}{{}{180}{The Job Resource}{Item.58}{}}
\@writefile{dir}{\indexentry{Client Run Before Job}{180}}
\@writefile{dir}{\indexentry{Directive!Client Run Before Job}{180}}
\@writefile{dir}{\indexentry{Client Run After Job}{180}}
\@writefile{dir}{\indexentry{Directive!Client Run After Job}{180}}
\@writefile{dir}{\indexentry{Rerun Failed Levels}{180}}
\@writefile{dir}{\indexentry{Directive!Rerun Failed Levels}{180}}
\@writefile{dir}{\indexentry{Spool Data}{181}}
\@writefile{dir}{\indexentry{Directive!Spool Data}{181}}
\@writefile{dir}{\indexentry{Spool Attributes}{181}}
\@writefile{dir}{\indexentry{Directive!Spool Attributes}{181}}
\@writefile{dir}{\indexentry{slow}{181}}
\@writefile{general}{\indexentry{slow}{181}}
\@writefile{dir}{\indexentry{Backups!slow}{181}}
\@writefile{general}{\indexentry{Backups!slow}{181}}
\@writefile{dir}{\indexentry{SpoolSize}{181}}
\@writefile{dir}{\indexentry{Directive!SpoolSize}{181}}
\@writefile{dir}{\indexentry{Where}{181}}
\@writefile{dir}{\indexentry{Directive!Where}{181}}
\newlabel{confaddprefix}{{19.3}{181}{The Job Resource}{Item.58}{}}
\@writefile{dir}{\indexentry{AddPrefix}{181}}
\@writefile{dir}{\indexentry{Directive!AddPrefix}{181}}
\@writefile{dir}{\indexentry{AddSuffix}{181}}
\@writefile{dir}{\indexentry{Directive!AddSuffix}{181}}
\@writefile{dir}{\indexentry{StripPrefix}{181}}
\@writefile{dir}{\indexentry{Directive!StripPrefix}{181}}
\@writefile{dir}{\indexentry{RegexWhere}{181}}
\@writefile{dir}{\indexentry{Directive!RegexWhere}{181}}
\@writefile{dir}{\indexentry{Replace}{181}}
\@writefile{dir}{\indexentry{Directive!Replace}{181}}
\@writefile{dir}{\indexentry{always}{181}}
\@writefile{dir}{\indexentry{ifnewer}{182}}
\@writefile{dir}{\indexentry{ifolder}{182}}
\@writefile{dir}{\indexentry{never}{182}}
\@writefile{dir}{\indexentry{Prefix Links}{182}}
\@writefile{dir}{\indexentry{Directive!Prefix Links}{182}}
\@writefile{dir}{\indexentry{Maximum Concurrent Jobs}{182}}
\@writefile{dir}{\indexentry{Directive!Maximum Concurrent Jobs}{182}}
\@writefile{dir}{\indexentry{Reschedule On Error}{182}}
\@writefile{dir}{\indexentry{Directive!Reschedule On Error}{182}}
\@writefile{dir}{\indexentry{Reschedule Incomplete Jobs}{182}}
\@writefile{dir}{\indexentry{Directive!Reschedule Incomplete Jobs}{182}}
\@writefile{dir}{\indexentry{Reschedule Interval}{182}}
\@writefile{dir}{\indexentry{Directive!Reschedule Interval}{182}}
\@writefile{dir}{\indexentry{Reschedule Times}{182}}
\@writefile{dir}{\indexentry{Directive!Reschedule Times}{182}}
\@writefile{general}{\indexentry{Allow Duplicate Jobs}{182}}
\@writefile{general}{\indexentry{Allow Higher Duplicates}{182}}
\@writefile{general}{\indexentry{Cancel Lower Level Duplicates}{182}}
\@writefile{lof}{\contentsline {figure}{\numberline {19.2}{\ignorespaces Allow Duplicate Jobs usage}}{183}{figure.19.2}}
\newlabel{fig:allowduplicatejobs}{{19.2}{183}{Allow Duplicate Jobs usage}{figure.19.2}{}}
\@writefile{general}{\indexentry{Cancel Queued Duplicates}{184}}
\@writefile{general}{\indexentry{Cancel Running Duplicates}{184}}
\@writefile{dir}{\indexentry{Run}{184}}
\@writefile{dir}{\indexentry{Directive!Run}{184}}
\@writefile{dir}{\indexentry{Clone a Job}{184}}
\newlabel{Priority}{{19.3}{184}{The Job Resource}{figure.19.2}{}}
\@writefile{dir}{\indexentry{Priority}{184}}
\@writefile{dir}{\indexentry{Directive!Priority}{184}}
\newlabel{33@xvr}{{}{184}{The Job Resource}{figure.19.2}{}}
\newlabel{33@vr}{{}{184}{The Job Resource}{figure.19.2}{}}
\newlabel{AllowMixedPriority}{{19.3}{185}{The Job Resource}{figure.19.2}{}}
\@writefile{dir}{\indexentry{Allow Mixed Priority}{185}}
\@writefile{toc}{\contentsline {section}{\numberline {19.4}The JobDefs Resource}{185}{section.19.4}}
\newlabel{JobDefsResource}{{19.4}{185}{The JobDefs Resource}{section.19.4}{}}
\@writefile{general}{\indexentry{JobDefs Resource}{185}}
\@writefile{general}{\indexentry{Resource!JobDefs}{185}}
\@writefile{toc}{\contentsline {section}{\numberline {19.5}The Schedule Resource}{185}{section.19.5}}
\newlabel{ScheduleResource}{{19.5}{185}{The Schedule Resource}{section.19.5}{}}
\@writefile{general}{\indexentry{Resource!Schedule}{185}}
\@writefile{general}{\indexentry{Schedule Resource}{185}}
\@writefile{dir}{\indexentry{Schedule}{185}}
\@writefile{dir}{\indexentry{Directive!Schedule}{185}}
\@writefile{dir}{\indexentry{Name}{185}}
\@writefile{dir}{\indexentry{Directive!Name}{185}}
\@writefile{dir}{\indexentry{Enabled}{185}}
\@writefile{dir}{\indexentry{Directive!Enabled}{185}}
\@writefile{dir}{\indexentry{Run}{185}}
\@writefile{dir}{\indexentry{Directive!Run}{185}}
\@writefile{dir}{\indexentry{Level}{186}}
\@writefile{dir}{\indexentry{Directive!Level}{186}}
\@writefile{dir}{\indexentry{Level}{186}}
\@writefile{dir}{\indexentry{Directive!Level}{186}}
\@writefile{dir}{\indexentry{Pool}{186}}
\@writefile{dir}{\indexentry{Directive!Pool}{186}}
\@writefile{dir}{\indexentry{Storage}{186}}
\@writefile{dir}{\indexentry{Directive!Storage}{186}}
\@writefile{dir}{\indexentry{Messages}{186}}
\@writefile{dir}{\indexentry{Directive!Messages}{186}}
\@writefile{dir}{\indexentry{FullPool}{186}}
\@writefile{dir}{\indexentry{Directive!FullPool}{186}}
\@writefile{dir}{\indexentry{DifferentialPool}{186}}
\@writefile{dir}{\indexentry{Directive!DifferentialPool}{186}}
\@writefile{dir}{\indexentry{IncrementalPool}{186}}
\@writefile{dir}{\indexentry{Directive!IncrementalPool}{186}}
\@writefile{dir}{\indexentry{Accurate}{186}}
\@writefile{dir}{\indexentry{Directive!Accurate}{186}}
\@writefile{toc}{\contentsline {section}{\numberline {19.6}Technical Notes on Schedules}{188}{section.19.6}}
\@writefile{general}{\indexentry{Schedules!Technical Notes on}{188}}
\@writefile{general}{\indexentry{Technical Notes on Schedules}{188}}
\@writefile{toc}{\contentsline {section}{\numberline {19.7}The FileSet Resource}{188}{section.19.7}}
\newlabel{FileSetResource}{{19.7}{188}{The FileSet Resource}{section.19.7}{}}
\@writefile{general}{\indexentry{Resource!FileSet}{188}}
\@writefile{general}{\indexentry{FileSet Resource}{188}}
\@writefile{dir}{\indexentry{FileSet}{188}}
\@writefile{dir}{\indexentry{Directive!FileSet}{188}}
\@writefile{dir}{\indexentry{Name}{188}}
\@writefile{dir}{\indexentry{Directive!Name}{188}}
\@writefile{dir}{\indexentry{Ignore FileSet Changes}{188}}
\@writefile{dir}{\indexentry{Directive!Ignore FileSet Changes}{188}}
\@writefile{dir}{\indexentry{Enable VSS}{188}}
\@writefile{dir}{\indexentry{Directive!Enable VSS}{188}}
\@writefile{dir}{\indexentry{Include \{ [ Options \{\lt{}file-options\gt{}\} ...]    \lt{}file-list\gt{} \}  }{188}}
\@writefile{dir}{\indexentry{Directive!Include}{188}}
\@writefile{dir}{\indexentry{Options \{ \lt{}file-options\gt{} \}  }{188}}
\@writefile{dir}{\indexentry{Exclude \{ \lt{}file-list\gt{} \} }{189}}
\@writefile{dir}{\indexentry{Directive!Exclude}{189}}
\@writefile{dir}{\indexentry{compression}{190}}
\@writefile{dir}{\indexentry{Directive!compression}{190}}
\@writefile{dir}{\indexentry{compression}{190}}
\@writefile{dir}{\indexentry{Directive!compression}{190}}
\@writefile{dir}{\indexentry{signature}{190}}
\@writefile{dir}{\indexentry{SHA1}{190}}
\@writefile{dir}{\indexentry{Directive!signature}{190}}
\@writefile{dir}{\indexentry{signature}{190}}
\@writefile{dir}{\indexentry{MD5}{190}}
\@writefile{dir}{\indexentry{Directive!signature}{190}}
\@writefile{dir}{\indexentry{basejob}{191}}
\@writefile{dir}{\indexentry{Directive!basejob}{191}}
\@writefile{dir}{\indexentry{accurate}{191}}
\@writefile{dir}{\indexentry{Directive!accurate}{191}}
\@writefile{dir}{\indexentry{verify}{191}}
\@writefile{dir}{\indexentry{Directive!verify}{191}}
\@writefile{dir}{\indexentry{onefs}{191}}
\@writefile{dir}{\indexentry{Directive!onefs}{191}}
\@writefile{dir}{\indexentry{honornodumpflag}{192}}
\@writefile{dir}{\indexentry{Directive!honornodumpflag}{192}}
\newlabel{portable}{{19.7}{192}{The FileSet Resource}{Item.63}{}}
\@writefile{dir}{\indexentry{portable}{192}}
\@writefile{dir}{\indexentry{Directive!portable}{192}}
\@writefile{dir}{\indexentry{recurse}{192}}
\@writefile{dir}{\indexentry{Directive!recurse}{192}}
\@writefile{dir}{\indexentry{sparse}{192}}
\@writefile{dir}{\indexentry{Directive!sparse}{192}}
\newlabel{readfifo}{{19.7}{193}{The FileSet Resource}{Item.63}{}}
\@writefile{dir}{\indexentry{readfifo}{193}}
\@writefile{dir}{\indexentry{Directive!readfifo}{193}}
\@writefile{dir}{\indexentry{noatime}{193}}
\@writefile{dir}{\indexentry{Directive!noatime}{193}}
\@writefile{dir}{\indexentry{mtimeonly}{193}}
\@writefile{dir}{\indexentry{Directive!mtimeonly}{193}}
\@writefile{dir}{\indexentry{keepatime}{193}}
\@writefile{dir}{\indexentry{Directive!keepatime}{193}}
\@writefile{dir}{\indexentry{checkfilechanges}{193}}
\@writefile{dir}{\indexentry{Directive!checkfilechanges}{193}}
\@writefile{dir}{\indexentry{hardlinks}{194}}
\@writefile{dir}{\indexentry{Directive!hardlinks}{194}}
\@writefile{dir}{\indexentry{wild}{194}}
\@writefile{dir}{\indexentry{Directive!wild}{194}}
\newlabel{34@xvr}{{}{194}{The FileSet Resource}{Item.63}{}}
\newlabel{34@vr}{{}{194}{The FileSet Resource}{Item.63}{}}
\newlabel{35@xvr}{{}{194}{The FileSet Resource}{Item.63}{}}
\newlabel{35@vr}{{}{194}{The FileSet Resource}{Item.63}{}}
\@writefile{dir}{\indexentry{wilddir}{194}}
\@writefile{dir}{\indexentry{Directive!wilddir}{194}}
\newlabel{36@xvr}{{}{194}{The FileSet Resource}{Item.63}{}}
\newlabel{36@vr}{{}{194}{The FileSet Resource}{Item.63}{}}
\newlabel{37@xvr}{{}{194}{The FileSet Resource}{Item.63}{}}
\newlabel{37@vr}{{}{194}{The FileSet Resource}{Item.63}{}}
\@writefile{dir}{\indexentry{wildfile}{194}}
\@writefile{dir}{\indexentry{Directive!wildfile}{194}}
\newlabel{38@xvr}{{}{194}{The FileSet Resource}{Item.63}{}}
\newlabel{38@vr}{{}{194}{The FileSet Resource}{Item.63}{}}
\newlabel{39@xvr}{{}{194}{The FileSet Resource}{Item.63}{}}
\newlabel{39@vr}{{}{194}{The FileSet Resource}{Item.63}{}}
\@writefile{dir}{\indexentry{regex}{194}}
\@writefile{dir}{\indexentry{Directive!regex}{194}}
\newlabel{40@xvr}{{}{194}{The FileSet Resource}{Item.63}{}}
\newlabel{40@vr}{{}{194}{The FileSet Resource}{Item.63}{}}
\newlabel{41@xvr}{{}{194}{The FileSet Resource}{Item.63}{}}
\newlabel{41@vr}{{}{194}{The FileSet Resource}{Item.63}{}}
\@writefile{dir}{\indexentry{regexfile}{195}}
\@writefile{dir}{\indexentry{Directive!regexfile}{195}}
\newlabel{42@xvr}{{}{195}{The FileSet Resource}{Item.63}{}}
\newlabel{42@vr}{{}{195}{The FileSet Resource}{Item.63}{}}
\@writefile{dir}{\indexentry{regexdir}{195}}
\@writefile{dir}{\indexentry{Directive!regexdir}{195}}
\newlabel{43@xvr}{{}{195}{The FileSet Resource}{Item.63}{}}
\newlabel{43@vr}{{}{195}{The FileSet Resource}{Item.63}{}}
\@writefile{dir}{\indexentry{exclude}{195}}
\@writefile{dir}{\indexentry{Directive!exclude}{195}}
\newlabel{ACLSupport}{{19.7}{195}{The FileSet Resource}{Item.63}{}}
\@writefile{dir}{\indexentry{aclsupport}{195}}
\@writefile{dir}{\indexentry{Directive!aclsupport}{195}}
\newlabel{XattrSupport}{{19.7}{195}{The FileSet Resource}{Item.71}{}}
\@writefile{dir}{\indexentry{xattrsupport}{195}}
\@writefile{dir}{\indexentry{Directive!xattrsupport}{195}}
\@writefile{dir}{\indexentry{ignore case}{196}}
\@writefile{dir}{\indexentry{Directive!ignore case}{196}}
\@writefile{dir}{\indexentry{fstype}{196}}
\@writefile{dir}{\indexentry{Directive!fstype}{196}}
\@writefile{dir}{\indexentry{DriveType}{196}}
\@writefile{dir}{\indexentry{Directive!DriveType}{196}}
\@writefile{dir}{\indexentry{hfsplussupport}{196}}
\@writefile{dir}{\indexentry{Directive!hfsplussupport}{196}}
\@writefile{dir}{\indexentry{strippath}{196}}
\@writefile{dir}{\indexentry{Directive!strippath}{196}}
\@writefile{general}{\indexentry{IgnoreDir}{199}}
\@writefile{toc}{\contentsline {section}{\numberline {19.8}FileSet Examples}{200}{section.19.8}}
\@writefile{general}{\indexentry{Examples!FileSet }{200}}
\@writefile{general}{\indexentry{FileSet Examples}{200}}
\@writefile{toc}{\contentsline {section}{\numberline {19.9}Backing up Raw Partitions}{203}{section.19.9}}
\@writefile{general}{\indexentry{Backing up!Partitions }{203}}
\@writefile{general}{\indexentry{Backing up Raw Partitions }{203}}
\@writefile{toc}{\contentsline {section}{\numberline {19.10}Excluding Files and Directories}{203}{section.19.10}}
\@writefile{general}{\indexentry{Directories!Excluding Files and }{203}}
\@writefile{general}{\indexentry{Excluding Files and Directories }{203}}
\newlabel{win32}{{19.10}{204}{Excluding Files and Directories}{section.19.10}{}}
\@writefile{toc}{\contentsline {section}{\numberline {19.11}Windows FileSets}{204}{section.19.11}}
\@writefile{general}{\indexentry{Windows FileSets }{204}}
\@writefile{general}{\indexentry{FileSets!Windows }{204}}
\newlabel{44@xvr}{{}{204}{Windows FileSets}{section.19.11}{}}
\newlabel{44@vr}{{}{204}{Windows FileSets}{section.19.11}{}}
\@writefile{general}{\indexentry{FileSet!Windows Example }{204}}
\@writefile{general}{\indexentry{Windows Example FileSet }{204}}
\@writefile{general}{\indexentry{Windows NTFS Naming Considerations }{206}}
\@writefile{general}{\indexentry{Considerations!Windows NTFS Naming }{206}}
\@writefile{toc}{\contentsline {section}{\numberline {19.12}Testing Your FileSet}{206}{section.19.12}}
\@writefile{general}{\indexentry{FileSet!Testing Your }{206}}
\@writefile{general}{\indexentry{Testing Your FileSet }{206}}
\newlabel{45@xvr}{{}{206}{Testing Your FileSet}{section.19.12}{}}
\newlabel{45@vr}{{}{206}{Testing Your FileSet}{section.19.12}{}}
\@writefile{toc}{\contentsline {section}{\numberline {19.13}The Client Resource}{206}{section.19.13}}
\newlabel{ClientResource2}{{19.13}{206}{The Client Resource}{section.19.13}{}}
\@writefile{general}{\indexentry{Resource!Client}{206}}
\@writefile{general}{\indexentry{Client Resource}{206}}
\@writefile{dir}{\indexentry{Client (or FileDaemon)}{206}}
\@writefile{dir}{\indexentry{Directive!Client (or FileDaemon)}{206}}
\@writefile{dir}{\indexentry{Name}{206}}
\@writefile{dir}{\indexentry{Directive!Name}{206}}
\@writefile{dir}{\indexentry{Enable}{206}}
\@writefile{dir}{\indexentry{Directive!Enable}{206}}
\@writefile{dir}{\indexentry{Address}{206}}
\@writefile{dir}{\indexentry{Directive!FD Address}{206}}
\@writefile{dir}{\indexentry{File Daemon Address}{206}}
\@writefile{dir}{\indexentry{Client Address}{206}}
\@writefile{dir}{\indexentry{FD Port}{206}}
\@writefile{dir}{\indexentry{Directive!FD Port}{206}}
\@writefile{dir}{\indexentry{Catalog}{207}}
\@writefile{dir}{\indexentry{Directive!Catalog}{207}}
\@writefile{dir}{\indexentry{Password}{207}}
\@writefile{dir}{\indexentry{Directive!Password}{207}}
\@writefile{dir}{\indexentry{Snapshot Retention}{207}}
\@writefile{dir}{\indexentry{Directive!Snapshot Retention}{207}}
\newlabel{FileRetention}{{19.13}{207}{The Client Resource}{section.19.13}{}}
\@writefile{dir}{\indexentry{File Retention}{207}}
\@writefile{dir}{\indexentry{Directive!File Retention}{207}}
\newlabel{JobRetention}{{19.13}{207}{The Client Resource}{section.19.13}{}}
\@writefile{dir}{\indexentry{Job Retention}{207}}
\@writefile{dir}{\indexentry{Directive!Job Retention}{207}}
\newlabel{AutoPrune}{{19.13}{207}{The Client Resource}{section.19.13}{}}
\@writefile{dir}{\indexentry{AutoPrune}{207}}
\@writefile{dir}{\indexentry{Directive!AutoPrune}{207}}
\@writefile{dir}{\indexentry{Maximum Concurrent Jobs}{207}}
\@writefile{dir}{\indexentry{Directive!Maximum Concurrent Jobs}{207}}
\@writefile{dir}{\indexentry{Maximum Bandwidth Per Job}{208}}
\@writefile{dir}{\indexentry{Directive!Maximum Bandwidth Per Job}{208}}
\@writefile{dir}{\indexentry{Priority}{208}}
\@writefile{dir}{\indexentry{Directive!Priority}{208}}
\newlabel{Director:Client:SDCallsClient}{{19.13}{208}{The Client Resource}{section.19.13}{}}
\@writefile{dir}{\indexentry{SD Calls Client}{208}}
\@writefile{dir}{\indexentry{Directive!SD Calls Client}{208}}
\@writefile{toc}{\contentsline {section}{\numberline {19.14}The Storage Resource}{208}{section.19.14}}
\newlabel{StorageResource2}{{19.14}{208}{The Storage Resource}{section.19.14}{}}
\@writefile{general}{\indexentry{Resource!Storage}{208}}
\@writefile{general}{\indexentry{Storage Resource}{208}}
\@writefile{dir}{\indexentry{Storage}{208}}
\@writefile{dir}{\indexentry{Directive!Storage}{208}}
\@writefile{dir}{\indexentry{Name}{208}}
\@writefile{dir}{\indexentry{Directive!Name}{208}}
\@writefile{dir}{\indexentry{Enable}{208}}
\@writefile{dir}{\indexentry{Directive!Enable}{208}}
\@writefile{dir}{\indexentry{Address}{208}}
\@writefile{dir}{\indexentry{Directive!SD Address}{208}}
\@writefile{dir}{\indexentry{Storage daemon Address}{208}}
\@writefile{dir}{\indexentry{FDStorageAddress}{209}}
\@writefile{dir}{\indexentry{Directive!FD Storage Address}{209}}
\@writefile{dir}{\indexentry{Storage daemon Address}{209}}
\@writefile{lof}{\contentsline {figure}{\numberline {19.3}{\ignorespaces Backup over WAN using FD Storage Address}}{209}{figure.19.3}}
\newlabel{fig:backupwan}{{19.3}{209}{Backup over WAN using FD Storage Address}{figure.19.3}{}}
\@writefile{dir}{\indexentry{SD Port}{209}}
\@writefile{dir}{\indexentry{Directive!SD Port}{209}}
\@writefile{dir}{\indexentry{Password}{209}}
\@writefile{dir}{\indexentry{Directive!Password}{209}}
\@writefile{dir}{\indexentry{Device}{209}}
\@writefile{dir}{\indexentry{Directive!Device}{209}}
\newlabel{MediaType}{{19.14}{210}{The Storage Resource}{figure.19.3}{}}
\@writefile{dir}{\indexentry{Media Type}{210}}
\@writefile{dir}{\indexentry{Directive!Media Type}{210}}
\newlabel{Autochanger1}{{19.14}{210}{The Storage Resource}{figure.19.3}{}}
\@writefile{dir}{\indexentry{Autochanger}{210}}
\@writefile{dir}{\indexentry{Directive!Autochanger}{210}}
\@writefile{dir}{\indexentry{Maximum Concurrent Jobs}{211}}
\@writefile{dir}{\indexentry{Directive!Maximum Concurrent Jobs}{211}}
\@writefile{dir}{\indexentry{MaximumConcurrentReadJobs}{211}}
\@writefile{dir}{\indexentry{Directive!MaximumConcurrentReadJobs}{211}}
\newlabel{AllowCompression}{{19.14}{211}{The Storage Resource}{figure.19.3}{}}
\@writefile{dir}{\indexentry{AllowCompression}{211}}
\@writefile{dir}{\indexentry{Directive!AllowCompression}{211}}
\@writefile{dir}{\indexentry{Heartbeat Interval}{211}}
\@writefile{dir}{\indexentry{Directive!Heartbeat}{211}}
\@writefile{toc}{\contentsline {section}{\numberline {19.15}The Autochanger Resources}{211}{section.19.15}}
\@writefile{general}{\indexentry{Resource!Autochanger}{211}}
\@writefile{general}{\indexentry{Autochanger Resource}{211}}
\newlabel{46@xvr}{{}{211}{The Autochanger Resources}{section.19.15}{}}
\newlabel{46@vr}{{}{211}{The Autochanger Resources}{section.19.15}{}}
\@writefile{toc}{\contentsline {section}{\numberline {19.16}The Pool Resource}{212}{section.19.16}}
\newlabel{PoolResource}{{19.16}{212}{The Pool Resource}{section.19.16}{}}
\@writefile{general}{\indexentry{Resource!Pool}{212}}
\@writefile{general}{\indexentry{Pool Resource}{212}}
\@writefile{dir}{\indexentry{Pool}{213}}
\@writefile{dir}{\indexentry{Directive!Pool}{213}}
\@writefile{dir}{\indexentry{Name}{213}}
\@writefile{dir}{\indexentry{Directive!Name}{213}}
\newlabel{MaxVolumes}{{19.16}{213}{The Pool Resource}{section.19.16}{}}
\@writefile{dir}{\indexentry{Maximum Volumes}{213}}
\@writefile{dir}{\indexentry{Directive!Maximum Volumes}{213}}
\@writefile{dir}{\indexentry{Pool Type}{213}}
\@writefile{dir}{\indexentry{Directive!Pool Type}{213}}
\@writefile{dir}{\indexentry{Storage}{213}}
\@writefile{dir}{\indexentry{Directive!Storage}{213}}
\@writefile{dir}{\indexentry{Use Volume Once}{213}}
\@writefile{dir}{\indexentry{Directive!Use Volume Once}{213}}
\@writefile{dir}{\indexentry{Maximum Volume Jobs}{214}}
\@writefile{dir}{\indexentry{Directive!Maximum Volume Jobs}{214}}
\@writefile{dir}{\indexentry{Maximum Volume Files}{214}}
\@writefile{dir}{\indexentry{Directive!Maximum Volume Files}{214}}
\@writefile{dir}{\indexentry{Maximum Volume Bytes}{214}}
\@writefile{dir}{\indexentry{Directive!Maximum Volume Bytes}{214}}
\@writefile{dir}{\indexentry{Volume Use Duration}{214}}
\@writefile{dir}{\indexentry{Directive!Volume Use Duration}{214}}
\newlabel{47@xvr}{{}{215}{The Pool Resource}{section.19.16}{}}
\newlabel{47@vr}{{}{215}{The Pool Resource}{section.19.16}{}}
\@writefile{dir}{\indexentry{Catalog Files}{215}}
\@writefile{dir}{\indexentry{Directive!Catalog Files}{215}}
\newlabel{PoolAutoPrune}{{19.16}{215}{The Pool Resource}{section.19.16}{}}
\@writefile{dir}{\indexentry{AutoPrune}{215}}
\@writefile{dir}{\indexentry{Directive!AutoPrune}{215}}
\newlabel{VolRetention}{{19.16}{215}{The Pool Resource}{section.19.16}{}}
\@writefile{dir}{\indexentry{Volume Retention}{215}}
\@writefile{dir}{\indexentry{Directive!Volume Retention}{215}}
\@writefile{dir}{\indexentry{Directive!Cache Retention}{215}}
\@writefile{dir}{\indexentry{actiononpurge}{216}}
\newlabel{PoolScratchPool}{{19.16}{216}{The Pool Resource}{section.19.16}{}}
\@writefile{dir}{\indexentry{ScrachPool}{216}}
\@writefile{dir}{\indexentry{Directive!ScrachPool}{216}}
\newlabel{PoolRecyclePool}{{19.16}{216}{The Pool Resource}{section.19.16}{}}
\@writefile{dir}{\indexentry{RecyclePool}{216}}
\@writefile{dir}{\indexentry{Directive!RecyclePool}{216}}
\newlabel{PoolRecycle}{{19.16}{216}{The Pool Resource}{section.19.16}{}}
\@writefile{dir}{\indexentry{Recycle}{216}}
\@writefile{dir}{\indexentry{Directive!Recycle}{216}}
\newlabel{RecycleOldest}{{19.16}{216}{The Pool Resource}{section.19.16}{}}
\@writefile{dir}{\indexentry{Recycle Oldest Volume}{217}}
\@writefile{dir}{\indexentry{Directive!Recycle Oldest Volume}{217}}
\newlabel{RecycleCurrent}{{19.16}{217}{The Pool Resource}{section.19.16}{}}
\@writefile{dir}{\indexentry{Recycle Current Volume}{217}}
\@writefile{dir}{\indexentry{Directive!Recycle Current Volume}{217}}
\newlabel{PurgeOldest}{{19.16}{217}{The Pool Resource}{section.19.16}{}}
\@writefile{dir}{\indexentry{Purge Oldest Volume}{217}}
\@writefile{dir}{\indexentry{Directive!Purge Oldest Volume}{217}}
\@writefile{dir}{\indexentry{File Retention}{217}}
\@writefile{dir}{\indexentry{Directive!File Retention}{217}}
\@writefile{dir}{\indexentry{Job Retention}{217}}
\@writefile{dir}{\indexentry{Directive!Job Retention}{217}}
\@writefile{dir}{\indexentry{Cleaning Prefix}{217}}
\@writefile{dir}{\indexentry{Directive!Cleaning Prefix}{217}}
\newlabel{Label}{{19.16}{218}{The Pool Resource}{section.19.16}{}}
\@writefile{dir}{\indexentry{Label Format}{218}}
\@writefile{dir}{\indexentry{Directive!Label Format}{218}}
\newlabel{48@xvr}{{}{218}{The Pool Resource}{section.19.16}{}}
\newlabel{48@vr}{{}{218}{The Pool Resource}{section.19.16}{}}
\newlabel{49@xvr}{{}{218}{The Pool Resource}{section.19.16}{}}
\newlabel{49@vr}{{}{218}{The Pool Resource}{section.19.16}{}}
\@writefile{toc}{\contentsline {subsection}{\numberline {19.16.1}The Scratch Pool}{218}{subsection.19.16.1}}
\newlabel{TheScratchPool}{{19.16.1}{218}{The Scratch Pool}{subsection.19.16.1}{}}
\@writefile{general}{\indexentry{Scratch Pool}{218}}
\@writefile{toc}{\contentsline {section}{\numberline {19.17}The Catalog Resource}{218}{section.19.17}}
\newlabel{CatalogResource}{{19.17}{218}{The Catalog Resource}{section.19.17}{}}
\@writefile{general}{\indexentry{Resource!Catalog}{218}}
\@writefile{general}{\indexentry{Catalog Resource}{218}}
\@writefile{dir}{\indexentry{Catalog}{219}}
\@writefile{dir}{\indexentry{Directive!Catalog}{219}}
\@writefile{dir}{\indexentry{Name}{219}}
\@writefile{dir}{\indexentry{Directive!Name}{219}}
\@writefile{dir}{\indexentry{password}{219}}
\@writefile{dir}{\indexentry{Directive!password}{219}}
\@writefile{dir}{\indexentry{DB Name}{219}}
\@writefile{dir}{\indexentry{Directive!DB Name}{219}}
\@writefile{dir}{\indexentry{user}{219}}
\@writefile{dir}{\indexentry{Directive!user}{219}}
\@writefile{dir}{\indexentry{DB Socket}{219}}
\@writefile{dir}{\indexentry{Directive!DB Socket}{219}}
\@writefile{dir}{\indexentry{DB Address}{219}}
\@writefile{dir}{\indexentry{Directive!DB Address}{219}}
\@writefile{dir}{\indexentry{DB Port}{219}}
\@writefile{dir}{\indexentry{Directive!DBPort}{219}}
\@writefile{toc}{\contentsline {section}{\numberline {19.18}The Messages Resource}{219}{section.19.18}}
\newlabel{MessagesResource2}{{19.18}{219}{The Messages Resource}{section.19.18}{}}
\@writefile{general}{\indexentry{Resource!Messages}{219}}
\@writefile{general}{\indexentry{Messages Resource}{219}}
\@writefile{toc}{\contentsline {section}{\numberline {19.19}The Console Resource}{220}{section.19.19}}
\newlabel{ConsoleResource1}{{19.19}{220}{The Console Resource}{section.19.19}{}}
\@writefile{general}{\indexentry{Console Resource}{220}}
\@writefile{general}{\indexentry{Resource!Console}{220}}
\@writefile{dir}{\indexentry{Name}{220}}
\@writefile{dir}{\indexentry{Directive!Name}{220}}
\@writefile{dir}{\indexentry{Password}{220}}
\@writefile{dir}{\indexentry{Directive!Password}{220}}
\@writefile{dir}{\indexentry{JobACL}{220}}
\@writefile{dir}{\indexentry{Directive!JobACL}{220}}
\@writefile{dir}{\indexentry{ClientACL}{220}}
\@writefile{dir}{\indexentry{Directive!ClientACL}{220}}
\@writefile{dir}{\indexentry{StorageACL}{220}}
\@writefile{dir}{\indexentry{Directive!StorageACL}{220}}
\@writefile{dir}{\indexentry{ScheduleACL}{220}}
\@writefile{dir}{\indexentry{Directive!ScheduleACL}{220}}
\@writefile{dir}{\indexentry{PoolACL}{221}}
\@writefile{dir}{\indexentry{Directive!PoolACL}{221}}
\@writefile{dir}{\indexentry{FileSetACL}{221}}
\@writefile{dir}{\indexentry{Directive!FileSetACL}{221}}
\@writefile{dir}{\indexentry{CatalogACL}{221}}
\@writefile{dir}{\indexentry{Directive!CatalogACL}{221}}
\@writefile{dir}{\indexentry{CommandACL}{221}}
\@writefile{dir}{\indexentry{Directive!CommandACL}{221}}
\@writefile{dir}{\indexentry{WhereACL}{221}}
\@writefile{dir}{\indexentry{Directive!WhereACL}{221}}
\@writefile{toc}{\contentsline {section}{\numberline {19.20}The Counter Resource}{221}{section.19.20}}
\newlabel{CounterResource}{{19.20}{221}{The Counter Resource}{section.19.20}{}}
\@writefile{general}{\indexentry{Resource!Counter}{221}}
\@writefile{general}{\indexentry{Counter Resource}{221}}
\@writefile{dir}{\indexentry{Counter}{221}}
\@writefile{dir}{\indexentry{Directive!Counter}{221}}
\@writefile{dir}{\indexentry{Name}{221}}
\@writefile{dir}{\indexentry{Directive!Name}{221}}
\@writefile{dir}{\indexentry{Minimum}{221}}
\@writefile{dir}{\indexentry{Directive!Minimum}{221}}
\@writefile{dir}{\indexentry{Maximum}{221}}
\@writefile{dir}{\indexentry{Directive!Maximum}{221}}
\@writefile{dir}{\indexentry{Directive!Maximum}{221}}
\@writefile{dir}{\indexentry{*WrapCounter}{221}}
\@writefile{dir}{\indexentry{Directive!*WrapCounter}{221}}
\@writefile{dir}{\indexentry{Catalog}{221}}
\@writefile{dir}{\indexentry{Directive!Catalog}{221}}
\@writefile{toc}{\contentsline {section}{\numberline {19.21}Example Director Configuration File}{221}{section.19.21}}
\newlabel{SampleDirectorConfiguration}{{19.21}{221}{Example Director Configuration File}{section.19.21}{}}
\@writefile{general}{\indexentry{File!Example Director Configuration}{221}}
\@writefile{general}{\indexentry{Example Director Configuration File}{221}}
\@setckpt{dirdconf}{
\setcounter{page}{224}
\setcounter{equation}{0}
\setcounter{enumi}{8}
\setcounter{enumii}{0}
\setcounter{enumiii}{0}
\setcounter{enumiv}{0}
\setcounter{footnote}{0}
\setcounter{mpfootnote}{0}
\setcounter{part}{0}
\setcounter{chapter}{19}
\setcounter{section}{21}
\setcounter{subsection}{0}
\setcounter{subsubsection}{0}
\setcounter{paragraph}{0}
\setcounter{subparagraph}{0}
\setcounter{figure}{3}
\setcounter{table}{2}
\setcounter{Item}{79}
\setcounter{Hfootnote}{1}
\setcounter{bookmark@seq@number}{288}
\setcounter{lpart}{0}
\setcounter{lchapter}{1}
\setcounter{lsection}{0}
\setcounter{lsubsection}{0}
\setcounter{lsubsubsection}{0}
\setcounter{lparagraph}{0}
\setcounter{lsubparagraph}{0}
\setcounter{lsubsubparagraph}{0}
\setcounter{float@type}{4}
\setcounter{LT@tables}{6}
\setcounter{LT@chunks}{5}
\setcounter{vrcnt}{49}
\setcounter{AM@survey}{0}
\setcounter{section@level}{1}
}
