\relax 
\providecommand\hyper@newdestlabel[2]{}
\@writefile{toc}{\contentsline {chapter}{\numberline {27}Basic Volume Management}{281}{chapter.27}}
\@writefile{lof}{\addvspace {10\p@ }}
\@writefile{lot}{\addvspace {10\p@ }}
\newlabel{DiskChapter}{{27}{281}{Basic Volume Management}{chapter.27}{}}
\@writefile{general}{\indexentry{Basic Volume Management}{281}}
\@writefile{general}{\indexentry{Management!Basic Volume}{281}}
\@writefile{general}{\indexentry{Disk Volumes}{281}}
\newlabel{Concepts}{{27}{281}{Basic Volume Management}{chapter.27}{}}
\@writefile{toc}{\contentsline {section}{\numberline {27.1}Key Concepts and Resource Records}{281}{section.27.1}}
\@writefile{general}{\indexentry{Key Concepts and Resource Records }{281}}
\@writefile{general}{\indexentry{Records!Key Concepts and Resource }{281}}
\@writefile{toc}{\contentsline {subsection}{\numberline {27.1.1}Pool Options to Limit the Volume Usage}{282}{subsection.27.1.1}}
\@writefile{general}{\indexentry{Usage!Pool Options to Limit the Volume }{282}}
\@writefile{general}{\indexentry{Pool Options to Limit the Volume Usage }{282}}
\newlabel{AutomaticLabeling}{{27.1.1}{282}{Pool Options to Limit the Volume Usage}{subsection.27.1.1}{}}
\@writefile{toc}{\contentsline {subsection}{\numberline {27.1.2}Automatic Volume Labeling}{282}{subsection.27.1.2}}
\@writefile{general}{\indexentry{Automatic Volume Labeling }{282}}
\@writefile{general}{\indexentry{Labeling!Automatic Volume }{282}}
\newlabel{63@xvr}{{}{283}{Automatic Volume Labeling}{subsection.27.1.2}{}}
\newlabel{63@vr}{{}{283}{Automatic Volume Labeling}{subsection.27.1.2}{}}
\newlabel{Recycling1}{{27.1.2}{283}{Automatic Volume Labeling}{subsection.27.1.2}{}}
\@writefile{toc}{\contentsline {subsection}{\numberline {27.1.3}Restricting the Number of Volumes and Recycling}{283}{subsection.27.1.3}}
\@writefile{general}{\indexentry{Recycling!Restricting the Number of Volumes and Recycling}{283}}
\@writefile{general}{\indexentry{Restricting the Number of Volumes and Recycling}{283}}
\newlabel{ConcurrentDiskJobs}{{27.1.3}{284}{Restricting the Number of Volumes and Recycling}{Item.99}{}}
\@writefile{toc}{\contentsline {section}{\numberline {27.2}Concurrent Disk Jobs}{284}{section.27.2}}
\@writefile{general}{\indexentry{Concurrent Disk Jobs}{284}}
\newlabel{Example2}{{27.2}{284}{Concurrent Disk Jobs}{section.27.2}{}}
\@writefile{toc}{\contentsline {section}{\numberline {27.3}An Example}{284}{section.27.3}}
\@writefile{general}{\indexentry{Example }{284}}
\newlabel{MultipleDisks}{{27.3}{286}{An Example}{section.27.3}{}}
\@writefile{toc}{\contentsline {section}{\numberline {27.4}Backing up to Multiple Disks}{286}{section.27.4}}
\@writefile{general}{\indexentry{Disks!Backing up to Multiple }{286}}
\@writefile{general}{\indexentry{Backing up to Multiple Disks }{286}}
\newlabel{MultipleClients}{{27.4}{287}{Backing up to Multiple Disks}{section.27.4}{}}
\@writefile{toc}{\contentsline {section}{\numberline {27.5}Considerations for Multiple Clients}{288}{section.27.5}}
\@writefile{general}{\indexentry{Clients!Considerations for Multiple }{288}}
\@writefile{general}{\indexentry{Multiple Clients}{288}}
\@setckpt{disk}{
\setcounter{page}{291}
\setcounter{equation}{0}
\setcounter{enumi}{10}
\setcounter{enumii}{0}
\setcounter{enumiii}{0}
\setcounter{enumiv}{0}
\setcounter{footnote}{0}
\setcounter{mpfootnote}{0}
\setcounter{part}{0}
\setcounter{chapter}{27}
\setcounter{section}{5}
\setcounter{subsection}{0}
\setcounter{subsubsection}{0}
\setcounter{paragraph}{0}
\setcounter{subparagraph}{0}
\setcounter{figure}{0}
\setcounter{table}{0}
\setcounter{Item}{99}
\setcounter{Hfootnote}{2}
\setcounter{bookmark@seq@number}{356}
\setcounter{lpart}{0}
\setcounter{lchapter}{1}
\setcounter{lsection}{0}
\setcounter{lsubsection}{0}
\setcounter{lsubsubsection}{0}
\setcounter{lparagraph}{0}
\setcounter{lsubparagraph}{0}
\setcounter{lsubsubparagraph}{0}
\setcounter{float@type}{4}
\setcounter{LT@tables}{7}
\setcounter{LT@chunks}{5}
\setcounter{vrcnt}{63}
\setcounter{AM@survey}{0}
\setcounter{section@level}{1}
}
