\relax 
\providecommand\hyper@newdestlabel[2]{}
\@writefile{toc}{\contentsline {chapter}{\numberline {1}What is Bacula?}{1}{chapter.1}}
\@writefile{lof}{\addvspace {10\p@ }}
\@writefile{lot}{\addvspace {10\p@ }}
\newlabel{GeneralChapter}{{1}{1}{What is Bacula?}{chapter.1}{}}
\@writefile{general}{\indexentry{Bacula!What is }{1}}
\@writefile{general}{\indexentry{What is Bacula? }{1}}
\@writefile{toc}{\contentsline {section}{\numberline {1.1}Who Needs Bacula?}{1}{section.1.1}}
\@writefile{general}{\indexentry{Who Needs Bacula? }{1}}
\@writefile{general}{\indexentry{Bacula!Who Needs }{1}}
\@writefile{toc}{\contentsline {section}{\numberline {1.2}Bacula Components or Services}{1}{section.1.2}}
\@writefile{general}{\indexentry{Bacula Components or Services }{1}}
\@writefile{general}{\indexentry{Services!Bacula Components or }{1}}
\@writefile{lof}{\contentsline {figure}{Bacula Applications}{1}{section.1.2}}
\newlabel{DirDef}{{1.2}{2}{Bacula Director}{section*.2}{}}
\newlabel{UADef}{{1.2}{2}{Bacula Director}{section*.2}{}}
\newlabel{1@xvr}{{}{2}{Bacula Console}{section*.3}{}}
\newlabel{1@vr}{{}{2}{Bacula Console}{section*.3}{}}
\newlabel{FDDef}{{1.2}{2}{Bacula File}{section*.4}{}}
\newlabel{SDDef}{{1.2}{3}{Bacula Storage}{section*.5}{}}
\newlabel{DBDefinition}{{1.2}{3}{Catalog}{section*.6}{}}
\newlabel{MonDef}{{1.2}{3}{Bacula Monitor}{section*.7}{}}
\@writefile{toc}{\contentsline {section}{\numberline {1.3}Bacula Configuration}{3}{section.1.3}}
\@writefile{general}{\indexentry{Configuration!Bacula }{3}}
\@writefile{general}{\indexentry{Bacula Configuration }{3}}
\@writefile{lof}{\contentsline {figure}{Bacula Objects}{3}{section.1.3}}
\@writefile{toc}{\contentsline {section}{\numberline {1.4}Conventions Used in this Document}{4}{section.1.4}}
\@writefile{general}{\indexentry{Conventions Used in this Document }{4}}
\@writefile{general}{\indexentry{Document!Conventions Used in this }{4}}
\@writefile{toc}{\contentsline {section}{\numberline {1.5}Quick Start}{4}{section.1.5}}
\@writefile{general}{\indexentry{Quick Start }{4}}
\@writefile{general}{\indexentry{Start!Quick }{4}}
\@writefile{toc}{\contentsline {section}{\numberline {1.6}Terminology}{4}{section.1.6}}
\@writefile{general}{\indexentry{Terminology }{4}}
\@writefile{fd}{\indexentry{Administrator }{4}}
\@writefile{fd}{\indexentry{Backup }{4}}
\@writefile{fd}{\indexentry{Bootstrap File }{4}}
\@writefile{fd}{\indexentry{Catalog }{5}}
\@writefile{fd}{\indexentry{Client }{5}}
\@writefile{fd}{\indexentry{Console }{5}}
\@writefile{fd}{\indexentry{Daemon }{5}}
\@writefile{fd}{\indexentry{Directive }{5}}
\@writefile{fd}{\indexentry{Director }{5}}
\@writefile{fd}{\indexentry{Differential }{5}}
\@writefile{fd}{\indexentry{File Attributes }{5}}
\@writefile{fd}{\indexentry{File Daemon }{5}}
\newlabel{FileSetDef}{{1.6}{5}{Terminology}{section.1.6}{}}
\@writefile{fd}{\indexentry{a name }{5}}
\@writefile{fd}{\indexentry{Incremental }{5}}
\newlabel{JobDef}{{1.6}{5}{Terminology}{section.1.6}{}}
\@writefile{fd}{\indexentry{a name }{5}}
\@writefile{fd}{\indexentry{Monitor }{5}}
\@writefile{fd}{\indexentry{Resource }{5}}
\@writefile{fd}{\indexentry{Restore }{5}}
\@writefile{fd}{\indexentry{Schedule }{6}}
\@writefile{fd}{\indexentry{Service }{6}}
\@writefile{fd}{\indexentry{Storage Coordinates }{6}}
\@writefile{fd}{\indexentry{Storage Daemon }{6}}
\@writefile{sd}{\indexentry{Session }{6}}
\@writefile{sd}{\indexentry{Verify }{6}}
\@writefile{fd}{\indexentry{*Archive }{6}}
\@writefile{fd}{\indexentry{Retention Period }{6}}
\@writefile{sd}{\indexentry{Scan }{7}}
\newlabel{2@xvr}{{}{7}{Terminology}{section.1.6}{}}
\newlabel{2@vr}{{}{7}{Terminology}{section.1.6}{}}
\@writefile{sd}{\indexentry{Volume }{7}}
\@writefile{toc}{\contentsline {section}{\numberline {1.7}What Bacula is Not}{7}{section.1.7}}
\@writefile{general}{\indexentry{What Bacula is Not}{7}}
\@writefile{toc}{\contentsline {section}{\numberline {1.8}Interactions Between the Bacula Services}{7}{section.1.8}}
\@writefile{general}{\indexentry{Interactions Between the Bacula Services}{7}}
\@writefile{general}{\indexentry{Services!Interactions Between the Bacula}{7}}
\@writefile{lof}{\contentsline {figure}{Interactions between Bacula Services}{7}{section.1.8}}
\@setckpt{general}{
\setcounter{page}{9}
\setcounter{equation}{0}
\setcounter{enumi}{0}
\setcounter{enumii}{0}
\setcounter{enumiii}{0}
\setcounter{enumiv}{0}
\setcounter{footnote}{0}
\setcounter{mpfootnote}{0}
\setcounter{part}{0}
\setcounter{chapter}{1}
\setcounter{section}{8}
\setcounter{subsection}{0}
\setcounter{subsubsection}{0}
\setcounter{paragraph}{0}
\setcounter{subparagraph}{0}
\setcounter{figure}{0}
\setcounter{table}{0}
\setcounter{Item}{0}
\setcounter{Hfootnote}{0}
\setcounter{bookmark@seq@number}{9}
\setcounter{lpart}{0}
\setcounter{lchapter}{1}
\setcounter{lsection}{0}
\setcounter{lsubsection}{0}
\setcounter{lsubsubsection}{0}
\setcounter{lparagraph}{0}
\setcounter{lsubparagraph}{0}
\setcounter{lsubsubparagraph}{0}
\setcounter{float@type}{4}
\setcounter{LT@tables}{0}
\setcounter{LT@chunks}{0}
\setcounter{vrcnt}{2}
\setcounter{AM@survey}{0}
\setcounter{section@level}{1}
}
