\relax 
\providecommand\hyper@newdestlabel[2]{}
\@writefile{toc}{\contentsline {chapter}{\numberline {48}Bacula Copyright, Trademark, and Licenses}{403}{chapter.48}}
\@writefile{lof}{\addvspace {10\p@ }}
\@writefile{lot}{\addvspace {10\p@ }}
\newlabel{LicenseChapter}{{48}{403}{Bacula Copyright, Trademark, and Licenses}{chapter.48}{}}
\@writefile{general}{\indexentry{Licenses!Bacula Copyright Trademark}{403}}
\@writefile{general}{\indexentry{Bacula Copyright, Trademark, and Licenses}{403}}
\@writefile{toc}{\contentsline {section}{\numberline {48.1}CC-BY-SA}{403}{section.48.1}}
\@writefile{general}{\indexentry{CC-BY-SA}{403}}
\@writefile{toc}{\contentsline {section}{\numberline {48.2}GPL}{403}{section.48.2}}
\@writefile{general}{\indexentry{GPL }{403}}
\@writefile{toc}{\contentsline {section}{\numberline {48.3}LGPL}{403}{section.48.3}}
\@writefile{general}{\indexentry{LGPL }{403}}
\@writefile{toc}{\contentsline {section}{\numberline {48.4}Public Domain}{403}{section.48.4}}
\@writefile{general}{\indexentry{Domain!Public }{403}}
\@writefile{general}{\indexentry{Public Domain }{403}}
\@writefile{toc}{\contentsline {section}{\numberline {48.5}Trademark}{403}{section.48.5}}
\@writefile{general}{\indexentry{Trademark }{403}}
\@writefile{toc}{\contentsline {section}{\numberline {48.6}Fiduciary License Agreement}{403}{section.48.6}}
\@writefile{general}{\indexentry{Fiduciary License Agreement }{403}}
\@writefile{toc}{\contentsline {section}{\numberline {48.7}Disclaimer}{404}{section.48.7}}
\@writefile{general}{\indexentry{Disclaimer }{404}}
\@writefile{toc}{\contentsline {section}{\numberline {48.8}Authors}{404}{section.48.8}}
\@setckpt{license}{
\setcounter{page}{405}
\setcounter{equation}{0}
\setcounter{enumi}{5}
\setcounter{enumii}{0}
\setcounter{enumiii}{0}
\setcounter{enumiv}{0}
\setcounter{footnote}{0}
\setcounter{mpfootnote}{0}
\setcounter{part}{0}
\setcounter{chapter}{48}
\setcounter{section}{8}
\setcounter{subsection}{0}
\setcounter{subsubsection}{0}
\setcounter{paragraph}{0}
\setcounter{subparagraph}{0}
\setcounter{figure}{0}
\setcounter{table}{0}
\setcounter{Item}{180}
\setcounter{Hfootnote}{2}
\setcounter{bookmark@seq@number}{521}
\setcounter{lpart}{0}
\setcounter{lchapter}{1}
\setcounter{lsection}{0}
\setcounter{lsubsection}{0}
\setcounter{lsubsubsection}{0}
\setcounter{lparagraph}{0}
\setcounter{lsubparagraph}{0}
\setcounter{lsubsubparagraph}{0}
\setcounter{float@type}{4}
\setcounter{LT@tables}{9}
\setcounter{LT@chunks}{6}
\setcounter{vrcnt}{67}
\setcounter{AM@survey}{0}
\setcounter{section@level}{1}
}
