\BOOKMARK [0][-]{chapter.1}{What is Bacula?}{}% 1
\BOOKMARK [1][-]{section.1.1}{Who Needs Bacula?}{chapter.1}% 2
\BOOKMARK [1][-]{section.1.2}{Bacula Components or Services}{chapter.1}% 3
\BOOKMARK [1][-]{section.1.3}{Bacula Configuration}{chapter.1}% 4
\BOOKMARK [1][-]{section.1.4}{Conventions Used in this Document}{chapter.1}% 5
\BOOKMARK [1][-]{section.1.5}{Quick Start}{chapter.1}% 6
\BOOKMARK [1][-]{section.1.6}{Terminology}{chapter.1}% 7
\BOOKMARK [1][-]{section.1.7}{What Bacula is Not}{chapter.1}% 8
\BOOKMARK [1][-]{section.1.8}{Interactions Between the Bacula Services}{chapter.1}% 9
\BOOKMARK [0][-]{chapter.2}{New Features in 9.4.0}{}% 10
\BOOKMARK [1][-]{subsection.2.0.1}{New Commands, Resource, and Directives for Cloud}{chapter.2}% 11
\BOOKMARK [2][-]{subsection.2.0.2}{WORM Tape Support}{subsection.2.0.1}% 12
\BOOKMARK [0][-]{chapter.3}{New Features in 9.2.0}{}% 13
\BOOKMARK [1][-]{subsection.3.0.1}{Enhanced Autochanger Support}{chapter.3}% 14
\BOOKMARK [2][-]{subsection.3.0.2}{New Prune Command Option}{subsection.3.0.1}% 15
\BOOKMARK [2][-]{subsection.3.0.3}{BConsole Features}{subsection.3.0.1}% 16
\BOOKMARK [2][-]{subsection.3.0.4}{Tray Monitor Restore Screen}{subsection.3.0.1}% 17
\BOOKMARK [0][-]{chapter.4}{New Features in 9.0.0}{}% 18
\BOOKMARK [1][-]{subsection.4.0.1}{Enhanced Autochanger Support}{chapter.4}% 19
\BOOKMARK [2][-]{subsection.4.0.2}{Source Code for Windows}{subsection.4.0.1}% 20
\BOOKMARK [2][-]{subsection.4.0.3}{Maximum Virtual Full Interval Option}{subsection.4.0.1}% 21
\BOOKMARK [2][-]{subsection.4.0.4}{Progressive Virtual Full}{subsection.4.0.1}% 22
\BOOKMARK [2][-]{subsection.4.0.5}{TapeAlert Enhancements}{subsection.4.0.1}% 23
\BOOKMARK [2][-]{subsection.4.0.6}{New Console ACL Directives}{subsection.4.0.1}% 24
\BOOKMARK [2][-]{subsection.4.0.7}{New Bconsole ``list'' Command Behavior}{subsection.4.0.1}% 25
\BOOKMARK [2][-]{subsection.4.0.8}{New Console ACL Directives}{subsection.4.0.1}% 26
\BOOKMARK [2][-]{subsection.4.0.9}{Client Initiated Backup}{subsection.4.0.1}% 27
\BOOKMARK [2][-]{subsection.4.0.10}{Configuring Client Initiated Backup}{subsection.4.0.1}% 28
\BOOKMARK [2][-]{subsection.4.0.11}{New Tray Monitor}{subsection.4.0.1}% 29
\BOOKMARK [2][-]{subsection.4.0.12}{Schedule Jobs via the Tray Monitor}{subsection.4.0.1}% 30
\BOOKMARK [2][-]{subsection.4.0.13}{Accurate Option for Verify ``Volume Data'' Job}{subsection.4.0.1}% 31
\BOOKMARK [2][-]{subsection.4.0.14}{FileDaemon Saved Messages Resource Destination}{subsection.4.0.1}% 32
\BOOKMARK [2][-]{subsection.4.0.15}{Minor Enhancements}{subsection.4.0.1}% 33
\BOOKMARK [2][-]{subsection.4.0.16}{Bconsole ``list jobs'' command options}{subsection.4.0.1}% 34
\BOOKMARK [2][-]{subsection.4.0.17}{Minor Enhancements}{subsection.4.0.1}% 35
\BOOKMARK [2][-]{subsection.4.0.18}{Bconsole ``list jobs'' command options}{subsection.4.0.1}% 36
\BOOKMARK [2][-]{subsection.4.0.19}{New Bconsole "Tee All" Command}{subsection.4.0.1}% 37
\BOOKMARK [2][-]{subsection.4.0.20}{New Job Edit Codes \045I}{subsection.4.0.1}% 38
\BOOKMARK [2][-]{subsection.4.0.21}{Communication Line Compression}{subsection.4.0.1}% 39
\BOOKMARK [2][-]{subsection.4.0.22}{Deduplication Optimized Volumes}{subsection.4.0.1}% 40
\BOOKMARK [2][-]{subsection.4.0.23}{baculabackupreport}{subsection.4.0.1}% 41
\BOOKMARK [2][-]{subsection.4.0.24}{New Message Identification Format}{subsection.4.0.1}% 42
\BOOKMARK [0][-]{chapter.5}{New Features in 7.4.0}{}% 43
\BOOKMARK [1][-]{section.5.1}{New Features in 7.4.3}{chapter.5}% 44
\BOOKMARK [2][-]{subsection.5.1.1}{RunScripts}{section.5.1}% 45
\BOOKMARK [1][-]{section.5.2}{New Features in 7.4.0}{chapter.5}% 46
\BOOKMARK [2][-]{subsection.5.2.1}{Verify Volume Data}{section.5.2}% 47
\BOOKMARK [2][-]{subsection.5.2.2}{Bconsole ``list jobs'' command options}{section.5.2}% 48
\BOOKMARK [2][-]{subsection.5.2.3}{Minor Enhancements}{section.5.2}% 49
\BOOKMARK [2][-]{subsection.5.2.4}{Windows Encrypted File System \(EFS\) Support}{section.5.2}% 50
\BOOKMARK [2][-]{subsection.5.2.5}{SSL Connections to MySQL}{section.5.2}% 51
\BOOKMARK [2][-]{subsection.5.2.6}{Max Virtual Full Interval}{section.5.2}% 52
\BOOKMARK [2][-]{subsection.5.2.7}{New List Volumes Output}{section.5.2}% 53
\BOOKMARK [0][-]{chapter.6}{New Features in 7.2.0}{}% 54
\BOOKMARK [1][-]{section.6.1}{New Features in 7.2.0}{chapter.6}% 55
\BOOKMARK [2][-]{subsection.6.1.1}{New Job Edit Codes \045E \045R}{section.6.1}% 56
\BOOKMARK [2][-]{subsection.6.1.2}{Enable/Disable commands}{section.6.1}% 57
\BOOKMARK [1][-]{section.6.2}{Bacula 7.2}{chapter.6}% 58
\BOOKMARK [2][-]{subsection.6.2.1}{Snapshot Management}{section.6.2}% 59
\BOOKMARK [2][-]{subsection.6.2.2}{Minor Enhancements}{section.6.2}% 60
\BOOKMARK [2][-]{subsection.6.2.3}{Data Encryption Cipher Configuration}{section.6.2}% 61
\BOOKMARK [2][-]{subsection.6.2.4}{Read Only Storage Devices}{section.6.2}% 62
\BOOKMARK [2][-]{subsection.6.2.5}{New Resume Command}{section.6.2}% 63
\BOOKMARK [2][-]{subsection.6.2.6}{New Prune ``Expired'' Volume Command}{section.6.2}% 64
\BOOKMARK [2][-]{subsection.6.2.7}{New Job Edit Codes \045P \045C}{section.6.2}% 65
\BOOKMARK [2][-]{subsection.6.2.8}{Enhanced Status and Error Messages}{section.6.2}% 66
\BOOKMARK [2][-]{subsection.6.2.9}{Miscellaneous New Features}{section.6.2}% 67
\BOOKMARK [2][-]{subsection.6.2.10}{FD Storage Address}{section.6.2}% 68
\BOOKMARK [2][-]{subsection.6.2.11}{Maximum Concurrent Read Jobs}{section.6.2}% 69
\BOOKMARK [2][-]{subsection.6.2.12}{Incomplete Jobs}{section.6.2}% 70
\BOOKMARK [2][-]{subsection.6.2.13}{The Stop Command}{section.6.2}% 71
\BOOKMARK [2][-]{subsection.6.2.14}{The Restart Command}{section.6.2}% 72
\BOOKMARK [2][-]{subsection.6.2.15}{Job Bandwidth Limitation}{section.6.2}% 73
\BOOKMARK [2][-]{subsection.6.2.16}{Always Backup a File}{section.6.2}% 74
\BOOKMARK [2][-]{subsection.6.2.17}{Setting Accurate Mode at Runtime}{section.6.2}% 75
\BOOKMARK [2][-]{subsection.6.2.18}{Additions to RunScript variables}{section.6.2}% 76
\BOOKMARK [2][-]{subsection.6.2.19}{LZO Compression}{section.6.2}% 77
\BOOKMARK [2][-]{subsection.6.2.20}{Purge Migration Job}{section.6.2}% 78
\BOOKMARK [2][-]{subsection.6.2.21}{Changes in the Pruning Algorithm}{section.6.2}% 79
\BOOKMARK [2][-]{subsection.6.2.22}{Ability to Verify any specified Job}{section.6.2}% 80
\BOOKMARK [0][-]{chapter.7}{New Features in 7.0.0}{}% 81
\BOOKMARK [1][-]{section.7.1}{New Features in 7.0.0}{chapter.7}% 82
\BOOKMARK [2][-]{subsection.7.1.1}{Storage daemon to Storage daemon}{section.7.1}% 83
\BOOKMARK [2][-]{subsection.7.1.2}{SD Calls Client}{section.7.1}% 84
\BOOKMARK [2][-]{subsection.7.1.3}{Next Pool}{section.7.1}% 85
\BOOKMARK [2][-]{subsection.7.1.4}{status storage}{section.7.1}% 86
\BOOKMARK [2][-]{subsection.7.1.5}{status schedule}{section.7.1}% 87
\BOOKMARK [2][-]{subsection.7.1.6}{Data Encryption Cipher Configuration}{section.7.1}% 88
\BOOKMARK [2][-]{subsection.7.1.7}{New Truncate Command}{section.7.1}% 89
\BOOKMARK [2][-]{subsection.7.1.8}{Migration/Copy/VirtualFull Performance Enhancements}{section.7.1}% 90
\BOOKMARK [2][-]{subsection.7.1.9}{VirtualFull Backup Consolidation Enhancements}{section.7.1}% 91
\BOOKMARK [2][-]{subsection.7.1.10}{FD Storage Address}{section.7.1}% 92
\BOOKMARK [2][-]{subsection.7.1.11}{Job Bandwidth Limitation}{section.7.1}% 93
\BOOKMARK [2][-]{subsection.7.1.12}{Maximum Concurrent Read Jobs}{section.7.1}% 94
\BOOKMARK [2][-]{subsection.7.1.13}{Director job Codes in Message Resource Commands}{section.7.1}% 95
\BOOKMARK [2][-]{subsection.7.1.14}{Additions to RunScript variables}{section.7.1}% 96
\BOOKMARK [2][-]{subsection.7.1.15}{Read Only Storage Devices}{section.7.1}% 97
\BOOKMARK [2][-]{subsection.7.1.16}{New Prune ``Expired'' Volume Command}{section.7.1}% 98
\BOOKMARK [2][-]{subsection.7.1.17}{Hardlink Performance Enhancements}{section.7.1}% 99
\BOOKMARK [2][-]{subsection.7.1.18}{DisableCommand Directive}{section.7.1}% 100
\BOOKMARK [2][-]{subsection.7.1.19}{Multiple Console Directors}{section.7.1}% 101
\BOOKMARK [2][-]{subsection.7.1.20}{Restricted Consoles}{section.7.1}% 102
\BOOKMARK [2][-]{subsection.7.1.21}{Configuration Files}{section.7.1}% 103
\BOOKMARK [2][-]{subsection.7.1.22}{Maximum Spawned Jobs}{section.7.1}% 104
\BOOKMARK [2][-]{subsection.7.1.23}{Progress Meter}{section.7.1}% 105
\BOOKMARK [2][-]{subsection.7.1.24}{Scheduling a 6th Week}{section.7.1}% 106
\BOOKMARK [2][-]{subsection.7.1.25}{Scheduling the Last Day of a Month}{section.7.1}% 107
\BOOKMARK [2][-]{subsection.7.1.26}{Improvements to Cancel and Restart bconsole Commands}{section.7.1}% 108
\BOOKMARK [2][-]{subsection.7.1.27}{bconsole Performance Improvements}{section.7.1}% 109
\BOOKMARK [2][-]{subsection.7.1.28}{New .bvfs\137decode\137lstat Command}{section.7.1}% 110
\BOOKMARK [0][-]{chapter.8}{New Features in 5.2.13}{}% 111
\BOOKMARK [1][-]{subsection.8.0.1}{Additions to RunScript variables}{chapter.8}% 112
\BOOKMARK [1][-]{section.8.1}{New Features in 5.2.1}{chapter.8}% 113
\BOOKMARK [2][-]{subsection.8.1.1}{LZO Compression}{section.8.1}% 114
\BOOKMARK [2][-]{subsection.8.1.2}{New Tray Monitor}{section.8.1}% 115
\BOOKMARK [2][-]{subsection.8.1.3}{Purge Migration Job}{section.8.1}% 116
\BOOKMARK [2][-]{subsection.8.1.4}{Changes in Bvfs \(Bacula Virtual FileSystem\)}{section.8.1}% 117
\BOOKMARK [2][-]{subsection.8.1.5}{Changes in the Pruning Algorithm}{section.8.1}% 118
\BOOKMARK [2][-]{subsection.8.1.6}{Ability to Verify any specified Job}{section.8.1}% 119
\BOOKMARK [2][-]{subsection.8.1.7}{Additions to RunScript variables}{section.8.1}% 120
\BOOKMARK [2][-]{subsection.8.1.8}{Additions to the Plugin API}{section.8.1}% 121
\BOOKMARK [2][-]{subsection.8.1.9}{ACL enhancements}{section.8.1}% 122
\BOOKMARK [2][-]{subsection.8.1.10}{XATTR enhancements}{section.8.1}% 123
\BOOKMARK [2][-]{subsection.8.1.11}{Class Based Database Backend Drivers}{section.8.1}% 124
\BOOKMARK [2][-]{subsection.8.1.12}{Hash List Enhancements}{section.8.1}% 125
\BOOKMARK [1][-]{section.8.2}{Release Version 5.0.3}{chapter.8}% 126
\BOOKMARK [1][-]{section.8.3}{Release Version 5.0.2}{chapter.8}% 127
\BOOKMARK [1][-]{section.8.4}{New Features in 5.0.1}{chapter.8}% 128
\BOOKMARK [2][-]{subsection.8.4.1}{Truncate Volume after Purge}{section.8.4}% 129
\BOOKMARK [2][-]{subsection.8.4.2}{Allow Higher Duplicates}{section.8.4}% 130
\BOOKMARK [2][-]{subsection.8.4.3}{Cancel Lower Level Duplicates}{section.8.4}% 131
\BOOKMARK [1][-]{section.8.5}{New Features in 5.0.0}{chapter.8}% 132
\BOOKMARK [2][-]{subsection.8.5.1}{Maximum Concurrent Jobs for Devices}{section.8.5}% 133
\BOOKMARK [2][-]{subsection.8.5.2}{Restore from Multiple Storage Daemons}{section.8.5}% 134
\BOOKMARK [2][-]{subsection.8.5.3}{File Deduplication using Base Jobs}{section.8.5}% 135
\BOOKMARK [2][-]{subsection.8.5.4}{AllowCompression = <yes|no>}{section.8.5}% 136
\BOOKMARK [2][-]{subsection.8.5.5}{Accurate Fileset Options}{section.8.5}% 137
\BOOKMARK [2][-]{subsection.8.5.6}{Tab-completion for Bconsole}{section.8.5}% 138
\BOOKMARK [2][-]{subsection.8.5.7}{Pool File and Job Retention}{section.8.5}% 139
\BOOKMARK [2][-]{subsection.8.5.8}{Read-only File Daemon using capabilities}{section.8.5}% 140
\BOOKMARK [2][-]{subsection.8.5.9}{Bvfs API}{section.8.5}% 141
\BOOKMARK [2][-]{subsection.8.5.10}{Testing your Tape Drive}{section.8.5}% 142
\BOOKMARK [2][-]{subsection.8.5.11}{New Block Checksum Device Directive}{section.8.5}% 143
\BOOKMARK [2][-]{subsection.8.5.12}{New Bat Features}{section.8.5}% 144
\BOOKMARK [2][-]{subsection.8.5.13}{Bat on Windows}{section.8.5}% 145
\BOOKMARK [2][-]{subsection.8.5.14}{New Win32 Installer}{section.8.5}% 146
\BOOKMARK [2][-]{subsection.8.5.15}{Win64 Installer}{section.8.5}% 147
\BOOKMARK [2][-]{subsection.8.5.16}{Linux Bare Metal Recovery USB Key}{section.8.5}% 148
\BOOKMARK [2][-]{subsection.8.5.17}{bconsole Timeout Option}{section.8.5}% 149
\BOOKMARK [2][-]{subsection.8.5.18}{Important Changes}{section.8.5}% 150
\BOOKMARK [2][-]{subsection.8.5.19}{Misc Changes}{section.8.5}% 151
\BOOKMARK [0][-]{chapter.9}{Released Version 3.0.3 and 3.0.3a}{}% 152
\BOOKMARK [1][-]{section.9.1}{New Features in Released Version 3.0.2}{chapter.9}% 153
\BOOKMARK [2][-]{subsection.9.1.1}{Full Restore from a Given JobId}{section.9.1}% 154
\BOOKMARK [2][-]{subsection.9.1.2}{Source Address}{section.9.1}% 155
\BOOKMARK [2][-]{subsection.9.1.3}{Show volume availability when doing restore}{section.9.1}% 156
\BOOKMARK [2][-]{subsection.9.1.4}{Accurate estimate command}{section.9.1}% 157
\BOOKMARK [1][-]{section.9.2}{New Features in 3.0.0}{chapter.9}% 158
\BOOKMARK [2][-]{subsection.9.2.1}{Accurate Backup}{section.9.2}% 159
\BOOKMARK [2][-]{subsection.9.2.2}{Copy Jobs}{section.9.2}% 160
\BOOKMARK [2][-]{subsection.9.2.3}{ACL Updates}{section.9.2}% 161
\BOOKMARK [2][-]{subsection.9.2.4}{Extended Attributes}{section.9.2}% 162
\BOOKMARK [2][-]{subsection.9.2.5}{Shared objects}{section.9.2}% 163
\BOOKMARK [2][-]{subsection.9.2.6}{Building Static versions of Bacula}{section.9.2}% 164
\BOOKMARK [2][-]{subsection.9.2.7}{Virtual Backup \(Vbackup\)}{section.9.2}% 165
\BOOKMARK [2][-]{subsection.9.2.8}{Catalog Format}{section.9.2}% 166
\BOOKMARK [2][-]{subsection.9.2.9}{64 bit Windows Client}{section.9.2}% 167
\BOOKMARK [2][-]{subsection.9.2.10}{Duplicate Job Control}{section.9.2}% 168
\BOOKMARK [2][-]{subsection.9.2.11}{TLS Authentication}{section.9.2}% 169
\BOOKMARK [2][-]{subsection.9.2.12}{bextract non-portable Win32 data}{section.9.2}% 170
\BOOKMARK [2][-]{subsection.9.2.13}{State File updated at Job Termination}{section.9.2}% 171
\BOOKMARK [2][-]{subsection.9.2.14}{MaxFullInterval = <time-interval>}{section.9.2}% 172
\BOOKMARK [2][-]{subsection.9.2.15}{MaxDiffInterval = <time-interval>}{section.9.2}% 173
\BOOKMARK [2][-]{subsection.9.2.16}{Honor No Dump Flag = <yes|no>}{section.9.2}% 174
\BOOKMARK [2][-]{subsection.9.2.17}{Exclude Dir Containing = <filename-string>}{section.9.2}% 175
\BOOKMARK [2][-]{subsection.9.2.18}{Bacula Plugins}{section.9.2}% 176
\BOOKMARK [2][-]{subsection.9.2.19}{The bpipe Plugin}{section.9.2}% 177
\BOOKMARK [2][-]{subsection.9.2.20}{Microsoft Exchange Server 2003/2007 Plugin}{section.9.2}% 178
\BOOKMARK [2][-]{subsection.9.2.21}{libdbi Framework}{section.9.2}% 179
\BOOKMARK [2][-]{subsection.9.2.22}{Console Command Additions and Enhancements}{section.9.2}% 180
\BOOKMARK [2][-]{subsection.9.2.23}{Bare Metal Recovery}{section.9.2}% 181
\BOOKMARK [2][-]{subsection.9.2.24}{Miscellaneous}{section.9.2}% 182
\BOOKMARK [0][-]{chapter.10}{The Current State of Bacula}{}% 183
\BOOKMARK [1][-]{section.10.1}{What is Implemented}{chapter.10}% 184
\BOOKMARK [1][-]{section.10.2}{Advantages Over Other Backup Programs}{chapter.10}% 185
\BOOKMARK [1][-]{section.10.3}{Current Implementation Restrictions}{chapter.10}% 186
\BOOKMARK [1][-]{section.10.4}{Design Limitations or Restrictions}{chapter.10}% 187
\BOOKMARK [1][-]{section.10.5}{Items to Note}{chapter.10}% 188
\BOOKMARK [0][-]{chapter.11}{System Requirements}{}% 189
\BOOKMARK [0][-]{chapter.12}{Supported Operating Systems}{}% 190
\BOOKMARK [0][-]{chapter.13}{Supported Tape Drives}{}% 191
\BOOKMARK [1][-]{section.13.1}{Unsupported Tape Drives}{chapter.13}% 192
\BOOKMARK [1][-]{section.13.2}{FreeBSD Users Be Aware!!!}{chapter.13}% 193
\BOOKMARK [1][-]{section.13.3}{Supported Autochangers}{chapter.13}% 194
\BOOKMARK [1][-]{section.13.4}{Tape Specifications}{chapter.13}% 195
\BOOKMARK [0][-]{chapter.14}{Getting Started with Bacula}{}% 196
\BOOKMARK [1][-]{section.14.1}{Understanding Jobs and Schedules}{chapter.14}% 197
\BOOKMARK [1][-]{section.14.2}{Understanding Pools, Volumes and Labels}{chapter.14}% 198
\BOOKMARK [1][-]{section.14.3}{Setting Up Bacula Configuration Files}{chapter.14}% 199
\BOOKMARK [2][-]{subsection.14.3.1}{Configuring the Console Program}{section.14.3}% 200
\BOOKMARK [2][-]{subsection.14.3.2}{Configuring the Monitor Program}{section.14.3}% 201
\BOOKMARK [2][-]{subsection.14.3.3}{Configuring the File daemon}{section.14.3}% 202
\BOOKMARK [2][-]{subsection.14.3.4}{Configuring the Director}{section.14.3}% 203
\BOOKMARK [2][-]{subsection.14.3.5}{Configuring the Storage daemon}{section.14.3}% 204
\BOOKMARK [1][-]{section.14.4}{Testing your Configuration Files}{chapter.14}% 205
\BOOKMARK [1][-]{section.14.5}{Testing Compatibility with Your Tape Drive}{chapter.14}% 206
\BOOKMARK [1][-]{section.14.6}{Get Rid of the /lib/tls Directory}{chapter.14}% 207
\BOOKMARK [1][-]{section.14.7}{Running Bacula}{chapter.14}% 208
\BOOKMARK [1][-]{section.14.8}{Log Rotation}{chapter.14}% 209
\BOOKMARK [1][-]{section.14.9}{Log Watch}{chapter.14}% 210
\BOOKMARK [1][-]{section.14.10}{Disaster Recovery}{chapter.14}% 211
\BOOKMARK [0][-]{chapter.15}{Installing Bacula}{}% 212
\BOOKMARK [1][-]{section.15.1}{Binary Release Packages}{chapter.15}% 213
\BOOKMARK [1][-]{section.15.2}{Building Bacula from Source}{chapter.15}% 214
\BOOKMARK [1][-]{section.15.3}{Source Release Files}{chapter.15}% 215
\BOOKMARK [1][-]{section.15.4}{Upgrading Bacula}{chapter.15}% 216
\BOOKMARK [1][-]{section.15.5}{Releases Numbering}{chapter.15}% 217
\BOOKMARK [1][-]{section.15.6}{Dependency Packages}{chapter.15}% 218
\BOOKMARK [1][-]{section.15.7}{Supported Operating Systems}{chapter.15}% 219
\BOOKMARK [1][-]{section.15.8}{Building Bacula from Source}{chapter.15}% 220
\BOOKMARK [1][-]{section.15.9}{What Database to Use?}{chapter.15}% 221
\BOOKMARK [1][-]{section.15.10}{Quick Start}{chapter.15}% 222
\BOOKMARK [1][-]{section.15.11}{Configure Options}{chapter.15}% 223
\BOOKMARK [1][-]{section.15.12}{Recommended Options for Most Systems}{chapter.15}% 224
\BOOKMARK [1][-]{section.15.13}{Red Hat}{chapter.15}% 225
\BOOKMARK [1][-]{section.15.14}{Solaris}{chapter.15}% 226
\BOOKMARK [1][-]{section.15.15}{FreeBSD}{chapter.15}% 227
\BOOKMARK [1][-]{section.15.16}{Win32}{chapter.15}% 228
\BOOKMARK [1][-]{section.15.17}{One File Configure Script}{chapter.15}% 229
\BOOKMARK [1][-]{section.15.18}{Installing Bacula}{chapter.15}% 230
\BOOKMARK [1][-]{section.15.19}{Building a File Daemon or Client}{chapter.15}% 231
\BOOKMARK [1][-]{section.15.20}{Auto Starting the Daemons}{chapter.15}% 232
\BOOKMARK [1][-]{section.15.21}{Other Make Notes}{chapter.15}% 233
\BOOKMARK [1][-]{section.15.22}{Modifying the Bacula Configuration Files}{chapter.15}% 234
\BOOKMARK [0][-]{chapter.16}{Critical Items to Implement Before Production}{}% 235
\BOOKMARK [1][-]{section.16.1}{Critical Items}{chapter.16}% 236
\BOOKMARK [1][-]{section.16.2}{Recommended Items}{chapter.16}% 237
\BOOKMARK [0][-]{chapter.17}{A Brief Tutorial}{}% 238
\BOOKMARK [1][-]{section.17.1}{Before Running Bacula}{chapter.17}% 239
\BOOKMARK [1][-]{section.17.2}{Starting the Database}{chapter.17}% 240
\BOOKMARK [1][-]{section.17.3}{Starting the Daemons}{chapter.17}% 241
\BOOKMARK [1][-]{section.17.4}{Using the Director to Query and Start Jobs}{chapter.17}% 242
\BOOKMARK [1][-]{section.17.5}{Running a Job}{chapter.17}% 243
\BOOKMARK [1][-]{section.17.6}{Restoring Your Files}{chapter.17}% 244
\BOOKMARK [1][-]{section.17.7}{Quitting the Console Program}{chapter.17}% 245
\BOOKMARK [1][-]{section.17.8}{Adding a Second Client}{chapter.17}% 246
\BOOKMARK [1][-]{section.17.9}{When The Tape Fills}{chapter.17}% 247
\BOOKMARK [1][-]{section.17.10}{Other Useful Console Commands}{chapter.17}% 248
\BOOKMARK [1][-]{section.17.11}{Debug Daemon Output}{chapter.17}% 249
\BOOKMARK [1][-]{section.17.12}{Patience When Starting Daemons or Mounting Blank Tapes}{chapter.17}% 250
\BOOKMARK [1][-]{section.17.13}{Difficulties Connecting from the FD to the SD}{chapter.17}% 251
\BOOKMARK [1][-]{section.17.14}{Daemon Command Line Options}{chapter.17}% 252
\BOOKMARK [1][-]{section.17.15}{Creating a Pool}{chapter.17}% 253
\BOOKMARK [1][-]{section.17.16}{Labeling Your Volumes}{chapter.17}% 254
\BOOKMARK [1][-]{section.17.17}{Labeling Volumes with the Console Program}{chapter.17}% 255
\BOOKMARK [0][-]{chapter.18}{Customizing the Configuration Files}{}% 256
\BOOKMARK [1][-]{section.18.1}{Character Sets}{chapter.18}% 257
\BOOKMARK [1][-]{section.18.2}{Resource Directive Format}{chapter.18}% 258
\BOOKMARK [2][-]{subsection.18.2.1}{Comments}{section.18.2}% 259
\BOOKMARK [2][-]{subsection.18.2.2}{Upper and Lower Case and Spaces}{section.18.2}% 260
\BOOKMARK [2][-]{subsection.18.2.3}{Including other Configuration Files}{section.18.2}% 261
\BOOKMARK [2][-]{subsection.18.2.4}{Recognized Primitive Data Types}{section.18.2}% 262
\BOOKMARK [1][-]{section.18.3}{Resource Types}{chapter.18}% 263
\BOOKMARK [1][-]{section.18.4}{Names, Passwords and Authorization}{chapter.18}% 264
\BOOKMARK [1][-]{section.18.5}{Detailed Information for each Daemon}{chapter.18}% 265
\BOOKMARK [0][-]{chapter.19}{Configuring the Director}{}% 266
\BOOKMARK [1][-]{section.19.1}{Director Resource Types}{chapter.19}% 267
\BOOKMARK [1][-]{section.19.2}{The Director Resource}{chapter.19}% 268
\BOOKMARK [1][-]{section.19.3}{The Job Resource}{chapter.19}% 269
\BOOKMARK [1][-]{section.19.4}{The JobDefs Resource}{chapter.19}% 270
\BOOKMARK [1][-]{section.19.5}{The Schedule Resource}{chapter.19}% 271
\BOOKMARK [1][-]{section.19.6}{Technical Notes on Schedules}{chapter.19}% 272
\BOOKMARK [1][-]{section.19.7}{The FileSet Resource}{chapter.19}% 273
\BOOKMARK [1][-]{section.19.8}{FileSet Examples}{chapter.19}% 274
\BOOKMARK [1][-]{section.19.9}{Backing up Raw Partitions}{chapter.19}% 275
\BOOKMARK [1][-]{section.19.10}{Excluding Files and Directories}{chapter.19}% 276
\BOOKMARK [1][-]{section.19.11}{Windows FileSets}{chapter.19}% 277
\BOOKMARK [1][-]{section.19.12}{Testing Your FileSet}{chapter.19}% 278
\BOOKMARK [1][-]{section.19.13}{The Client Resource}{chapter.19}% 279
\BOOKMARK [1][-]{section.19.14}{The Storage Resource}{chapter.19}% 280
\BOOKMARK [1][-]{section.19.15}{The Autochanger Resources}{chapter.19}% 281
\BOOKMARK [1][-]{section.19.16}{The Pool Resource}{chapter.19}% 282
\BOOKMARK [2][-]{subsection.19.16.1}{The Scratch Pool}{section.19.16}% 283
\BOOKMARK [1][-]{section.19.17}{The Catalog Resource}{chapter.19}% 284
\BOOKMARK [1][-]{section.19.18}{The Messages Resource}{chapter.19}% 285
\BOOKMARK [1][-]{section.19.19}{The Console Resource}{chapter.19}% 286
\BOOKMARK [1][-]{section.19.20}{The Counter Resource}{chapter.19}% 287
\BOOKMARK [1][-]{section.19.21}{Example Director Configuration File}{chapter.19}% 288
\BOOKMARK [0][-]{chapter.20}{Client/File daemon Configuration}{}% 289
\BOOKMARK [1][-]{section.20.1}{The Client Resource}{chapter.20}% 290
\BOOKMARK [1][-]{section.20.2}{The Director Resource}{chapter.20}% 291
\BOOKMARK [1][-]{section.20.3}{The Message Resource}{chapter.20}% 292
\BOOKMARK [1][-]{section.20.4}{Example Client Configuration File}{chapter.20}% 293
\BOOKMARK [0][-]{chapter.21}{Storage Daemon Configuration}{}% 294
\BOOKMARK [1][-]{section.21.1}{Storage Resource}{chapter.21}% 295
\BOOKMARK [1][-]{section.21.2}{Director Resource}{chapter.21}% 296
\BOOKMARK [1][-]{section.21.3}{Device Resource}{chapter.21}% 297
\BOOKMARK [1][-]{section.21.4}{Edit Codes for Mount and Unmount Directives}{chapter.21}% 298
\BOOKMARK [1][-]{section.21.5}{Devices that require a mount \(USB\)}{chapter.21}% 299
\BOOKMARK [1][-]{section.21.6}{Capabilities}{chapter.21}% 300
\BOOKMARK [1][-]{section.21.7}{Messages Resource}{chapter.21}% 301
\BOOKMARK [1][-]{section.21.8}{Sample Storage Daemon Configuration File}{chapter.21}% 302
\BOOKMARK [0][-]{chapter.22}{Messages Resource}{}% 303
\BOOKMARK [0][-]{chapter.23}{Console Configuration}{}% 304
\BOOKMARK [1][-]{section.23.1}{General}{chapter.23}% 305
\BOOKMARK [1][-]{section.23.2}{The Director Resource}{chapter.23}% 306
\BOOKMARK [1][-]{section.23.3}{The ConsoleFont Resource}{chapter.23}% 307
\BOOKMARK [1][-]{section.23.4}{The Console Resource}{chapter.23}% 308
\BOOKMARK [1][-]{section.23.5}{Console Commands}{chapter.23}% 309
\BOOKMARK [1][-]{section.23.6}{Sample Console Configuration File}{chapter.23}% 310
\BOOKMARK [0][-]{chapter.24}{Monitor Configuration}{}% 311
\BOOKMARK [1][-]{section.24.1}{The Monitor Resource}{chapter.24}% 312
\BOOKMARK [1][-]{section.24.2}{The Director Resource}{chapter.24}% 313
\BOOKMARK [1][-]{section.24.3}{The Client Resource}{chapter.24}% 314
\BOOKMARK [1][-]{section.24.4}{The Storage Resource}{chapter.24}% 315
\BOOKMARK [1][-]{section.24.5}{Tray Monitor Security}{chapter.24}% 316
\BOOKMARK [1][-]{section.24.6}{Sample Tray Monitor configuration}{chapter.24}% 317
\BOOKMARK [2][-]{subsection.24.6.1}{Sample File daemon's Director record.}{section.24.6}% 318
\BOOKMARK [2][-]{subsection.24.6.2}{Sample Storage daemon's Director record.}{section.24.6}% 319
\BOOKMARK [2][-]{subsection.24.6.3}{Sample Director's Console record.}{section.24.6}% 320
\BOOKMARK [0][-]{chapter.25}{The Restore Command}{}% 321
\BOOKMARK [1][-]{section.25.1}{General}{chapter.25}% 322
\BOOKMARK [1][-]{section.25.2}{The Restore Command}{chapter.25}% 323
\BOOKMARK [2][-]{subsection.25.2.1}{Restore a pruned job using a pattern}{section.25.2}% 324
\BOOKMARK [1][-]{section.25.3}{Selecting Files by Filename}{chapter.25}% 325
\BOOKMARK [1][-]{section.25.4}{Replace Options}{chapter.25}% 326
\BOOKMARK [1][-]{section.25.5}{Command Line Arguments}{chapter.25}% 327
\BOOKMARK [1][-]{section.25.6}{Using File Relocation}{chapter.25}% 328
\BOOKMARK [2][-]{subsection.25.6.1}{Introduction}{section.25.6}% 329
\BOOKMARK [2][-]{subsection.25.6.2}{RegexWhere Format}{section.25.6}% 330
\BOOKMARK [1][-]{section.25.7}{Restoring Directory Attributes}{chapter.25}% 331
\BOOKMARK [1][-]{section.25.8}{Restoring on Windows}{chapter.25}% 332
\BOOKMARK [1][-]{section.25.9}{Restoring Files Can Be Slow}{chapter.25}% 333
\BOOKMARK [1][-]{section.25.10}{Problems Restoring Files}{chapter.25}% 334
\BOOKMARK [1][-]{section.25.11}{Restore Errors}{chapter.25}% 335
\BOOKMARK [1][-]{section.25.12}{Example Restore Job Resource}{chapter.25}% 336
\BOOKMARK [1][-]{section.25.13}{File Selection Commands}{chapter.25}% 337
\BOOKMARK [1][-]{section.25.14}{Restoring When Things Go Wrong}{chapter.25}% 338
\BOOKMARK [0][-]{chapter.26}{Automatic Volume Recycling}{}% 339
\BOOKMARK [1][-]{section.26.1}{Automatic Pruning}{chapter.26}% 340
\BOOKMARK [1][-]{section.26.2}{Pruning Directives}{chapter.26}% 341
\BOOKMARK [1][-]{section.26.3}{Recycling Algorithm}{chapter.26}% 342
\BOOKMARK [1][-]{section.26.4}{Recycle Status}{chapter.26}% 343
\BOOKMARK [1][-]{section.26.5}{Making Bacula Use a Single Tape}{chapter.26}% 344
\BOOKMARK [1][-]{section.26.6}{Daily, Weekly, Monthly Tape Usage Example}{chapter.26}% 345
\BOOKMARK [1][-]{section.26.7}{ Automatic Pruning and Recycling Example}{chapter.26}% 346
\BOOKMARK [1][-]{section.26.8}{Manually Recycling Volumes}{chapter.26}% 347
\BOOKMARK [0][-]{chapter.27}{Basic Volume Management}{}% 348
\BOOKMARK [1][-]{section.27.1}{Key Concepts and Resource Records}{chapter.27}% 349
\BOOKMARK [2][-]{subsection.27.1.1}{Pool Options to Limit the Volume Usage}{section.27.1}% 350
\BOOKMARK [2][-]{subsection.27.1.2}{Automatic Volume Labeling}{section.27.1}% 351
\BOOKMARK [2][-]{subsection.27.1.3}{Restricting the Number of Volumes and Recycling}{section.27.1}% 352
\BOOKMARK [1][-]{section.27.2}{Concurrent Disk Jobs}{chapter.27}% 353
\BOOKMARK [1][-]{section.27.3}{An Example}{chapter.27}% 354
\BOOKMARK [1][-]{section.27.4}{Backing up to Multiple Disks}{chapter.27}% 355
\BOOKMARK [1][-]{section.27.5}{Considerations for Multiple Clients}{chapter.27}% 356
\BOOKMARK [0][-]{chapter.28}{Automated Disk Backup}{}% 357
\BOOKMARK [1][-]{section.28.1}{The Problem}{chapter.28}% 358
\BOOKMARK [1][-]{section.28.2}{The Solution}{chapter.28}% 359
\BOOKMARK [1][-]{section.28.3}{Overall Design}{chapter.28}% 360
\BOOKMARK [2][-]{subsection.28.3.1}{Full Pool}{section.28.3}% 361
\BOOKMARK [2][-]{subsection.28.3.2}{Differential Pool}{section.28.3}% 362
\BOOKMARK [2][-]{subsection.28.3.3}{Incremental Pool}{section.28.3}% 363
\BOOKMARK [1][-]{section.28.4}{The Actual Conf Files}{chapter.28}% 364
\BOOKMARK [0][-]{chapter.29}{Migration and Copy}{}% 365
\BOOKMARK [1][-]{subsection.29.0.1}{Storage daemon to Storage daemon}{chapter.29}% 366
\BOOKMARK [1][-]{section.29.1}{Migration and Copy Job Resource Directives}{chapter.29}% 367
\BOOKMARK [1][-]{section.29.2}{Migration Pool Resource Directives}{chapter.29}% 368
\BOOKMARK [1][-]{section.29.3}{Important Migration Considerations}{chapter.29}% 369
\BOOKMARK [1][-]{section.29.4}{Example Migration Jobs}{chapter.29}% 370
\BOOKMARK [1][-]{section.29.5}{Virtual Backup Consolidation}{chapter.29}% 371
\BOOKMARK [2][-]{subsection.29.5.1}{Manually Specify Jobs to Consolidate}{section.29.5}% 372
\BOOKMARK [0][-]{chapter.30}{File Deduplication using Base Jobs}{}% 373
\BOOKMARK [0][-]{chapter.31}{Backup Strategies}{}% 374
\BOOKMARK [1][-]{section.31.1}{Simple One Tape Backup}{chapter.31}% 375
\BOOKMARK [2][-]{subsection.31.1.1}{Advantages}{section.31.1}% 376
\BOOKMARK [2][-]{subsection.31.1.2}{Disadvantages}{section.31.1}% 377
\BOOKMARK [2][-]{subsection.31.1.3}{Practical Details}{section.31.1}% 378
\BOOKMARK [1][-]{section.31.2}{Manually Changing Tapes}{chapter.31}% 379
\BOOKMARK [1][-]{section.31.3}{Daily Tape Rotation}{chapter.31}% 380
\BOOKMARK [2][-]{subsection.31.3.1}{Advantages}{section.31.3}% 381
\BOOKMARK [2][-]{subsection.31.3.2}{Disadvantages}{section.31.3}% 382
\BOOKMARK [2][-]{subsection.31.3.3}{Practical Details}{section.31.3}% 383
\BOOKMARK [0][-]{chapter.32}{Autochanger Support}{}% 384
\BOOKMARK [1][-]{section.32.1}{Knowing What SCSI Devices You Have}{chapter.32}% 385
\BOOKMARK [1][-]{section.32.2}{Example Scripts}{chapter.32}% 386
\BOOKMARK [1][-]{section.32.3}{Slots}{chapter.32}% 387
\BOOKMARK [1][-]{section.32.4}{Multiple Devices}{chapter.32}% 388
\BOOKMARK [1][-]{section.32.5}{Device Configuration Records}{chapter.32}% 389
\BOOKMARK [0][-]{chapter.33}{Autochanger Resource}{}% 390
\BOOKMARK [1][-]{section.33.1}{An Example Configuration File}{chapter.33}% 391
\BOOKMARK [1][-]{section.33.2}{A Multi-drive Example Configuration File}{chapter.33}% 392
\BOOKMARK [1][-]{section.33.3}{Specifying Slots When Labeling}{chapter.33}% 393
\BOOKMARK [1][-]{section.33.4}{Changing Cartridges}{chapter.33}% 394
\BOOKMARK [1][-]{section.33.5}{Dealing with Multiple Magazines}{chapter.33}% 395
\BOOKMARK [1][-]{section.33.6}{Simulating Barcodes in your Autochanger}{chapter.33}% 396
\BOOKMARK [1][-]{section.33.7}{The Full Form of the Update Slots Command}{chapter.33}% 397
\BOOKMARK [1][-]{section.33.8}{FreeBSD Issues}{chapter.33}% 398
\BOOKMARK [1][-]{section.33.9}{Testing Autochanger and Adapting mtx-changer script}{chapter.33}% 399
\BOOKMARK [1][-]{section.33.10}{Using the Autochanger}{chapter.33}% 400
\BOOKMARK [1][-]{section.33.11}{Barcode Support}{chapter.33}% 401
\BOOKMARK [1][-]{section.33.12}{Use bconsole to display Autochanger content}{chapter.33}% 402
\BOOKMARK [1][-]{section.33.13}{Bacula Autochanger Interface}{chapter.33}% 403
\BOOKMARK [0][-]{chapter.34}{Supported Autochangers}{}% 404
\BOOKMARK [0][-]{chapter.35}{Data Spooling}{}% 405
\BOOKMARK [1][-]{section.35.1}{Data Spooling Directives}{chapter.35}% 406
\BOOKMARK [1][-]{section.35.2}{!!! MAJOR WARNING !!!}{chapter.35}% 407
\BOOKMARK [1][-]{section.35.3}{Other Points}{chapter.35}% 408
\BOOKMARK [0][-]{chapter.36}{Using Bacula catalog to grab information}{}% 409
\BOOKMARK [1][-]{section.36.1}{Job statistics}{chapter.36}% 410
\BOOKMARK [0][-]{chapter.37}{ANSI and IBM Tape Labels}{}% 411
\BOOKMARK [1][-]{section.37.1}{Director Pool Directive}{chapter.37}% 412
\BOOKMARK [1][-]{section.37.2}{Storage Daemon Device Directives}{chapter.37}% 413
\BOOKMARK [0][-]{chapter.38}{The Windows Version of Bacula}{}% 414
\BOOKMARK [1][-]{section.38.1}{Windows Installation}{chapter.38}% 415
\BOOKMARK [1][-]{section.38.2}{Post Windows Installation}{chapter.38}% 416
\BOOKMARK [1][-]{section.38.3}{Uninstalling Bacula on Windows}{chapter.38}% 417
\BOOKMARK [1][-]{section.38.4}{Dealing with Windows Problems}{chapter.38}% 418
\BOOKMARK [1][-]{section.38.5}{Windows Compatibility Considerations}{chapter.38}% 419
\BOOKMARK [1][-]{section.38.6}{Volume Shadow Copy Service}{chapter.38}% 420
\BOOKMARK [1][-]{section.38.7}{VSS Problems}{chapter.38}% 421
\BOOKMARK [1][-]{section.38.8}{Windows Firewalls}{chapter.38}% 422
\BOOKMARK [1][-]{section.38.9}{Windows Port Usage}{chapter.38}% 423
\BOOKMARK [1][-]{section.38.10}{Windows Disaster Recovery}{chapter.38}% 424
\BOOKMARK [1][-]{section.38.11}{Windows Restore Problems}{chapter.38}% 425
\BOOKMARK [1][-]{section.38.12}{Windows Ownership and Permissions Problems}{chapter.38}% 426
\BOOKMARK [1][-]{section.38.13}{Manually resetting the Permissions}{chapter.38}% 427
\BOOKMARK [1][-]{section.38.14}{Backing Up the Windows System State}{chapter.38}% 428
\BOOKMARK [1][-]{section.38.15}{Fixing the Windows Boot Record}{chapter.38}% 429
\BOOKMARK [1][-]{section.38.16}{Considerations for Filename Specifications}{chapter.38}% 430
\BOOKMARK [1][-]{section.38.17}{Windows Specific File daemon Command Line}{chapter.38}% 431
\BOOKMARK [1][-]{section.38.18}{Shutting down Windows Systems}{chapter.38}% 432
\BOOKMARK [0][-]{chapter.39}{Disaster Recovery Using Bacula}{}% 433
\BOOKMARK [1][-]{section.39.1}{General}{chapter.39}% 434
\BOOKMARK [1][-]{section.39.2}{Important Considerations}{chapter.39}% 435
\BOOKMARK [1][-]{section.39.3}{Steps to Take Before Disaster Strikes}{chapter.39}% 436
\BOOKMARK [1][-]{section.39.4}{Bare Metal Recovery on Linux with a Rescue CD}{chapter.39}% 437
\BOOKMARK [1][-]{section.39.5}{Requirements}{chapter.39}% 438
\BOOKMARK [1][-]{section.39.6}{Restoring a Client System}{chapter.39}% 439
\BOOKMARK [1][-]{section.39.7}{Boot with your Rescue CDROM}{chapter.39}% 440
\BOOKMARK [1][-]{section.39.8}{Restoring a Server}{chapter.39}% 441
\BOOKMARK [1][-]{section.39.9}{Linux Problems or Bugs}{chapter.39}% 442
\BOOKMARK [1][-]{section.39.10}{Bare Metal Recovery using a LiveCD}{chapter.39}% 443
\BOOKMARK [1][-]{section.39.11}{FreeBSD Bare Metal Recovery}{chapter.39}% 444
\BOOKMARK [1][-]{section.39.12}{Solaris Bare Metal Recovery}{chapter.39}% 445
\BOOKMARK [1][-]{section.39.13}{Preparing Solaris Before a Disaster}{chapter.39}% 446
\BOOKMARK [1][-]{section.39.14}{Bugs and Other Considerations}{chapter.39}% 447
\BOOKMARK [1][-]{section.39.15}{Disaster Recovery of Win32 Systems}{chapter.39}% 448
\BOOKMARK [1][-]{section.39.16}{Ownership and Permissions on Win32 Systems}{chapter.39}% 449
\BOOKMARK [1][-]{section.39.17}{Alternate Disaster Recovery Suggestion for Win32 Systems}{chapter.39}% 450
\BOOKMARK [1][-]{section.39.18}{Restoring to a Running System}{chapter.39}% 451
\BOOKMARK [1][-]{section.39.19}{Additional Resources}{chapter.39}% 452
\BOOKMARK [0][-]{chapter.40}{Bacula TLS \205 Communications Encryption}{}% 453
\BOOKMARK [1][-]{section.40.1}{TLS Configuration Directives}{chapter.40}% 454
\BOOKMARK [1][-]{section.40.2}{Creating a Self-signed Certificate}{chapter.40}% 455
\BOOKMARK [1][-]{section.40.3}{Getting a CA Signed Certificate}{chapter.40}% 456
\BOOKMARK [1][-]{section.40.4}{Example TLS Configuration Files}{chapter.40}% 457
\BOOKMARK [0][-]{chapter.41}{Data Encryption}{}% 458
\BOOKMARK [1][-]{section.41.1}{Building Bacula with Encryption Support}{chapter.41}% 459
\BOOKMARK [1][-]{section.41.2}{Encryption Technical Details}{chapter.41}% 460
\BOOKMARK [1][-]{section.41.3}{Decrypting with a Master Key}{chapter.41}% 461
\BOOKMARK [1][-]{section.41.4}{Generating Private/Public Encryption Keys}{chapter.41}% 462
\BOOKMARK [1][-]{section.41.5}{Example Data Encryption Configuration}{chapter.41}% 463
\BOOKMARK [0][-]{chapter.42}{Using Bacula to Improve Computer Security}{}% 464
\BOOKMARK [1][-]{section.42.1}{The Details}{chapter.42}% 465
\BOOKMARK [1][-]{section.42.2}{Running the Verify}{chapter.42}% 466
\BOOKMARK [1][-]{section.42.3}{What To Do When Differences Are Found}{chapter.42}% 467
\BOOKMARK [1][-]{section.42.4}{A Verify Configuration Example}{chapter.42}% 468
\BOOKMARK [0][-]{chapter.43}{Installing and Configuring MySQL}{}% 469
\BOOKMARK [1][-]{section.43.1}{Installing and Configuring MySQL \205 Phase I}{chapter.43}% 470
\BOOKMARK [1][-]{section.43.2}{Installing and Configuring MySQL \205 Phase II}{chapter.43}% 471
\BOOKMARK [1][-]{section.43.3}{Re-initializing the Catalog Database}{chapter.43}% 472
\BOOKMARK [1][-]{section.43.4}{Linking Bacula with MySQL}{chapter.43}% 473
\BOOKMARK [1][-]{section.43.5}{Installing MySQL from RPMs}{chapter.43}% 474
\BOOKMARK [1][-]{section.43.6}{Upgrading MySQL}{chapter.43}% 475
\BOOKMARK [1][-]{section.43.7}{MySQL Configuration Caution}{chapter.43}% 476
\BOOKMARK [0][-]{chapter.44}{Installing and Configuring PostgreSQL}{}% 477
\BOOKMARK [1][-]{section.44.1}{Installing PostgreSQL}{chapter.44}% 478
\BOOKMARK [1][-]{section.44.2}{Configuring PostgreSQL}{chapter.44}% 479
\BOOKMARK [1][-]{section.44.3}{Re-initializing the Catalog Database}{chapter.44}% 480
\BOOKMARK [1][-]{section.44.4}{Installing PostgreSQL from RPMs}{chapter.44}% 481
\BOOKMARK [1][-]{section.44.5}{Converting from MySQL to PostgreSQL}{chapter.44}% 482
\BOOKMARK [1][-]{section.44.6}{Upgrading PostgreSQL}{chapter.44}% 483
\BOOKMARK [1][-]{section.44.7}{Tuning PostgreSQL}{chapter.44}% 484
\BOOKMARK [1][-]{section.44.8}{Credits}{chapter.44}% 485
\BOOKMARK [0][-]{chapter.45}{Catalog Maintenance}{}% 486
\BOOKMARK [1][-]{section.45.1}{Setting Retention Periods}{chapter.45}% 487
\BOOKMARK [1][-]{section.45.2}{Compacting Your MySQL Database}{chapter.45}% 488
\BOOKMARK [1][-]{section.45.3}{Repairing Your MySQL Database}{chapter.45}% 489
\BOOKMARK [1][-]{section.45.4}{MySQL Table is Full}{chapter.45}% 490
\BOOKMARK [1][-]{section.45.5}{MySQL Server Has Gone Away}{chapter.45}% 491
\BOOKMARK [1][-]{section.45.6}{MySQL Temporary Tables}{chapter.45}% 492
\BOOKMARK [1][-]{section.45.7}{Repairing Your PostgreSQL Database}{chapter.45}% 493
\BOOKMARK [1][-]{section.45.8}{Database Performance Issues}{chapter.45}% 494
\BOOKMARK [1][-]{section.45.9}{Performance Issues Indexes}{chapter.45}% 495
\BOOKMARK [2][-]{subsection.45.9.1}{PostgreSQL Indexes}{section.45.9}% 496
\BOOKMARK [2][-]{subsection.45.9.2}{MySQL Indexes}{section.45.9}% 497
\BOOKMARK [1][-]{section.45.10}{Compacting Your PostgreSQL Database}{chapter.45}% 498
\BOOKMARK [1][-]{section.45.11}{Migrating from SQLite to MySQL or PostgreSQL}{chapter.45}% 499
\BOOKMARK [1][-]{section.45.12}{Backing Up Your Bacula Database}{chapter.45}% 500
\BOOKMARK [1][-]{section.45.13}{Security considerations}{chapter.45}% 501
\BOOKMARK [1][-]{section.45.14}{Backing Up Third Party Databases}{chapter.45}% 502
\BOOKMARK [1][-]{section.45.15}{Database Size}{chapter.45}% 503
\BOOKMARK [0][-]{chapter.46}{Bacula Security Issues}{}% 504
\BOOKMARK [1][-]{section.46.1}{Backward Compatibility}{chapter.46}% 505
\BOOKMARK [1][-]{section.46.2}{Configuring and Testing TCP Wrappers}{chapter.46}% 506
\BOOKMARK [1][-]{section.46.3}{Running as non-root}{chapter.46}% 507
\BOOKMARK [0][-]{chapter.47}{The Bootstrap File}{}% 508
\BOOKMARK [1][-]{section.47.1}{Bootstrap File Format}{chapter.47}% 509
\BOOKMARK [1][-]{section.47.2}{Automatic Generation of Bootstrap Files}{chapter.47}% 510
\BOOKMARK [1][-]{section.47.3}{Bootstrap for bscan}{chapter.47}% 511
\BOOKMARK [1][-]{section.47.4}{A Final Bootstrap Example}{chapter.47}% 512
\BOOKMARK [0][-]{chapter.48}{Bacula Copyright, Trademark, and Licenses}{}% 513
\BOOKMARK [1][-]{section.48.1}{CC-BY-SA}{chapter.48}% 514
\BOOKMARK [1][-]{section.48.2}{GPL}{chapter.48}% 515
\BOOKMARK [1][-]{section.48.3}{LGPL}{chapter.48}% 516
\BOOKMARK [1][-]{section.48.4}{Public Domain}{chapter.48}% 517
\BOOKMARK [1][-]{section.48.5}{Trademark}{chapter.48}% 518
\BOOKMARK [1][-]{section.48.6}{Fiduciary License Agreement}{chapter.48}% 519
\BOOKMARK [1][-]{section.48.7}{Disclaimer}{chapter.48}% 520
\BOOKMARK [1][-]{section.48.8}{Authors}{chapter.48}% 521
\BOOKMARK [1][-]{section.48.9}{Table of Contents}{chapter.48}% 522
\BOOKMARK [1][-]{section.48.10}{GNU LESSER GENERAL PUBLIC LICENSE}{chapter.48}% 523
\BOOKMARK [1][-]{section.48.11}{Preamble}{chapter.48}% 524
\BOOKMARK [1][-]{section.48.12}{TERMS AND CONDITIONS}{chapter.48}% 525
\BOOKMARK [1][-]{section.48.13}{How to Apply These Terms to Your New Libraries}{chapter.48}% 526
\BOOKMARK [0][-]{chapter.49}{Thanks}{}% 527
\BOOKMARK [1][-]{section.49.1}{Bacula Bugs}{chapter.49}% 528
