\relax 
\providecommand\hyper@newdestlabel[2]{}
\@writefile{toc}{\contentsline {chapter}{\numberline {22}Messages Resource}{243}{chapter.22}}
\@writefile{lof}{\addvspace {10\p@ }}
\@writefile{lot}{\addvspace {10\p@ }}
\newlabel{MessagesChapter}{{22}{243}{Messages Resource}{chapter.22}{}}
\@writefile{general}{\indexentry{Resource!Messages}{243}}
\@writefile{general}{\indexentry{Messages Resource}{243}}
\@writefile{dir}{\indexentry{destination}{243}}
\@writefile{dir}{\indexentry{destination}{243}}
\@writefile{dir}{\indexentry{Messages}{243}}
\@writefile{dir}{\indexentry{Name}{243}}
\newlabel{mailcommand}{{22}{243}{Messages Resource}{chapter.22}{}}
\@writefile{dir}{\indexentry{MailCommand}{243}}
\newlabel{54@xvr}{{}{244}{Messages Resource}{chapter.22}{}}
\newlabel{54@vr}{{}{244}{Messages Resource}{chapter.22}{}}
\@writefile{fd}{\indexentry{OperatorCommand}{244}}
\@writefile{fd}{\indexentry{\lt{}destination\gt{}}{244}}
\@writefile{fd}{\indexentry{stdout}{244}}
\@writefile{fd}{\indexentry{stderr}{244}}
\@writefile{console}{\indexentry{console}{244}}
\@writefile{console}{\indexentry{\lt{}destination\gt{}}{244}}
\@writefile{dir}{\indexentry{director}{244}}
\@writefile{general}{\indexentry{director}{244}}
\@writefile{dir}{\indexentry{file}{244}}
\@writefile{general}{\indexentry{file}{244}}
\@writefile{dir}{\indexentry{append}{245}}
\@writefile{general}{\indexentry{append}{245}}
\@writefile{general}{\indexentry{syslog}{245}}
\@writefile{general}{\indexentry{mail}{245}}
\@writefile{general}{\indexentry{mail on error}{245}}
\@writefile{general}{\indexentry{mail on success}{245}}
\@writefile{general}{\indexentry{operator}{245}}
\@writefile{general}{\indexentry{console}{245}}
\@writefile{general}{\indexentry{stdout}{245}}
\@writefile{general}{\indexentry{stderr}{245}}
\@writefile{general}{\indexentry{catalog}{245}}
\@writefile{general}{\indexentry{info}{245}}
\@writefile{general}{\indexentry{warning}{245}}
\@writefile{general}{\indexentry{error}{245}}
\@writefile{general}{\indexentry{fatal}{245}}
\@writefile{general}{\indexentry{terminate}{245}}
\@writefile{fd}{\indexentry{notsaved}{245}}
\@writefile{general}{\indexentry{notsaved}{245}}
\@writefile{fd}{\indexentry{skipped}{246}}
\@writefile{general}{\indexentry{skipped}{246}}
\@writefile{dir}{\indexentry{mount}{246}}
\@writefile{general}{\indexentry{mount}{246}}
\@writefile{fd}{\indexentry{restored}{246}}
\@writefile{general}{\indexentry{restored}{246}}
\@writefile{general}{\indexentry{all}{246}}
\@writefile{general}{\indexentry{security}{246}}
\@writefile{general}{\indexentry{alert}{246}}
\@writefile{general}{\indexentry{volmgmt}{246}}
\@setckpt{messagesres}{
\setcounter{page}{247}
\setcounter{equation}{0}
\setcounter{enumi}{8}
\setcounter{enumii}{0}
\setcounter{enumiii}{0}
\setcounter{enumiv}{0}
\setcounter{footnote}{0}
\setcounter{mpfootnote}{0}
\setcounter{part}{0}
\setcounter{chapter}{22}
\setcounter{section}{0}
\setcounter{subsection}{0}
\setcounter{subsubsection}{0}
\setcounter{paragraph}{0}
\setcounter{subparagraph}{0}
\setcounter{figure}{0}
\setcounter{table}{0}
\setcounter{Item}{79}
\setcounter{Hfootnote}{1}
\setcounter{bookmark@seq@number}{303}
\setcounter{lpart}{0}
\setcounter{lchapter}{1}
\setcounter{lsection}{0}
\setcounter{lsubsection}{0}
\setcounter{lsubsubsection}{0}
\setcounter{lparagraph}{0}
\setcounter{lsubparagraph}{0}
\setcounter{lsubsubparagraph}{0}
\setcounter{float@type}{4}
\setcounter{LT@tables}{6}
\setcounter{LT@chunks}{5}
\setcounter{vrcnt}{54}
\setcounter{AM@survey}{0}
\setcounter{section@level}{1}
}
