\relax 
\providecommand\hyper@newdestlabel[2]{}
\@writefile{toc}{\contentsline {chapter}{\numberline {29}Migration and Copy}{297}{chapter.29}}
\@writefile{lof}{\addvspace {10\p@ }}
\@writefile{lot}{\addvspace {10\p@ }}
\newlabel{MigrationChapter}{{29}{297}{Migration and Copy}{chapter.29}{}}
\@writefile{general}{\indexentry{Migration}{297}}
\@writefile{general}{\indexentry{Copy}{297}}
\@writefile{toc}{\contentsline {subsection}{\numberline {29.0.1}Storage daemon to Storage daemon}{298}{subsection.29.0.1}}
\@writefile{toc}{\contentsline {section}{\numberline {29.1}Migration and Copy Job Resource Directives}{298}{section.29.1}}
\newlabel{Director:Job:SelectionPattern}{{29.1}{299}{Migration and Copy Job Resource Directives}{section.29.1}{}}
\newlabel{Director:Job:PurgeMigrationJob}{{29.1}{300}{Migration and Copy Job Resource Directives}{section.29.1}{}}
\@writefile{toc}{\contentsline {section}{\numberline {29.2}Migration Pool Resource Directives}{300}{section.29.2}}
\@writefile{toc}{\contentsline {section}{\numberline {29.3}Important Migration Considerations}{300}{section.29.3}}
\@writefile{general}{\indexentry{Important Migration Considerations}{300}}
\@writefile{toc}{\contentsline {section}{\numberline {29.4}Example Migration Jobs}{301}{section.29.4}}
\@writefile{general}{\indexentry{Example Migration Jobs}{301}}
\@writefile{toc}{\contentsline {section}{\numberline {29.5}Virtual Backup Consolidation}{303}{section.29.5}}
\newlabel{VirtualBackupChapter}{{29.5}{303}{Virtual Backup Consolidation}{section.29.5}{}}
\@writefile{toc}{\contentsline {subsection}{\numberline {29.5.1}Manually Specify Jobs to Consolidate}{304}{subsection.29.5.1}}
\@setckpt{migration}{
\setcounter{page}{306}
\setcounter{equation}{0}
\setcounter{enumi}{10}
\setcounter{enumii}{0}
\setcounter{enumiii}{0}
\setcounter{enumiv}{0}
\setcounter{footnote}{0}
\setcounter{mpfootnote}{0}
\setcounter{part}{0}
\setcounter{chapter}{29}
\setcounter{section}{5}
\setcounter{subsection}{1}
\setcounter{subsubsection}{0}
\setcounter{paragraph}{0}
\setcounter{subparagraph}{0}
\setcounter{figure}{0}
\setcounter{table}{0}
\setcounter{Item}{99}
\setcounter{Hfootnote}{2}
\setcounter{bookmark@seq@number}{372}
\setcounter{lpart}{0}
\setcounter{lchapter}{1}
\setcounter{lsection}{0}
\setcounter{lsubsection}{0}
\setcounter{lsubsubsection}{0}
\setcounter{lparagraph}{0}
\setcounter{lsubparagraph}{0}
\setcounter{lsubsubparagraph}{0}
\setcounter{float@type}{4}
\setcounter{LT@tables}{7}
\setcounter{LT@chunks}{5}
\setcounter{vrcnt}{63}
\setcounter{AM@survey}{0}
\setcounter{section@level}{2}
}
