\relax 
\providecommand\hyper@newdestlabel[2]{}
\@writefile{toc}{\contentsline {chapter}{\numberline {24}Monitor Configuration}{251}{chapter.24}}
\@writefile{lof}{\addvspace {10\p@ }}
\@writefile{lot}{\addvspace {10\p@ }}
\newlabel{TheMonitorChapter}{{24}{251}{Monitor Configuration}{chapter.24}{}}
\@writefile{general}{\indexentry{Monitor Configuration }{251}}
\@writefile{general}{\indexentry{Configuration!Monitor }{251}}
\@writefile{toc}{\contentsline {section}{\numberline {24.1}The Monitor Resource}{251}{section.24.1}}
\newlabel{MonitorResource}{{24.1}{251}{The Monitor Resource}{section.24.1}{}}
\@writefile{general}{\indexentry{Monitor Resource }{251}}
\@writefile{general}{\indexentry{Resource!Monitor }{251}}
\@writefile{fd}{\indexentry{Monitor }{251}}
\@writefile{fd}{\indexentry{Name  }{251}}
\@writefile{fd}{\indexentry{Password  }{251}}
\@writefile{fd}{\indexentry{Refresh Interval  }{251}}
\@writefile{toc}{\contentsline {section}{\numberline {24.2}The Director Resource}{251}{section.24.2}}
\newlabel{DirectorResource2}{{24.2}{251}{The Director Resource}{section.24.2}{}}
\@writefile{general}{\indexentry{Director Resource }{251}}
\@writefile{general}{\indexentry{Resource!Director }{251}}
\@writefile{fd}{\indexentry{Director }{251}}
\@writefile{fd}{\indexentry{Name  }{251}}
\@writefile{fd}{\indexentry{DIRPort  }{252}}
\@writefile{fd}{\indexentry{Address  }{252}}
\@writefile{toc}{\contentsline {section}{\numberline {24.3}The Client Resource}{252}{section.24.3}}
\newlabel{ClientResource1}{{24.3}{252}{The Client Resource}{section.24.3}{}}
\@writefile{general}{\indexentry{Resource!Client }{252}}
\@writefile{general}{\indexentry{Client Resource }{252}}
\@writefile{fd}{\indexentry{Client (or FileDaemon) }{252}}
\@writefile{fd}{\indexentry{Name  }{252}}
\@writefile{fd}{\indexentry{Address  }{252}}
\@writefile{fd}{\indexentry{FD Port  }{252}}
\@writefile{fd}{\indexentry{Password  }{252}}
\@writefile{toc}{\contentsline {section}{\numberline {24.4}The Storage Resource}{252}{section.24.4}}
\newlabel{StorageResource1}{{24.4}{252}{The Storage Resource}{section.24.4}{}}
\@writefile{general}{\indexentry{Resource!Storage }{252}}
\@writefile{general}{\indexentry{Storage Resource }{252}}
\@writefile{fd}{\indexentry{Storage }{252}}
\@writefile{fd}{\indexentry{Name  }{252}}
\@writefile{fd}{\indexentry{Address  }{252}}
\@writefile{fd}{\indexentry{SD Port  }{252}}
\@writefile{sd}{\indexentry{Password  }{252}}
\@writefile{toc}{\contentsline {section}{\numberline {24.5}Tray Monitor Security}{252}{section.24.5}}
\@writefile{general}{\indexentry{Tray Monitor Security}{252}}
\@writefile{toc}{\contentsline {section}{\numberline {24.6}Sample Tray Monitor configuration}{253}{section.24.6}}
\newlabel{SampleConfiguration1}{{24.6}{253}{Sample Tray Monitor configuration}{section.24.6}{}}
\@writefile{general}{\indexentry{Sample Tray Monitor configuration}{253}}
\@writefile{toc}{\contentsline {subsection}{\numberline {24.6.1}Sample File daemon's Director record.}{253}{subsection.24.6.1}}
\@writefile{general}{\indexentry{Sample File daemon's Director record. }{253}}
\@writefile{general}{\indexentry{Record!Sample File daemon's Director }{253}}
\@writefile{toc}{\contentsline {subsection}{\numberline {24.6.2}Sample Storage daemon's Director record.}{253}{subsection.24.6.2}}
\@writefile{general}{\indexentry{Record!Sample Storage daemon's Director }{253}}
\@writefile{general}{\indexentry{Sample Storage daemon's Director record. }{253}}
\@writefile{toc}{\contentsline {subsection}{\numberline {24.6.3}Sample Director's Console record.}{254}{subsection.24.6.3}}
\@writefile{general}{\indexentry{Record!Sample Director's Console }{254}}
\@writefile{general}{\indexentry{Sample Director's Console record. }{254}}
\@setckpt{monitorconf}{
\setcounter{page}{255}
\setcounter{equation}{0}
\setcounter{enumi}{8}
\setcounter{enumii}{0}
\setcounter{enumiii}{0}
\setcounter{enumiv}{0}
\setcounter{footnote}{0}
\setcounter{mpfootnote}{0}
\setcounter{part}{0}
\setcounter{chapter}{24}
\setcounter{section}{6}
\setcounter{subsection}{3}
\setcounter{subsubsection}{0}
\setcounter{paragraph}{0}
\setcounter{subparagraph}{0}
\setcounter{figure}{0}
\setcounter{table}{0}
\setcounter{Item}{79}
\setcounter{Hfootnote}{1}
\setcounter{bookmark@seq@number}{320}
\setcounter{lpart}{0}
\setcounter{lchapter}{1}
\setcounter{lsection}{0}
\setcounter{lsubsection}{0}
\setcounter{lsubsubsection}{0}
\setcounter{lparagraph}{0}
\setcounter{lsubparagraph}{0}
\setcounter{lsubsubparagraph}{0}
\setcounter{float@type}{4}
\setcounter{LT@tables}{6}
\setcounter{LT@chunks}{5}
\setcounter{vrcnt}{55}
\setcounter{AM@survey}{0}
\setcounter{section@level}{2}
}
