\relax 
\providecommand\hyper@newdestlabel[2]{}
\@writefile{toc}{\contentsline {chapter}{\numberline {44}Installing and Configuring PostgreSQL}{379}{chapter.44}}
\@writefile{lof}{\addvspace {10\p@ }}
\@writefile{lot}{\addvspace {10\p@ }}
\newlabel{PostgreSqlChapter}{{44}{379}{Installing and Configuring PostgreSQL}{chapter.44}{}}
\@writefile{general}{\indexentry{PostgreSQL!Installing and Configuring }{379}}
\@writefile{general}{\indexentry{Installing and Configuring PostgreSQL }{379}}
\@writefile{general}{\indexentry{Upgrading}{379}}
\@writefile{toc}{\contentsline {section}{\numberline {44.1}Installing PostgreSQL}{379}{section.44.1}}
\@writefile{general}{\indexentry{PostgreSQL!Installing }{379}}
\newlabel{PostgreSQL_configure}{{44.1}{379}{Installing PostgreSQL}{section.44.1}{}}
\@writefile{toc}{\contentsline {section}{\numberline {44.2}Configuring PostgreSQL}{379}{section.44.2}}
\@writefile{general}{\indexentry{PostgreSQL!Configuring PostgreSQL -- }{379}}
\@writefile{toc}{\contentsline {section}{\numberline {44.3}Re-initializing the Catalog Database}{382}{section.44.3}}
\@writefile{general}{\indexentry{Database!Re-initializing the Catalog }{382}}
\@writefile{general}{\indexentry{Re-initializing the Catalog Database }{382}}
\@writefile{toc}{\contentsline {section}{\numberline {44.4}Installing PostgreSQL from RPMs}{382}{section.44.4}}
\@writefile{general}{\indexentry{PostgreSQL!Installing from RPMs}{382}}
\@writefile{general}{\indexentry{Installing PostgreSQL from RPMs}{382}}
\@writefile{toc}{\contentsline {section}{\numberline {44.5}Converting from MySQL to PostgreSQL}{382}{section.44.5}}
\@writefile{general}{\indexentry{PostgreSQL!Converting from MySQL to }{382}}
\@writefile{general}{\indexentry{Converting from MySQL to PostgreSQL }{382}}
\@writefile{toc}{\contentsline {section}{\numberline {44.6}Upgrading PostgreSQL}{382}{section.44.6}}
\@writefile{general}{\indexentry{Upgrading PostgreSQL }{382}}
\@writefile{general}{\indexentry{Upgrading!PostgreSQL }{382}}
\@writefile{general}{\indexentry{Upgrading}{382}}
\@writefile{toc}{\contentsline {section}{\numberline {44.7}Tuning PostgreSQL}{382}{section.44.7}}
\@writefile{general}{\indexentry{Tuning}{382}}
\@writefile{toc}{\contentsline {section}{\numberline {44.8}Credits}{383}{section.44.8}}
\@writefile{general}{\indexentry{Credits }{383}}
\@setckpt{postgresql}{
\setcounter{page}{384}
\setcounter{equation}{0}
\setcounter{enumi}{5}
\setcounter{enumii}{0}
\setcounter{enumiii}{0}
\setcounter{enumiv}{0}
\setcounter{footnote}{0}
\setcounter{mpfootnote}{0}
\setcounter{part}{0}
\setcounter{chapter}{44}
\setcounter{section}{8}
\setcounter{subsection}{0}
\setcounter{subsubsection}{0}
\setcounter{paragraph}{0}
\setcounter{subparagraph}{0}
\setcounter{figure}{0}
\setcounter{table}{0}
\setcounter{Item}{180}
\setcounter{Hfootnote}{2}
\setcounter{bookmark@seq@number}{485}
\setcounter{lpart}{0}
\setcounter{lchapter}{1}
\setcounter{lsection}{0}
\setcounter{lsubsection}{0}
\setcounter{lsubsubsection}{0}
\setcounter{lparagraph}{0}
\setcounter{lsubparagraph}{0}
\setcounter{lsubsubparagraph}{0}
\setcounter{float@type}{4}
\setcounter{LT@tables}{9}
\setcounter{LT@chunks}{6}
\setcounter{vrcnt}{66}
\setcounter{AM@survey}{0}
\setcounter{section@level}{1}
}
