\relax 
\providecommand\hyper@newdestlabel[2]{}
\@writefile{toc}{\contentsline {chapter}{\numberline {39}Disaster Recovery Using Bacula}{351}{chapter.39}}
\@writefile{lof}{\addvspace {10\p@ }}
\@writefile{lot}{\addvspace {10\p@ }}
\newlabel{RescueChapter}{{39}{351}{Disaster Recovery Using Bacula}{chapter.39}{}}
\@writefile{general}{\indexentry{Disaster Recovery Using Bacula}{351}}
\@writefile{general}{\indexentry{Bacula!Disaster Recovery Using}{351}}
\@writefile{general}{\indexentry{Recovery!Disaster Recovery}{351}}
\@writefile{general}{\indexentry{Rescue!Disaster Recovery}{351}}
\@writefile{toc}{\contentsline {section}{\numberline {39.1}General}{351}{section.39.1}}
\@writefile{general}{\indexentry{General}{351}}
\newlabel{considerations1}{{39.1}{351}{General}{section.39.1}{}}
\@writefile{toc}{\contentsline {section}{\numberline {39.2}Important Considerations}{351}{section.39.2}}
\@writefile{general}{\indexentry{Important Considerations}{351}}
\@writefile{general}{\indexentry{Considerations!Important}{351}}
\newlabel{steps1}{{39.2}{351}{Important Considerations}{section.39.2}{}}
\@writefile{toc}{\contentsline {section}{\numberline {39.3}Steps to Take Before Disaster Strikes}{351}{section.39.3}}
\@writefile{general}{\indexentry{Steps to Take Before Disaster Strikes}{351}}
\@writefile{general}{\indexentry{Strikes!Steps to Take Before Disaster}{351}}
\newlabel{rescueCDROM}{{39.3}{352}{Steps to Take Before Disaster Strikes}{section.39.3}{}}
\@writefile{toc}{\contentsline {section}{\numberline {39.4}Bare Metal Recovery on Linux with a Rescue CD}{352}{section.39.4}}
\@writefile{general}{\indexentry{Bare Metal Recovery on Linux with a Rescue CD}{352}}
\@writefile{general}{\indexentry{CDROM!Bare Metal Recovery on Linux with a Rescue}{352}}
\@writefile{toc}{\contentsline {section}{\numberline {39.5}Requirements}{352}{section.39.5}}
\@writefile{general}{\indexentry{Requirements}{352}}
\newlabel{restore_client}{{39.5}{352}{Requirements}{section.39.5}{}}
\@writefile{toc}{\contentsline {section}{\numberline {39.6}Restoring a Client System}{352}{section.39.6}}
\@writefile{general}{\indexentry{Restoring a Client System}{352}}
\@writefile{general}{\indexentry{System!Restoring a Client}{352}}
\@writefile{toc}{\contentsline {section}{\numberline {39.7}Boot with your Rescue CDROM}{353}{section.39.7}}
\@writefile{general}{\indexentry{CDROM!Boot with your Rescue}{353}}
\@writefile{general}{\indexentry{Boot with your Rescue CDROM}{353}}
\newlabel{restore_server}{{39.7}{354}{Reboot:}{section*.128}{}}
\@writefile{toc}{\contentsline {section}{\numberline {39.8}Restoring a Server}{354}{section.39.8}}
\@writefile{general}{\indexentry{Restoring a Server}{354}}
\@writefile{general}{\indexentry{Server!Restoring a}{354}}
\newlabel{problems2}{{39.8}{355}{Restoring a Server}{Item.128}{}}
\@writefile{toc}{\contentsline {section}{\numberline {39.9}Linux Problems or Bugs}{355}{section.39.9}}
\@writefile{general}{\indexentry{Bugs!Linux Problems or}{355}}
\@writefile{general}{\indexentry{Linux Problems or Bugs}{355}}
\newlabel{LiveCD}{{39.9}{355}{Linux Problems or Bugs}{section.39.9}{}}
\@writefile{toc}{\contentsline {section}{\numberline {39.10}Bare Metal Recovery using a LiveCD}{355}{section.39.10}}
\@writefile{general}{\indexentry{Bare Metal Recovery using a LiveCD}{355}}
\@writefile{general}{\indexentry{Recovery!Bare Metal Recovery using a LiveCD}{355}}
\@writefile{general}{\indexentry{Rescue!Bare Metal Recovery using a LiveCD}{355}}
\@writefile{general}{\indexentry{LiveCD!Bare Metal Recovery using a LiveCD}{355}}
\newlabel{FreeBSD1}{{39.10}{356}{Bare Metal Recovery using a LiveCD}{Item.141}{}}
\@writefile{toc}{\contentsline {section}{\numberline {39.11}FreeBSD Bare Metal Recovery}{356}{section.39.11}}
\@writefile{general}{\indexentry{Recovery!FreeBSD Bare Metal}{356}}
\@writefile{general}{\indexentry{Rescue!FreeBSD Bare Metal}{356}}
\@writefile{general}{\indexentry{FreeBSD Bare Metal Recovery}{356}}
\newlabel{solaris}{{39.11}{357}{FreeBSD Bare Metal Recovery}{Item.160}{}}
\@writefile{toc}{\contentsline {section}{\numberline {39.12}Solaris Bare Metal Recovery}{357}{section.39.12}}
\@writefile{general}{\indexentry{Solaris Bare Metal Recovery}{357}}
\@writefile{general}{\indexentry{Recovery!Solaris Bare Metal}{357}}
\@writefile{toc}{\contentsline {section}{\numberline {39.13}Preparing Solaris Before a Disaster}{357}{section.39.13}}
\@writefile{general}{\indexentry{Preparing Solaris Before a Disaster}{357}}
\@writefile{general}{\indexentry{Disaster!Preparing Solaris Before a}{357}}
\newlabel{genbugs}{{39.13}{357}{Preparing Solaris Before a Disaster}{section.39.13}{}}
\@writefile{toc}{\contentsline {section}{\numberline {39.14}Bugs and Other Considerations}{357}{section.39.14}}
\@writefile{general}{\indexentry{Considerations!Bugs and Other}{357}}
\@writefile{general}{\indexentry{Bugs and Other Considerations}{357}}
\newlabel{Win3233}{{39.14}{358}{Strange Bootstrap Files:}{section*.130}{}}
\@writefile{toc}{\contentsline {section}{\numberline {39.15}Disaster Recovery of Win32 Systems}{358}{section.39.15}}
\@writefile{general}{\indexentry{Systems!Disaster Recovery of Win32}{358}}
\@writefile{general}{\indexentry{Disaster Recovery of Win32 Systems}{358}}
\@writefile{toc}{\contentsline {section}{\numberline {39.16}Ownership and Permissions on Win32 Systems}{358}{section.39.16}}
\@writefile{general}{\indexentry{Systems!Resetting Directory and File Ownership and Permissions on Win32}{358}}
\@writefile{general}{\indexentry{Resetting Directory and File Ownership and Permissions on Win32 Systems}{358}}
\@writefile{toc}{\contentsline {section}{\numberline {39.17}Alternate Disaster Recovery Suggestion for Win32 Systems}{358}{section.39.17}}
\@writefile{general}{\indexentry{Systems!Alternate Disaster Recovery Suggestion for Win32}{358}}
\@writefile{general}{\indexentry{Alternate Disaster Recovery Suggestion for Win32 Systems}{358}}
\newlabel{running}{{39.17}{359}{Alternate Disaster Recovery Suggestion for Win32 Systems}{section.39.17}{}}
\@writefile{toc}{\contentsline {section}{\numberline {39.18}Restoring to a Running System}{359}{section.39.18}}
\@writefile{general}{\indexentry{System!Restoring to a Running}{359}}
\@writefile{general}{\indexentry{Restoring to a Running System}{359}}
\newlabel{Resources}{{39.18}{359}{Restoring to a Running System}{section.39.18}{}}
\@writefile{toc}{\contentsline {section}{\numberline {39.19}Additional Resources}{359}{section.39.19}}
\@writefile{general}{\indexentry{Additional Resources}{359}}
\@writefile{general}{\indexentry{Resources!Additional}{359}}
\@setckpt{rescue}{
\setcounter{page}{360}
\setcounter{equation}{0}
\setcounter{enumi}{19}
\setcounter{enumii}{0}
\setcounter{enumiii}{0}
\setcounter{enumiv}{0}
\setcounter{footnote}{0}
\setcounter{mpfootnote}{0}
\setcounter{part}{0}
\setcounter{chapter}{39}
\setcounter{section}{19}
\setcounter{subsection}{0}
\setcounter{subsubsection}{0}
\setcounter{paragraph}{0}
\setcounter{subparagraph}{0}
\setcounter{figure}{0}
\setcounter{table}{0}
\setcounter{Item}{160}
\setcounter{Hfootnote}{2}
\setcounter{bookmark@seq@number}{452}
\setcounter{lpart}{0}
\setcounter{lchapter}{1}
\setcounter{lsection}{0}
\setcounter{lsubsection}{0}
\setcounter{lsubsubsection}{0}
\setcounter{lparagraph}{0}
\setcounter{lsubparagraph}{0}
\setcounter{lsubsubparagraph}{0}
\setcounter{float@type}{4}
\setcounter{LT@tables}{9}
\setcounter{LT@chunks}{6}
\setcounter{vrcnt}{66}
\setcounter{AM@survey}{0}
\setcounter{section@level}{1}
}
