\relax 
\providecommand\hyper@newdestlabel[2]{}
\@writefile{toc}{\contentsline {chapter}{\numberline {25}The Restore Command}{255}{chapter.25}}
\@writefile{lof}{\addvspace {10\p@ }}
\@writefile{lot}{\addvspace {10\p@ }}
\newlabel{RestoreChapter}{{25}{255}{The Restore Command}{chapter.25}{}}
\@writefile{general}{\indexentry{Command!Console Restore}{255}}
\@writefile{general}{\indexentry{Console Restore Command}{255}}
\@writefile{toc}{\contentsline {section}{\numberline {25.1}General}{255}{section.25.1}}
\@writefile{general}{\indexentry{General }{255}}
\newlabel{56@xvr}{{}{255}{General}{section.25.1}{}}
\newlabel{56@vr}{{}{255}{General}{section.25.1}{}}
\newlabel{57@xvr}{{}{255}{General}{section.25.1}{}}
\newlabel{57@vr}{{}{255}{General}{section.25.1}{}}
\newlabel{Example1}{{25.1}{255}{General}{section.25.1}{}}
\@writefile{toc}{\contentsline {section}{\numberline {25.2}The Restore Command}{255}{section.25.2}}
\@writefile{general}{\indexentry{Command!Restore}{255}}
\@writefile{general}{\indexentry{Restore Command}{255}}
\@writefile{general}{\indexentry{Restore Directories}{257}}
\@writefile{toc}{\contentsline {subsection}{\numberline {25.2.1}Restore a pruned job using a pattern}{259}{subsection.25.2.1}}
\@writefile{toc}{\contentsline {section}{\numberline {25.3}Selecting Files by Filename}{260}{section.25.3}}
\@writefile{general}{\indexentry{Selecting Files by Filename }{260}}
\@writefile{general}{\indexentry{Filename!Selecting Files by }{260}}
\newlabel{Replace}{{25.3}{260}{Selecting Files by Filename}{section.25.3}{}}
\@writefile{toc}{\contentsline {section}{\numberline {25.4}Replace Options}{261}{section.25.4}}
\newlabel{CommandArguments}{{25.4}{261}{Replace Options}{section.25.4}{}}
\@writefile{toc}{\contentsline {section}{\numberline {25.5}Command Line Arguments}{261}{section.25.5}}
\@writefile{general}{\indexentry{Arguments!Command Line }{261}}
\@writefile{general}{\indexentry{Command Line Arguments }{261}}
\newlabel{restorefilerelocation}{{25.5}{261}{Command Line Arguments}{section.25.5}{}}
\gdef \LT@vii {\LT@entry 
    {1}{89.69482pt}\LT@entry 
    {5}{92.72406pt}\LT@entry 
    {5}{152.69945pt}\LT@entry 
    {5}{134.63666pt}}
\@writefile{toc}{\contentsline {section}{\numberline {25.6}Using File Relocation}{262}{section.25.6}}
\@writefile{general}{\indexentry{Using File Relocation}{262}}
\newlabel{filerelocation}{{25.6}{262}{Using File Relocation}{section.25.6}{}}
\@writefile{toc}{\contentsline {subsection}{\numberline {25.6.1}Introduction}{262}{subsection.25.6.1}}
\@writefile{toc}{\contentsline {subsection}{\numberline {25.6.2}RegexWhere Format}{262}{subsection.25.6.2}}
\@writefile{toc}{\contentsline {section}{\numberline {25.7}Restoring Directory Attributes}{263}{section.25.7}}
\@writefile{general}{\indexentry{Attributes!Restoring Directory }{263}}
\@writefile{general}{\indexentry{Restoring Directory Attributes }{263}}
\newlabel{Windows}{{25.7}{263}{Restoring Directory Attributes}{section.25.7}{}}
\@writefile{toc}{\contentsline {section}{\numberline {25.8}Restoring on Windows}{263}{section.25.8}}
\@writefile{general}{\indexentry{Restoring on Windows }{263}}
\@writefile{general}{\indexentry{Windows!Restoring on }{263}}
\@writefile{toc}{\contentsline {section}{\numberline {25.9}Restoring Files Can Be Slow}{263}{section.25.9}}
\@writefile{general}{\indexentry{Slow!Restoring Files Can Be }{263}}
\@writefile{general}{\indexentry{Restoring Files Can Be Slow }{263}}
\@writefile{toc}{\contentsline {section}{\numberline {25.10}Problems Restoring Files}{264}{section.25.10}}
\@writefile{general}{\indexentry{Files!Problems Restoring }{264}}
\@writefile{general}{\indexentry{Problems Restoring Files }{264}}
\@writefile{toc}{\contentsline {section}{\numberline {25.11}Restore Errors}{264}{section.25.11}}
\@writefile{general}{\indexentry{Errors!Restore}{264}}
\@writefile{general}{\indexentry{Restore Errors}{264}}
\@writefile{toc}{\contentsline {section}{\numberline {25.12}Example Restore Job Resource}{265}{section.25.12}}
\@writefile{general}{\indexentry{Example Restore Job Resource }{265}}
\@writefile{general}{\indexentry{Resource!Example Restore Job }{265}}
\newlabel{Selection}{{25.12}{265}{Example Restore Job Resource}{section.25.12}{}}
\@writefile{toc}{\contentsline {section}{\numberline {25.13}File Selection Commands}{265}{section.25.13}}
\@writefile{general}{\indexentry{Commands!File Selection }{265}}
\@writefile{general}{\indexentry{File Selection Commands }{265}}
\@writefile{dir}{\indexentry{dir }{265}}
\@writefile{dir}{\indexentry{estimate }{265}}
\@writefile{dir}{\indexentry{find}{265}}
\@writefile{fd}{\indexentry{lsmark}{265}}
\@writefile{dir}{\indexentry{mark}{265}}
\@writefile{dir}{\indexentry{unmark }{266}}
\@writefile{dir}{\indexentry{pwd }{266}}
\@writefile{dir}{\indexentry{count }{266}}
\@writefile{dir}{\indexentry{done }{266}}
\@writefile{fd}{\indexentry{exit }{266}}
\@writefile{fd}{\indexentry{quit }{266}}
\@writefile{fd}{\indexentry{help }{266}}
\newlabel{database_restore}{{25.13}{266}{File Selection Commands}{section.25.13}{}}
\@writefile{toc}{\contentsline {section}{\numberline {25.14}Restoring When Things Go Wrong}{266}{section.25.14}}
\@writefile{general}{\indexentry{Restoring When Things Go Wrong }{266}}
\@writefile{general}{\indexentry{Restoring Your Database}{266}}
\@writefile{general}{\indexentry{Database!Restoring}{266}}
\newlabel{58@xvr}{{}{266}{Restoring When Things Go Wrong}{section.25.14}{}}
\newlabel{58@vr}{{}{266}{Restoring When Things Go Wrong}{section.25.14}{}}
\newlabel{59@xvr}{{}{268}{Restoring When Things Go Wrong}{section.25.14}{}}
\newlabel{59@vr}{{}{268}{Restoring When Things Go Wrong}{section.25.14}{}}
\newlabel{60@xvr}{{}{268}{Restoring When Things Go Wrong}{section.25.14}{}}
\newlabel{60@vr}{{}{268}{Restoring When Things Go Wrong}{section.25.14}{}}
\newlabel{61@xvr}{{}{270}{Restoring When Things Go Wrong}{Item.86}{}}
\newlabel{61@vr}{{}{270}{Restoring When Things Go Wrong}{Item.86}{}}
\@setckpt{restore}{
\setcounter{page}{271}
\setcounter{equation}{0}
\setcounter{enumi}{3}
\setcounter{enumii}{0}
\setcounter{enumiii}{0}
\setcounter{enumiv}{0}
\setcounter{footnote}{1}
\setcounter{mpfootnote}{0}
\setcounter{part}{0}
\setcounter{chapter}{25}
\setcounter{section}{14}
\setcounter{subsection}{0}
\setcounter{subsubsection}{0}
\setcounter{paragraph}{0}
\setcounter{subparagraph}{0}
\setcounter{figure}{0}
\setcounter{table}{1}
\setcounter{Item}{86}
\setcounter{Hfootnote}{2}
\setcounter{bookmark@seq@number}{338}
\setcounter{lpart}{0}
\setcounter{lchapter}{1}
\setcounter{lsection}{0}
\setcounter{lsubsection}{0}
\setcounter{lsubsubsection}{0}
\setcounter{lparagraph}{0}
\setcounter{lsubparagraph}{0}
\setcounter{lsubsubparagraph}{0}
\setcounter{float@type}{4}
\setcounter{LT@tables}{7}
\setcounter{LT@chunks}{5}
\setcounter{vrcnt}{61}
\setcounter{AM@survey}{0}
\setcounter{section@level}{1}
}
