\relax 
\providecommand\hyper@newdestlabel[2]{}
\@writefile{toc}{\contentsline {chapter}{\numberline {21}Storage Daemon Configuration}{229}{chapter.21}}
\@writefile{lof}{\addvspace {10\p@ }}
\@writefile{lot}{\addvspace {10\p@ }}
\newlabel{StoredConfChapter}{{21}{229}{Storage Daemon Configuration}{chapter.21}{}}
\@writefile{general}{\indexentry{Storage Daemon Configuration}{229}}
\@writefile{general}{\indexentry{Configuration!Storage Daemon}{229}}
\@writefile{toc}{\contentsline {section}{\numberline {21.1}Storage Resource}{229}{section.21.1}}
\newlabel{StorageResource}{{21.1}{229}{Storage Resource}{section.21.1}{}}
\@writefile{general}{\indexentry{Resource!Storage}{229}}
\@writefile{general}{\indexentry{Storage Resource}{229}}
\@writefile{sd}{\indexentry{Name}{229}}
\@writefile{sd}{\indexentry{Directive!Name}{229}}
\@writefile{sd}{\indexentry{Working Directory}{229}}
\@writefile{sd}{\indexentry{Directive!Working Directory}{229}}
\@writefile{sd}{\indexentry{Pid Directory}{229}}
\@writefile{sd}{\indexentry{Directive!Pid Directory}{229}}
\@writefile{sd}{\indexentry{Heartbeat Interval}{229}}
\@writefile{sd}{\indexentry{Directive!Heartbeat Interval}{229}}
\@writefile{general}{\indexentry{Heartbeat Interval}{229}}
\@writefile{general}{\indexentry{Broken pipe}{229}}
\@writefile{sd}{\indexentry{Connect Wait}{230}}
\@writefile{sd}{\indexentry{Directive!Connect Wait}{230}}
\@writefile{general}{\indexentry{Client Connect Wait}{230}}
\@writefile{sd}{\indexentry{Maximum Concurrent Jobs}{230}}
\@writefile{sd}{\indexentry{Directive!Maximum Concurrent Jobs}{230}}
\@writefile{sd}{\indexentry{SDAddresses}{230}}
\@writefile{sd}{\indexentry{Directive!SDAddresses}{230}}
\@writefile{sd}{\indexentry{SDPort}{230}}
\@writefile{sd}{\indexentry{Directive!SDPort}{230}}
\@writefile{sd}{\indexentry{SDAddress}{230}}
\@writefile{sd}{\indexentry{Directive!SDAddress}{230}}
\@writefile{toc}{\contentsline {section}{\numberline {21.2}Director Resource}{231}{section.21.2}}
\newlabel{DirectorResource1}{{21.2}{231}{Director Resource}{section.21.2}{}}
\@writefile{general}{\indexentry{Director Resource}{231}}
\@writefile{general}{\indexentry{Resource!Director}{231}}
\@writefile{sd}{\indexentry{Name}{231}}
\@writefile{sd}{\indexentry{Directive!Name}{231}}
\@writefile{sd}{\indexentry{Password}{231}}
\@writefile{sd}{\indexentry{Directive!Password}{231}}
\@writefile{sd}{\indexentry{Monitor}{231}}
\@writefile{sd}{\indexentry{Directive!Monitor}{231}}
\newlabel{DeviceResource}{{21.2}{231}{Director Resource}{section.21.2}{}}
\@writefile{toc}{\contentsline {section}{\numberline {21.3}Device Resource}{231}{section.21.3}}
\@writefile{general}{\indexentry{Resource!Device}{231}}
\@writefile{general}{\indexentry{Device Resource}{231}}
\@writefile{sd}{\indexentry{Name}{231}}
\@writefile{sd}{\indexentry{Directive!Name}{231}}
\@writefile{sd}{\indexentry{Archive Device}{231}}
\@writefile{sd}{\indexentry{Directive!Archive Device}{231}}
\newlabel{SetupFifo}{{21.3}{231}{Device Resource}{section.21.3}{}}
\@writefile{sd}{\indexentry{Device Type}{232}}
\@writefile{sd}{\indexentry{Directive!Device Type}{232}}
\@writefile{sd}{\indexentry{Media Type}{232}}
\@writefile{sd}{\indexentry{Directive!Media Type}{232}}
\newlabel{Autochanger}{{21.3}{232}{Device Resource}{section.21.3}{}}
\@writefile{sd}{\indexentry{Autochanger}{232}}
\@writefile{sd}{\indexentry{Directive!Autochanger}{232}}
\@writefile{sd}{\indexentry{Changer Device}{233}}
\@writefile{sd}{\indexentry{Directive!Changer Device}{233}}
\@writefile{sd}{\indexentry{Changer Command}{233}}
\@writefile{sd}{\indexentry{Directive!Changer Command}{233}}
\@writefile{sd}{\indexentry{Alert Command}{233}}
\@writefile{sd}{\indexentry{Drive Index}{233}}
\@writefile{sd}{\indexentry{Directive!Drive Index}{233}}
\@writefile{sd}{\indexentry{Autoselect}{233}}
\@writefile{sd}{\indexentry{Directive!Autoselect}{233}}
\@writefile{sd}{\indexentry{MaximumConcurrentJobs}{234}}
\@writefile{sd}{\indexentry{Maximum Changer Wait}{234}}
\@writefile{sd}{\indexentry{Directive!Maximum Changer Wait}{234}}
\@writefile{sd}{\indexentry{Maximum Rewind Wait}{234}}
\@writefile{sd}{\indexentry{Directive!Maximum Rewind Wait}{234}}
\@writefile{sd}{\indexentry{Maximum Open Wait}{234}}
\@writefile{sd}{\indexentry{Directive!Maximum Open Wait}{234}}
\@writefile{sd}{\indexentry{Always Open}{234}}
\@writefile{sd}{\indexentry{Directive!Always Open}{234}}
\@writefile{sd}{\indexentry{Volume Poll Interval}{234}}
\@writefile{sd}{\indexentry{Directive!Volume Poll Interval}{234}}
\newlabel{50@xvr}{{}{234}{Device Resource}{section.21.3}{}}
\newlabel{50@vr}{{}{234}{Device Resource}{section.21.3}{}}
\newlabel{51@xvr}{{}{234}{Device Resource}{section.21.3}{}}
\newlabel{51@vr}{{}{234}{Device Resource}{section.21.3}{}}
\@writefile{sd}{\indexentry{Close on Poll}{234}}
\@writefile{sd}{\indexentry{Directive!Close on Poll}{234}}
\newlabel{removablemedia}{{21.3}{234}{Device Resource}{section.21.3}{}}
\@writefile{sd}{\indexentry{Removable media}{234}}
\@writefile{sd}{\indexentry{Directive!Removable media}{234}}
\@writefile{sd}{\indexentry{Random access}{235}}
\@writefile{sd}{\indexentry{Directive!Random access}{235}}
\@writefile{sd}{\indexentry{Requires Mount  }{235}}
\@writefile{sd}{\indexentry{Mount Point}{235}}
\@writefile{sd}{\indexentry{Mount Command}{235}}
\@writefile{sd}{\indexentry{Unmount Command}{235}}
\@writefile{sd}{\indexentry{Minimum block size}{235}}
\@writefile{sd}{\indexentry{Directive!Minimum block size}{235}}
\@writefile{sd}{\indexentry{Maximum Block Size}{236}}
\@writefile{sd}{\indexentry{Directive!Maximum block size}{236}}
\@writefile{sd}{\indexentry{Hardware End of Medium}{236}}
\@writefile{sd}{\indexentry{Directive!Hardware End of Medium}{236}}
\@writefile{sd}{\indexentry{Fast Forward Space File}{236}}
\@writefile{sd}{\indexentry{Directive!Fast Forward Space File}{236}}
\@writefile{sd}{\indexentry{Use MTIOCGET}{236}}
\@writefile{sd}{\indexentry{Directive!Use MTIOCGET}{236}}
\@writefile{sd}{\indexentry{BSF at EOM}{237}}
\@writefile{sd}{\indexentry{Directive!BSF at EOM}{237}}
\@writefile{sd}{\indexentry{TWO EOF}{237}}
\@writefile{sd}{\indexentry{Directive!TWO EOF}{237}}
\@writefile{sd}{\indexentry{Backward Space Record}{237}}
\@writefile{sd}{\indexentry{Directive!Backward Space Record}{237}}
\@writefile{sd}{\indexentry{Backward Space File}{237}}
\@writefile{sd}{\indexentry{Directive!Backward Space File}{237}}
\@writefile{sd}{\indexentry{Forward Space Record}{237}}
\@writefile{sd}{\indexentry{Directive!Forward Space Record}{237}}
\@writefile{sd}{\indexentry{Forward Space File}{237}}
\@writefile{sd}{\indexentry{Directive!Forward Space File}{237}}
\@writefile{sd}{\indexentry{Offline On Unmount}{237}}
\@writefile{sd}{\indexentry{Directive!Offline On Unmount}{237}}
\newlabel{52@xvr}{{}{237}{Device Resource}{section.21.3}{}}
\newlabel{52@vr}{{}{237}{Device Resource}{section.21.3}{}}
\newlabel{53@xvr}{{}{237}{Device Resource}{section.21.3}{}}
\newlabel{53@vr}{{}{237}{Device Resource}{section.21.3}{}}
\@writefile{sd}{\indexentry{Device Maximum Concurrent Jobs}{237}}
\@writefile{sd}{\indexentry{Directive!Device Maximum Concurrent Jobs}{237}}
\@writefile{sd}{\indexentry{Directive!New in 3.0.3}{237}}
\@writefile{sd}{\indexentry{Maximum Volume Size}{237}}
\@writefile{sd}{\indexentry{Directive!Maximum Volume Size}{237}}
\@writefile{sd}{\indexentry{Maximum File Size}{237}}
\@writefile{sd}{\indexentry{Directive!Maximum File Size}{237}}
\@writefile{sd}{\indexentry{Block Positioning}{238}}
\@writefile{sd}{\indexentry{Directive!Block Positioning}{238}}
\@writefile{sd}{\indexentry{Maximum Network Buffer Size}{238}}
\@writefile{sd}{\indexentry{Directive!Maximum Network Buffer Size}{238}}
\@writefile{sd}{\indexentry{Maximum Spool Size}{238}}
\@writefile{sd}{\indexentry{Directive!Maximum Spool Size}{238}}
\@writefile{sd}{\indexentry{Maximum Job Spool Size}{238}}
\@writefile{sd}{\indexentry{Directive!Maximum Job Spool Size}{238}}
\@writefile{sd}{\indexentry{Spool Directory}{238}}
\@writefile{sd}{\indexentry{Directive!Spool Directory}{238}}
\newlabel{mountcodes}{{21.3}{238}{Device Resource}{section.21.3}{}}
\@writefile{toc}{\contentsline {section}{\numberline {21.4}Edit Codes for Mount and Unmount Directives}{238}{section.21.4}}
\@writefile{general}{\indexentry{Directives!Edit Codes}{238}}
\@writefile{general}{\indexentry{Edit Codes for Mount and Unmount Directives }{238}}
\@writefile{toc}{\contentsline {section}{\numberline {21.5}Devices that require a mount (USB)}{238}{section.21.5}}
\@writefile{general}{\indexentry{Devices that require a mount (USB)}{238}}
\@writefile{sd}{\indexentry{Requires Mount}{239}}
\@writefile{sd}{\indexentry{Directive!Requires Mount}{239}}
\@writefile{sd}{\indexentry{Mount Point}{239}}
\@writefile{sd}{\indexentry{Directive!Mount Point}{239}}
\@writefile{sd}{\indexentry{Mount Command}{239}}
\@writefile{sd}{\indexentry{Directive!Mount Command}{239}}
\@writefile{sd}{\indexentry{Unmount Command}{239}}
\@writefile{sd}{\indexentry{Directive!Unmount Command}{239}}
\@writefile{toc}{\contentsline {section}{\numberline {21.6}Capabilities}{239}{section.21.6}}
\@writefile{general}{\indexentry{Capabilities}{239}}
\@writefile{general}{\indexentry{Label Media}{239}}
\@writefile{sd}{\indexentry{Label Media}{239}}
\@writefile{sd}{\indexentry{Directive!Label Media}{239}}
\@writefile{sd}{\indexentry{Automatic mount}{239}}
\@writefile{sd}{\indexentry{Directive!Automatic mount}{239}}
\@writefile{toc}{\contentsline {section}{\numberline {21.7}Messages Resource}{239}{section.21.7}}
\newlabel{MessagesResource1}{{21.7}{239}{Messages Resource}{section.21.7}{}}
\@writefile{general}{\indexentry{Resource!Messages}{239}}
\@writefile{general}{\indexentry{Messages Resource}{239}}
\@writefile{toc}{\contentsline {section}{\numberline {21.8}Sample Storage Daemon Configuration File}{240}{section.21.8}}
\newlabel{SampleConfiguration}{{21.8}{240}{Sample Storage Daemon Configuration File}{section.21.8}{}}
\@writefile{general}{\indexentry{File!Sample Storage Daemon Configuration}{240}}
\@writefile{general}{\indexentry{Sample Storage Daemon Configuration File}{240}}
\@setckpt{storedconf}{
\setcounter{page}{242}
\setcounter{equation}{0}
\setcounter{enumi}{8}
\setcounter{enumii}{0}
\setcounter{enumiii}{0}
\setcounter{enumiv}{0}
\setcounter{footnote}{0}
\setcounter{mpfootnote}{0}
\setcounter{part}{0}
\setcounter{chapter}{21}
\setcounter{section}{8}
\setcounter{subsection}{0}
\setcounter{subsubsection}{0}
\setcounter{paragraph}{0}
\setcounter{subparagraph}{0}
\setcounter{figure}{0}
\setcounter{table}{0}
\setcounter{Item}{79}
\setcounter{Hfootnote}{1}
\setcounter{bookmark@seq@number}{302}
\setcounter{lpart}{0}
\setcounter{lchapter}{1}
\setcounter{lsection}{0}
\setcounter{lsubsection}{0}
\setcounter{lsubsubsection}{0}
\setcounter{lparagraph}{0}
\setcounter{lsubparagraph}{0}
\setcounter{lsubsubparagraph}{0}
\setcounter{float@type}{4}
\setcounter{LT@tables}{6}
\setcounter{LT@chunks}{5}
\setcounter{vrcnt}{53}
\setcounter{AM@survey}{0}
\setcounter{section@level}{1}
}
