\relax 
\providecommand\hyper@newdestlabel[2]{}
\@writefile{toc}{\contentsline {chapter}{\numberline {13}Supported Tape Drives}{115}{chapter.13}}
\@writefile{lof}{\addvspace {10\p@ }}
\@writefile{lot}{\addvspace {10\p@ }}
\newlabel{SupportedDrives}{{13}{115}{Supported Tape Drives}{chapter.13}{}}
\@writefile{general}{\indexentry{Drives!Supported Tape }{115}}
\@writefile{general}{\indexentry{Supported Tape Drives }{115}}
\newlabel{17@xvr}{{}{115}{Supported Tape Drives}{chapter.13}{}}
\newlabel{17@vr}{{}{115}{Supported Tape Drives}{chapter.13}{}}
\@writefile{lot}{\contentsline {table}{Supported Tape Drives}{115}{chapter.13}}
\gdef \LT@i {\LT@entry 
    {5}{69.70549pt}\LT@entry 
    {5}{56.87233pt}\LT@entry 
    {5}{57.12231pt}\LT@entry 
    {5}{223.72417pt}\LT@entry 
    {5}{62.33069pt}}
\@writefile{toc}{\contentsline {section}{\numberline {13.1}Unsupported Tape Drives}{116}{section.13.1}}
\newlabel{UnSupportedDrives}{{13.1}{116}{Unsupported Tape Drives}{section.13.1}{}}
\@writefile{general}{\indexentry{Unsupported Tape Drives }{116}}
\@writefile{general}{\indexentry{Drives!Unsupported Tape }{116}}
\@writefile{toc}{\contentsline {section}{\numberline {13.2}FreeBSD Users Be Aware!!!}{116}{section.13.2}}
\@writefile{general}{\indexentry{FreeBSD Users Be Aware }{116}}
\@writefile{general}{\indexentry{Aware!FreeBSD Users Be }{116}}
\newlabel{18@xvr}{{}{116}{FreeBSD Users Be Aware!!!}{section.13.2}{}}
\newlabel{18@vr}{{}{116}{FreeBSD Users Be Aware!!!}{section.13.2}{}}
\@writefile{toc}{\contentsline {section}{\numberline {13.3}Supported Autochangers}{116}{section.13.3}}
\@writefile{general}{\indexentry{Autochangers!Supported }{116}}
\@writefile{general}{\indexentry{Supported Autochangers }{116}}
\@writefile{toc}{\contentsline {section}{\numberline {13.4}Tape Specifications}{116}{section.13.4}}
\@writefile{general}{\indexentry{Specifications!Tape}{116}}
\@writefile{general}{\indexentry{Tape Specifications}{116}}
\gdef \LT@ii {\LT@entry 
    {5}{225.86032pt}\LT@entry 
    {1}{69.73305pt}\LT@entry 
    {1}{92.15646pt}\LT@entry 
    {1}{82.00516pt}}
\@setckpt{supporteddrives}{
\setcounter{page}{118}
\setcounter{equation}{0}
\setcounter{enumi}{4}
\setcounter{enumii}{0}
\setcounter{enumiii}{0}
\setcounter{enumiv}{0}
\setcounter{footnote}{0}
\setcounter{mpfootnote}{0}
\setcounter{part}{0}
\setcounter{chapter}{13}
\setcounter{section}{4}
\setcounter{subsection}{0}
\setcounter{subsubsection}{0}
\setcounter{paragraph}{0}
\setcounter{subparagraph}{0}
\setcounter{figure}{0}
\setcounter{table}{2}
\setcounter{Item}{23}
\setcounter{Hfootnote}{1}
\setcounter{bookmark@seq@number}{195}
\setcounter{lpart}{0}
\setcounter{lchapter}{1}
\setcounter{lsection}{0}
\setcounter{lsubsection}{0}
\setcounter{lsubsubsection}{0}
\setcounter{lparagraph}{0}
\setcounter{lsubparagraph}{0}
\setcounter{lsubsubparagraph}{0}
\setcounter{float@type}{4}
\setcounter{LT@tables}{2}
\setcounter{LT@chunks}{5}
\setcounter{vrcnt}{18}
\setcounter{AM@survey}{0}
\setcounter{section@level}{1}
}
