\relax 
\providecommand\hyper@newdestlabel[2]{}
\@writefile{toc}{\contentsline {chapter}{\numberline {34}Supported Autochangers}{329}{chapter.34}}
\@writefile{lof}{\addvspace {10\p@ }}
\@writefile{lot}{\addvspace {10\p@ }}
\newlabel{Models}{{34}{329}{Supported Autochangers}{chapter.34}{}}
\@writefile{general}{\indexentry{Supported Autochanger Models}{329}}
\@writefile{general}{\indexentry{Autochangers!Supported}{329}}
\@writefile{lot}{\contentsline {table}{Autochangers Known to Work with Bacula}{329}{chapter.34}}
\gdef \LT@viii {\LT@entry 
    {5}{69.70549pt}\LT@entry 
    {5}{69.3055pt}\LT@entry 
    {5}{69.3055pt}\LT@entry 
    {5}{92.17723pt}\LT@entry 
    {5}{99.95578pt}\LT@entry 
    {5}{69.3055pt}}
\@setckpt{supportedchangers}{
\setcounter{page}{331}
\setcounter{equation}{0}
\setcounter{enumi}{3}
\setcounter{enumii}{0}
\setcounter{enumiii}{0}
\setcounter{enumiv}{0}
\setcounter{footnote}{0}
\setcounter{mpfootnote}{0}
\setcounter{part}{0}
\setcounter{chapter}{34}
\setcounter{section}{0}
\setcounter{subsection}{0}
\setcounter{subsubsection}{0}
\setcounter{paragraph}{0}
\setcounter{subparagraph}{0}
\setcounter{figure}{0}
\setcounter{table}{1}
\setcounter{Item}{102}
\setcounter{Hfootnote}{2}
\setcounter{bookmark@seq@number}{404}
\setcounter{lpart}{0}
\setcounter{lchapter}{1}
\setcounter{lsection}{0}
\setcounter{lsubsection}{0}
\setcounter{lsubsubsection}{0}
\setcounter{lparagraph}{0}
\setcounter{lsubparagraph}{0}
\setcounter{lsubsubparagraph}{0}
\setcounter{float@type}{4}
\setcounter{LT@tables}{8}
\setcounter{LT@chunks}{6}
\setcounter{vrcnt}{66}
\setcounter{AM@survey}{0}
\setcounter{section@level}{1}
}
