\relax 
\providecommand\hyper@newdestlabel[2]{}
\@writefile{toc}{\contentsline {chapter}{\numberline {40}Bacula TLS -- Communications Encryption}{361}{chapter.40}}
\@writefile{lof}{\addvspace {10\p@ }}
\@writefile{lot}{\addvspace {10\p@ }}
\newlabel{CommEncryption}{{40}{361}{Bacula TLS -- Communications Encryption}{chapter.40}{}}
\@writefile{general}{\indexentry{TLS -- Communications Encryption}{361}}
\@writefile{general}{\indexentry{Communications Encryption}{361}}
\@writefile{general}{\indexentry{Encryption!Communications}{361}}
\@writefile{general}{\indexentry{Encryption!Transport}{361}}
\@writefile{general}{\indexentry{Transport Encryption}{361}}
\@writefile{general}{\indexentry{TLS}{361}}
\@writefile{toc}{\contentsline {section}{\numberline {40.1}TLS Configuration Directives}{361}{section.40.1}}
\@writefile{toc}{\contentsline {section}{\numberline {40.2}Creating a Self-signed Certificate}{362}{section.40.2}}
\@writefile{general}{\indexentry{Creating a Self-signed Certificate }{362}}
\@writefile{general}{\indexentry{Certificate!Creating a Self-signed }{362}}
\@writefile{toc}{\contentsline {section}{\numberline {40.3}Getting a CA Signed Certificate}{362}{section.40.3}}
\@writefile{general}{\indexentry{Certificate!Getting a CA Signed }{362}}
\@writefile{general}{\indexentry{Getting a CA Signed Certificate }{362}}
\@writefile{toc}{\contentsline {section}{\numberline {40.4}Example TLS Configuration Files}{363}{section.40.4}}
\@writefile{general}{\indexentry{Example!TLS Configuration Files}{363}}
\@writefile{general}{\indexentry{TLS Configuration Files}{363}}
\@setckpt{tls}{
\setcounter{page}{365}
\setcounter{equation}{0}
\setcounter{enumi}{19}
\setcounter{enumii}{0}
\setcounter{enumiii}{0}
\setcounter{enumiv}{0}
\setcounter{footnote}{0}
\setcounter{mpfootnote}{0}
\setcounter{part}{0}
\setcounter{chapter}{40}
\setcounter{section}{4}
\setcounter{subsection}{0}
\setcounter{subsubsection}{0}
\setcounter{paragraph}{0}
\setcounter{subparagraph}{0}
\setcounter{figure}{0}
\setcounter{table}{0}
\setcounter{Item}{160}
\setcounter{Hfootnote}{2}
\setcounter{bookmark@seq@number}{457}
\setcounter{lpart}{0}
\setcounter{lchapter}{1}
\setcounter{lsection}{0}
\setcounter{lsubsection}{0}
\setcounter{lsubsubsection}{0}
\setcounter{lparagraph}{0}
\setcounter{lsubparagraph}{0}
\setcounter{lsubsubparagraph}{0}
\setcounter{float@type}{4}
\setcounter{LT@tables}{9}
\setcounter{LT@chunks}{6}
\setcounter{vrcnt}{66}
\setcounter{AM@survey}{0}
\setcounter{section@level}{1}
}
