\relax 
\providecommand\hyper@newdestlabel[2]{}
\@writefile{toc}{\contentsline {chapter}{\numberline {17}A Brief Tutorial}{145}{chapter.17}}
\@writefile{lof}{\addvspace {10\p@ }}
\@writefile{lot}{\addvspace {10\p@ }}
\newlabel{TutorialChapter}{{17}{145}{A Brief Tutorial}{chapter.17}{}}
\@writefile{general}{\indexentry{Brief Tutorial }{145}}
\@writefile{general}{\indexentry{Tutorial!Brief }{145}}
\@writefile{toc}{\contentsline {section}{\numberline {17.1}Before Running Bacula}{145}{section.17.1}}
\@writefile{general}{\indexentry{Bacula!Before Running }{145}}
\@writefile{general}{\indexentry{Before Running Bacula }{145}}
\newlabel{25@xvr}{{}{145}{Before Running Bacula}{section.17.1}{}}
\newlabel{25@vr}{{}{145}{Before Running Bacula}{section.17.1}{}}
\@writefile{toc}{\contentsline {section}{\numberline {17.2}Starting the Database}{145}{section.17.2}}
\newlabel{StartDB}{{17.2}{145}{Starting the Database}{section.17.2}{}}
\@writefile{general}{\indexentry{Starting the Database }{145}}
\@writefile{general}{\indexentry{Database!Starting the }{145}}
\@writefile{toc}{\contentsline {section}{\numberline {17.3}Starting the Daemons}{146}{section.17.3}}
\newlabel{StartDaemon}{{17.3}{146}{Starting the Daemons}{section.17.3}{}}
\@writefile{general}{\indexentry{Starting the Daemons }{146}}
\@writefile{general}{\indexentry{Daemons!Starting the }{146}}
\@writefile{toc}{\contentsline {section}{\numberline {17.4}Using the Director to Query and Start Jobs}{146}{section.17.4}}
\@writefile{general}{\indexentry{Jobs!Querying or Starting Jobs}{146}}
\@writefile{general}{\indexentry{Querying or starting Jobs}{146}}
\newlabel{26@xvr}{{}{147}{Using the Director to Query and Start Jobs}{section.17.4}{}}
\newlabel{26@vr}{{}{147}{Using the Director to Query and Start Jobs}{section.17.4}{}}
\@writefile{toc}{\contentsline {section}{\numberline {17.5}Running a Job}{147}{section.17.5}}
\newlabel{Running}{{17.5}{147}{Running a Job}{section.17.5}{}}
\@writefile{general}{\indexentry{Job!Running a }{147}}
\@writefile{general}{\indexentry{Running a Job }{147}}
\newlabel{restoring}{{17.5}{150}{Running a Job}{section.17.5}{}}
\@writefile{toc}{\contentsline {section}{\numberline {17.6}Restoring Your Files}{151}{section.17.6}}
\@writefile{general}{\indexentry{Files!Restoring Your }{151}}
\@writefile{general}{\indexentry{Restoring Your Files }{151}}
\@writefile{toc}{\contentsline {section}{\numberline {17.7}Quitting the Console Program}{152}{section.17.7}}
\@writefile{general}{\indexentry{Program!Quitting the Console }{152}}
\@writefile{general}{\indexentry{Quitting the Console Program }{152}}
\newlabel{SecondClient}{{17.7}{152}{Quitting the Console Program}{section.17.7}{}}
\@writefile{toc}{\contentsline {section}{\numberline {17.8}Adding a Second Client}{152}{section.17.8}}
\@writefile{general}{\indexentry{Client!Adding a Second }{152}}
\@writefile{general}{\indexentry{Adding a Second Client }{152}}
\newlabel{27@xvr}{{}{154}{Adding a Second Client}{section.17.8}{}}
\newlabel{27@vr}{{}{154}{Adding a Second Client}{section.17.8}{}}
\@writefile{toc}{\contentsline {section}{\numberline {17.9}When The Tape Fills}{154}{section.17.9}}
\newlabel{FullTape}{{17.9}{154}{When The Tape Fills}{section.17.9}{}}
\@writefile{general}{\indexentry{Fills!When The Tape }{154}}
\@writefile{general}{\indexentry{When The Tape Fills }{154}}
\@writefile{toc}{\contentsline {section}{\numberline {17.10}Other Useful Console Commands}{155}{section.17.10}}
\@writefile{general}{\indexentry{Commands!Other Useful Console }{155}}
\@writefile{general}{\indexentry{Other Useful Console Commands }{155}}
\@writefile{console}{\indexentry{status dir }{155}}
\@writefile{console}{\indexentry{status }{155}}
\@writefile{console}{\indexentry{status jobid }{155}}
\@writefile{console}{\indexentry{list pools }{155}}
\@writefile{console}{\indexentry{list media }{155}}
\@writefile{console}{\indexentry{list jobs }{155}}
\@writefile{console}{\indexentry{list jobid }{155}}
\@writefile{console}{\indexentry{list jobtotals }{155}}
\@writefile{console}{\indexentry{list files jobid }{155}}
\@writefile{console}{\indexentry{list jobmedia }{155}}
\@writefile{console}{\indexentry{messages }{155}}
\@writefile{console}{\indexentry{unmount storage }{155}}
\@writefile{sd}{\indexentry{mount storage }{155}}
\@writefile{sd}{\indexentry{quit }{155}}
\@writefile{toc}{\contentsline {section}{\numberline {17.11}Debug Daemon Output}{155}{section.17.11}}
\@writefile{general}{\indexentry{Debug Daemon Output }{155}}
\@writefile{general}{\indexentry{Output!Debug Daemon }{155}}
\@writefile{toc}{\contentsline {section}{\numberline {17.12}Patience When Starting Daemons or Mounting Blank Tapes}{156}{section.17.12}}
\@writefile{toc}{\contentsline {section}{\numberline {17.13}Difficulties Connecting from the FD to the SD}{156}{section.17.13}}
\@writefile{general}{\indexentry{Difficulties Connecting from the FD to the SD}{156}}
\@writefile{general}{\indexentry{SD!Difficulties Connecting from the FD to the SD}{156}}
\@writefile{toc}{\contentsline {section}{\numberline {17.14}Daemon Command Line Options}{156}{section.17.14}}
\@writefile{general}{\indexentry{Daemon Command Line Options }{156}}
\@writefile{general}{\indexentry{Options!Daemon Command Line }{156}}
\@writefile{sd}{\indexentry{-c \lt{}file\gt{} }{156}}
\@writefile{sd}{\indexentry{-d nn }{156}}
\@writefile{toc}{\contentsline {section}{\numberline {17.15}Creating a Pool}{157}{section.17.15}}
\newlabel{Pool}{{17.15}{157}{Creating a Pool}{section.17.15}{}}
\@writefile{general}{\indexentry{Pool!Creating a }{157}}
\@writefile{general}{\indexentry{Creating a Pool }{157}}
\newlabel{Labeling}{{17.15}{157}{Creating a Pool}{section.17.15}{}}
\@writefile{toc}{\contentsline {section}{\numberline {17.16}Labeling Your Volumes}{157}{section.17.16}}
\@writefile{general}{\indexentry{Volumes!Labeling Your }{157}}
\@writefile{general}{\indexentry{Labeling Your Volumes }{157}}
\@writefile{toc}{\contentsline {section}{\numberline {17.17}Labeling Volumes with the Console Program}{157}{section.17.17}}
\@writefile{general}{\indexentry{Labeling Volumes with the Console Program }{157}}
\@writefile{general}{\indexentry{Program!Labeling Volumes with the Console }{157}}
\newlabel{28@xvr}{{}{158}{Labeling Volumes with the Console Program}{Item.53}{}}
\newlabel{28@vr}{{}{158}{Labeling Volumes with the Console Program}{Item.53}{}}
\@setckpt{tutorial}{
\setcounter{page}{159}
\setcounter{equation}{0}
\setcounter{enumi}{2}
\setcounter{enumii}{0}
\setcounter{enumiii}{0}
\setcounter{enumiv}{0}
\setcounter{footnote}{0}
\setcounter{mpfootnote}{0}
\setcounter{part}{0}
\setcounter{chapter}{17}
\setcounter{section}{17}
\setcounter{subsection}{0}
\setcounter{subsubsection}{0}
\setcounter{paragraph}{0}
\setcounter{subparagraph}{0}
\setcounter{figure}{0}
\setcounter{table}{0}
\setcounter{Item}{53}
\setcounter{Hfootnote}{1}
\setcounter{bookmark@seq@number}{255}
\setcounter{lpart}{0}
\setcounter{lchapter}{1}
\setcounter{lsection}{0}
\setcounter{lsubsection}{0}
\setcounter{lsubsubsection}{0}
\setcounter{lparagraph}{0}
\setcounter{lsubparagraph}{0}
\setcounter{lsubsubparagraph}{0}
\setcounter{float@type}{4}
\setcounter{LT@tables}{3}
\setcounter{LT@chunks}{1}
\setcounter{vrcnt}{28}
\setcounter{AM@survey}{0}
\setcounter{section@level}{1}
}
