\relax 
\providecommand\hyper@newdestlabel[2]{}
\@writefile{toc}{\contentsline {chapter}{\numberline {42}Using Bacula to Improve Computer Security}{369}{chapter.42}}
\@writefile{lof}{\addvspace {10\p@ }}
\@writefile{lot}{\addvspace {10\p@ }}
\newlabel{VerifyChapter}{{42}{369}{Using Bacula to Improve Computer Security}{chapter.42}{}}
\@writefile{general}{\indexentry{Security!Using Bacula to Improve Computer }{369}}
\@writefile{general}{\indexentry{Using Bacula to Improve Computer Security }{369}}
\@writefile{toc}{\contentsline {section}{\numberline {42.1}The Details}{369}{section.42.1}}
\@writefile{general}{\indexentry{Details }{369}}
\@writefile{toc}{\contentsline {section}{\numberline {42.2}Running the Verify}{370}{section.42.2}}
\@writefile{general}{\indexentry{Running the Verify }{370}}
\@writefile{general}{\indexentry{Verify!Running the }{370}}
\@writefile{toc}{\contentsline {section}{\numberline {42.3}What To Do When Differences Are Found}{371}{section.42.3}}
\@writefile{general}{\indexentry{What To Do When Differences Are Found }{371}}
\@writefile{general}{\indexentry{Found!What To Do When Differences Are }{371}}
\@writefile{toc}{\contentsline {section}{\numberline {42.4}A Verify Configuration Example}{372}{section.42.4}}
\@writefile{general}{\indexentry{Verify Configuration Example }{372}}
\@writefile{general}{\indexentry{Example!Verify Configuration }{372}}
\@setckpt{verify}{
\setcounter{page}{374}
\setcounter{equation}{0}
\setcounter{enumi}{3}
\setcounter{enumii}{0}
\setcounter{enumiii}{0}
\setcounter{enumiv}{0}
\setcounter{footnote}{0}
\setcounter{mpfootnote}{0}
\setcounter{part}{0}
\setcounter{chapter}{42}
\setcounter{section}{4}
\setcounter{subsection}{0}
\setcounter{subsubsection}{0}
\setcounter{paragraph}{0}
\setcounter{subparagraph}{0}
\setcounter{figure}{0}
\setcounter{table}{0}
\setcounter{Item}{163}
\setcounter{Hfootnote}{2}
\setcounter{bookmark@seq@number}{468}
\setcounter{lpart}{0}
\setcounter{lchapter}{1}
\setcounter{lsection}{0}
\setcounter{lsubsection}{0}
\setcounter{lsubsubsection}{0}
\setcounter{lparagraph}{0}
\setcounter{lsubparagraph}{0}
\setcounter{lsubsubparagraph}{0}
\setcounter{float@type}{4}
\setcounter{LT@tables}{9}
\setcounter{LT@chunks}{6}
\setcounter{vrcnt}{66}
\setcounter{AM@survey}{0}
\setcounter{section@level}{1}
}
