\relax 
\providecommand\hyper@newdestlabel[2]{}
\@writefile{toc}{\contentsline {chapter}{\numberline {38}The Windows Version of Bacula}{337}{chapter.38}}
\@writefile{lof}{\addvspace {10\p@ }}
\@writefile{lot}{\addvspace {10\p@ }}
\newlabel{Win32Chapter}{{38}{337}{The Windows Version of Bacula}{chapter.38}{}}
\@writefile{general}{\indexentry{Windows Version of Bacula}{337}}
\@writefile{toc}{\contentsline {section}{\numberline {38.1}Windows Installation}{337}{section.38.1}}
\newlabel{installation}{{38.1}{337}{Windows Installation}{section.38.1}{}}
\@writefile{general}{\indexentry{Installation}{337}}
\@writefile{general}{\indexentry{Windows!Installation}{337}}
\@writefile{lof}{\contentsline {figure}{Windows Client Setup Wizard}{337}{section.38.1}}
\@writefile{lof}{\contentsline {figure}{Windows Installation Type}{338}{section.38.1}}
\@writefile{lof}{\contentsline {figure}{Windows Component Selection Dialog}{338}{section.38.1}}
\@writefile{general}{\indexentry{Upgrading}{339}}
\@writefile{lof}{\contentsline {figure}{Windows Configure}{339}{section.38.1}}
\@writefile{lof}{\contentsline {figure}{Windows Install Progress}{339}{section.38.1}}
\@writefile{lof}{\contentsline {figure}{Windows Client Setup Completed}{340}{section.38.1}}
\@writefile{toc}{\contentsline {section}{\numberline {38.2}Post Windows Installation}{341}{section.38.2}}
\@writefile{general}{\indexentry{Post Windows Installation}{341}}
\@writefile{general}{\indexentry{Windows!Post Installation}{341}}
\@writefile{toc}{\contentsline {section}{\numberline {38.3}Uninstalling Bacula on Windows}{341}{section.38.3}}
\@writefile{general}{\indexentry{Windows!Uninstalling Bacula}{341}}
\@writefile{general}{\indexentry{Uninstalling Bacula on Windows}{341}}
\@writefile{toc}{\contentsline {section}{\numberline {38.4}Dealing with Windows Problems}{341}{section.38.4}}
\newlabel{problems}{{38.4}{341}{Dealing with Windows Problems}{section.38.4}{}}
\@writefile{general}{\indexentry{Windows!Dealing with Problems}{341}}
\@writefile{general}{\indexentry{Dealing with Windows Problems}{341}}
\newlabel{Compatibility}{{38.4}{342}{Dealing with Windows Problems}{section.38.4}{}}
\@writefile{toc}{\contentsline {section}{\numberline {38.5}Windows Compatibility Considerations}{343}{section.38.5}}
\@writefile{general}{\indexentry{Windows Compatibility Considerations}{343}}
\@writefile{general}{\indexentry{Considerations!Windows Compatibility}{343}}
\gdef \LT@ix {\LT@entry 
    {1}{69.0705pt}\LT@entry 
    {1}{69.92192pt}\LT@entry 
    {5}{330.76257pt}}
\@writefile{lot}{\contentsline {table}{\numberline {38.1}{WinNT/2K/XP Restore Portability Status}}{344}{table.38.1}}
\newlabel{VSS}{{38.5}{344}{Windows Compatibility Considerations}{table.38.1}{}}
\@writefile{toc}{\contentsline {section}{\numberline {38.6}Volume Shadow Copy Service}{344}{section.38.6}}
\@writefile{general}{\indexentry{Volume Shadow Copy Service}{344}}
\@writefile{general}{\indexentry{VSS}{344}}
\@writefile{dir}{\indexentry{Enable VSS}{344}}
\@writefile{general}{\indexentry{Enable VSS}{344}}
\@writefile{toc}{\contentsline {section}{\numberline {38.7}VSS Problems}{345}{section.38.7}}
\@writefile{general}{\indexentry{Problems!VSS}{345}}
\@writefile{fd}{\indexentry{ }{345}}
\@writefile{general}{\indexentry{VSS Problems}{345}}
\@writefile{fd}{\indexentry{VSS Problems}{345}}
\@writefile{toc}{\contentsline {section}{\numberline {38.8}Windows Firewalls}{345}{section.38.8}}
\@writefile{general}{\indexentry{Firewalls!Windows}{345}}
\@writefile{general}{\indexentry{Windows Firewalls}{345}}
\@writefile{toc}{\contentsline {section}{\numberline {38.9}Windows Port Usage}{345}{section.38.9}}
\@writefile{general}{\indexentry{Windows Port Usage}{345}}
\@writefile{general}{\indexentry{Usage!Windows Port}{345}}
\@writefile{toc}{\contentsline {section}{\numberline {38.10}Windows Disaster Recovery}{345}{section.38.10}}
\@writefile{general}{\indexentry{Recovery!Windows Disaster}{345}}
\@writefile{general}{\indexentry{Windows Disaster Recovery}{345}}
\@writefile{toc}{\contentsline {section}{\numberline {38.11}Windows Restore Problems}{346}{section.38.11}}
\@writefile{general}{\indexentry{Problems!Windows Restore}{346}}
\@writefile{general}{\indexentry{Windows Restore Problems}{346}}
\@writefile{general}{\indexentry{Problems!Windows Backup}{346}}
\@writefile{general}{\indexentry{Windows Backup Problems}{346}}
\@writefile{toc}{\contentsline {section}{\numberline {38.12}Windows Ownership and Permissions Problems}{346}{section.38.12}}
\@writefile{general}{\indexentry{Problems!Windows Ownership and Permissions}{346}}
\@writefile{general}{\indexentry{Windows Ownership and Permissions Problems}{346}}
\@writefile{toc}{\contentsline {section}{\numberline {38.13}Manually resetting the Permissions}{346}{section.38.13}}
\@writefile{general}{\indexentry{Manually resetting the Permissions}{346}}
\@writefile{general}{\indexentry{Permissions!Manually resetting the}{346}}
\@writefile{toc}{\contentsline {section}{\numberline {38.14}Backing Up the Windows System State}{348}{section.38.14}}
\@writefile{general}{\indexentry{State!Backing Up the WinNT/XP/2K System}{348}}
\@writefile{general}{\indexentry{Backing Up the WinNT/XP/2K System State}{348}}
\@writefile{toc}{\contentsline {section}{\numberline {38.15}Fixing the Windows Boot Record}{349}{section.38.15}}
\@writefile{general}{\indexentry{Fixing the Windows Boot Record}{349}}
\@writefile{general}{\indexentry{Windows!Fixing the Boot Record}{349}}
\@writefile{toc}{\contentsline {section}{\numberline {38.16}Considerations for Filename Specifications}{349}{section.38.16}}
\@writefile{general}{\indexentry{Windows!Considerations for Filename Specifications}{349}}
\@writefile{general}{\indexentry{Unicode}{349}}
\@writefile{general}{\indexentry{Windows Path Length Restriction}{349}}
\@writefile{toc}{\contentsline {section}{\numberline {38.17}Windows Specific File daemon Command Line}{349}{section.38.17}}
\@writefile{general}{\indexentry{Client!Windows Specific File daemon Command Line Options}{349}}
\@writefile{general}{\indexentry{Windows Specific File daemon Command Line Options}{349}}
\@writefile{fd}{\indexentry{/service}{349}}
\@writefile{fd}{\indexentry{/run}{350}}
\@writefile{fd}{\indexentry{/install}{350}}
\@writefile{fd}{\indexentry{/remove}{350}}
\@writefile{fd}{\indexentry{/about}{350}}
\@writefile{fd}{\indexentry{/status}{350}}
\@writefile{fd}{\indexentry{/events}{350}}
\@writefile{fd}{\indexentry{/kill}{350}}
\@writefile{fd}{\indexentry{/help}{350}}
\@writefile{toc}{\contentsline {section}{\numberline {38.18}Shutting down Windows Systems}{350}{section.38.18}}
\@writefile{general}{\indexentry{Shutting down Windows Systems}{350}}
\@writefile{general}{\indexentry{Systems!Shutting down Windows}{350}}
\@setckpt{win32}{
\setcounter{page}{351}
\setcounter{equation}{0}
\setcounter{enumi}{10}
\setcounter{enumii}{0}
\setcounter{enumiii}{0}
\setcounter{enumiv}{0}
\setcounter{footnote}{0}
\setcounter{mpfootnote}{0}
\setcounter{part}{0}
\setcounter{chapter}{38}
\setcounter{section}{18}
\setcounter{subsection}{0}
\setcounter{subsubsection}{0}
\setcounter{paragraph}{0}
\setcounter{subparagraph}{0}
\setcounter{figure}{0}
\setcounter{table}{1}
\setcounter{Item}{114}
\setcounter{Hfootnote}{2}
\setcounter{bookmark@seq@number}{432}
\setcounter{lpart}{0}
\setcounter{lchapter}{1}
\setcounter{lsection}{0}
\setcounter{lsubsection}{0}
\setcounter{lsubsubsection}{0}
\setcounter{lparagraph}{0}
\setcounter{lsubparagraph}{0}
\setcounter{lsubsubparagraph}{0}
\setcounter{float@type}{4}
\setcounter{LT@tables}{9}
\setcounter{LT@chunks}{6}
\setcounter{vrcnt}{66}
\setcounter{AM@survey}{0}
\setcounter{section@level}{1}
}
