\relax 
\providecommand\hyper@newdestlabel[2]{}
\@writefile{toc}{\contentsline {chapter}{\numberline {9}Catalog Services}{51}{chapter.9}}
\@writefile{lof}{\addvspace {10\p@ }}
\@writefile{lot}{\addvspace {10\p@ }}
\newlabel{TheChapterStart30}{{9}{51}{Catalog Services}{chapter.9}{}}
\@writefile{general}{\indexentry{Services!Catalog }{51}}
\@writefile{general}{\indexentry{Catalog Services }{51}}
\@writefile{toc}{\contentsline {section}{\numberline {9.1}General}{51}{section.9.1}}
\@writefile{general}{\indexentry{General }{51}}
\@writefile{toc}{\contentsline {subsection}{General}{51}{section*.22}}
\@writefile{toc}{\contentsline {subsection}{\numberline {9.1.1}Filenames and Maximum Filename Length}{51}{subsection.9.1.1}}
\@writefile{general}{\indexentry{Filenames and Maximum Filename Length }{51}}
\@writefile{general}{\indexentry{Length!Filenames and Maximum Filename }{51}}
\@writefile{toc}{\contentsline {subsubsection}{Filenames and Maximum Filename Length}{51}{subsection.9.1.1}}
\@writefile{toc}{\contentsline {subsection}{\numberline {9.1.2}Installing and Configuring MySQL}{51}{subsection.9.1.2}}
\@writefile{general}{\indexentry{MySQL!Installing and Configuring }{51}}
\@writefile{general}{\indexentry{Installing and Configuring MySQL }{51}}
\@writefile{toc}{\contentsline {subsubsection}{Installing and Configuring MySQL}{51}{subsection.9.1.2}}
\newlabel{1@xvr}{{}{51}{Installing and Configuring MySQL}{subsection.9.1.2}{}}
\newlabel{1@vr}{{}{51}{Installing and Configuring MySQL}{subsection.9.1.2}{}}
\@writefile{toc}{\contentsline {subsection}{\numberline {9.1.3}Installing and Configuring PostgreSQL}{52}{subsection.9.1.3}}
\@writefile{general}{\indexentry{PostgreSQL!Installing and Configuring }{52}}
\@writefile{general}{\indexentry{Installing and Configuring PostgreSQL }{52}}
\@writefile{toc}{\contentsline {subsubsection}{Installing and Configuring PostgreSQL}{52}{subsection.9.1.3}}
\newlabel{2@xvr}{{}{52}{Installing and Configuring PostgreSQL}{subsection.9.1.3}{}}
\newlabel{2@vr}{{}{52}{Installing and Configuring PostgreSQL}{subsection.9.1.3}{}}
\@writefile{toc}{\contentsline {subsection}{\numberline {9.1.4}Internal Bacula Catalog}{52}{subsection.9.1.4}}
\@writefile{general}{\indexentry{Catalog!Internal Bacula }{52}}
\@writefile{general}{\indexentry{Internal Bacula Catalog }{52}}
\@writefile{toc}{\contentsline {subsubsection}{Internal Bacula Catalog}{52}{subsection.9.1.4}}
\newlabel{3@xvr}{{}{52}{Internal Bacula Catalog}{subsection.9.1.4}{}}
\newlabel{3@vr}{{}{52}{Internal Bacula Catalog}{subsection.9.1.4}{}}
\@writefile{toc}{\contentsline {subsection}{\numberline {9.1.5}Database Table Design}{52}{subsection.9.1.5}}
\@writefile{general}{\indexentry{Design!Database Table }{52}}
\@writefile{general}{\indexentry{Database Table Design }{52}}
\@writefile{toc}{\contentsline {subsubsection}{Database Table Design}{52}{subsection.9.1.5}}
\@writefile{toc}{\contentsline {section}{\numberline {9.2}Sequence of Creation of Records for a Save Job}{52}{section.9.2}}
\@writefile{general}{\indexentry{Sequence of Creation of Records for a Save Job }{52}}
\@writefile{general}{\indexentry{Job!Sequence of Creation of Records for a Save }{52}}
\@writefile{toc}{\contentsline {subsection}{Sequence of Creation of Records for a Save Job}{52}{section*.23}}
\gdef \LT@ii {\LT@entry 
    {1}{85.68848pt}\LT@entry 
    {1}{66.4344pt}\LT@entry 
    {1}{72.59459pt}}
\gdef \LT@iii {\LT@entry 
    {1}{85.68848pt}\LT@entry 
    {1}{66.43439pt}\LT@entry 
    {1}{72.59459pt}}
\gdef \LT@iv {\LT@entry 
    {1}{85.68848pt}\LT@entry 
    {1}{66.43439pt}\LT@entry 
    {1}{197.40038pt}}
\@writefile{toc}{\contentsline {section}{\numberline {9.3}Database Tables}{53}{section.9.3}}
\@writefile{general}{\indexentry{Database Tables }{53}}
\@writefile{general}{\indexentry{Tables!Database }{53}}
\@writefile{toc}{\contentsline {subsection}{Database Tables}{53}{section*.24}}
\@writefile{lot}{\contentsline {table}{Filename Table Layout}{53}{section*.24}}
\@writefile{lot}{\contentsline {table}{Path Table Layout}{53}{table.9.1}}
\@writefile{lot}{\contentsline {table}{File Table Layout}{53}{table.9.2}}
\gdef \LT@v {\LT@entry 
    {1}{85.68848pt}\LT@entry 
    {1}{66.43439pt}\LT@entry 
    {1}{193.07498pt}}
\@writefile{lot}{\contentsline {table}{Job Table Layout}{54}{table.9.3}}
\gdef \LT@vi {\LT@entry 
    {1}{40.98038pt}\LT@entry 
    {1}{168.6781pt}}
\@writefile{lot}{\contentsline {table}{Job Types}{55}{table.9.4}}
\@writefile{lot}{\contentsline {table}{Job Statuses}{55}{table.9.5}}
\gdef \LT@vii {\LT@entry 
    {1}{40.98038pt}\LT@entry 
    {1}{197.7059pt}}
\gdef \LT@viii {\LT@entry 
    {1}{85.68848pt}\LT@entry 
    {1}{74.10101pt}\LT@entry 
    {1}{147.34465pt}}
\gdef \LT@ix {\LT@entry 
    {1}{85.68848pt}\LT@entry 
    {1}{74.10101pt}\LT@entry 
    {1}{193.07498pt}}
\@writefile{lot}{\contentsline {table}{File Sets Table Layout}{56}{table.9.6}}
\@writefile{lot}{\contentsline {table}{JobMedia Table Layout}{56}{table.9.7}}
\@writefile{lot}{\contentsline {table}{Media Table Layout}{57}{table.9.8}}
\gdef \LT@x {\LT@entry 
    {2}{94.10573pt}\LT@entry 
    {2}{186.92807pt}\LT@entry 
    {1}{185.84755pt}}
\@writefile{lot}{\contentsline {table}{Pool Table Layout}{58}{table.9.9}}
\gdef \LT@xi {\LT@entry 
    {2}{104.68912pt}\LT@entry 
    {2}{186.92807pt}\LT@entry 
    {1}{185.84755pt}}
\gdef \LT@xii {\LT@entry 
    {1}{85.68848pt}\LT@entry 
    {1}{66.43439pt}\LT@entry 
    {1}{174.70584pt}}
\gdef \LT@xiii {\LT@entry 
    {1}{85.68848pt}\LT@entry 
    {1}{66.43439pt}\LT@entry 
    {1}{159.3169pt}}
\@writefile{lot}{\contentsline {table}{Client Table Layout}{59}{table.9.10}}
\@writefile{lot}{\contentsline {table}{Storage Table Layout}{59}{table.9.11}}
\gdef \LT@xiv {\LT@entry 
    {1}{85.68848pt}\LT@entry 
    {1}{66.43439pt}\LT@entry 
    {1}{137.4836pt}}
\gdef \LT@xv {\LT@entry 
    {1}{85.68848pt}\LT@entry 
    {1}{66.43439pt}\LT@entry 
    {1}{193.07498pt}}
\@writefile{lot}{\contentsline {table}{Counter Table Layout}{60}{table.9.12}}
\@writefile{lot}{\contentsline {table}{Job History Table Layout}{60}{table.9.13}}
\gdef \LT@xvi {\LT@entry 
    {1}{85.68848pt}\LT@entry 
    {1}{66.43439pt}\LT@entry 
    {1}{144.1502pt}}
\gdef \LT@xvii {\LT@entry 
    {1}{85.68848pt}\LT@entry 
    {1}{66.43439pt}\LT@entry 
    {1}{166.67804pt}}
\gdef \LT@xviii {\LT@entry 
    {1}{85.68848pt}\LT@entry 
    {1}{66.43439pt}\LT@entry 
    {1}{439.51186pt}}
\gdef \LT@xix {\LT@entry 
    {1}{85.68848pt}\LT@entry 
    {1}{66.43439pt}\LT@entry 
    {1}{72.59459pt}}
\@writefile{lot}{\contentsline {table}{Log Table Layout}{61}{table.9.14}}
\@writefile{lot}{\contentsline {table}{Location Table Layout}{61}{table.9.15}}
\@writefile{lot}{\contentsline {table}{Location Log Table Layout}{61}{table.9.16}}
\@writefile{lot}{\contentsline {table}{Version Table Layout}{61}{table.9.17}}
\gdef \LT@xx {\LT@entry 
    {1}{85.68848pt}\LT@entry 
    {1}{66.43439pt}\LT@entry 
    {1}{96.45572pt}}
\@writefile{lot}{\contentsline {table}{Base Files Table Layout}{62}{table.9.18}}
\@writefile{toc}{\contentsline {subsection}{\numberline {9.3.1}MySQL Table Definition}{62}{subsection.9.3.1}}
\@writefile{general}{\indexentry{MySQL Table Definition }{62}}
\@writefile{general}{\indexentry{Definition!MySQL Table }{62}}
\@writefile{toc}{\contentsline {subsubsection}{MySQL Table Definition}{62}{subsection.9.3.1}}
\@setckpt{catalog}{
\setcounter{page}{65}
\setcounter{equation}{0}
\setcounter{enumi}{10}
\setcounter{enumii}{0}
\setcounter{enumiii}{0}
\setcounter{enumiv}{0}
\setcounter{footnote}{0}
\setcounter{mpfootnote}{0}
\setcounter{part}{0}
\setcounter{chapter}{9}
\setcounter{section}{3}
\setcounter{subsection}{1}
\setcounter{subsubsection}{0}
\setcounter{paragraph}{0}
\setcounter{subparagraph}{0}
\setcounter{figure}{0}
\setcounter{table}{19}
\setcounter{Item}{13}
\setcounter{Hfootnote}{0}
\setcounter{bookmark@seq@number}{126}
\setcounter{lpart}{0}
\setcounter{lchapter}{1}
\setcounter{lsection}{0}
\setcounter{lsubsection}{0}
\setcounter{lsubsubsection}{0}
\setcounter{lparagraph}{0}
\setcounter{lsubparagraph}{0}
\setcounter{lsubsubparagraph}{0}
\setcounter{float@type}{4}
\setcounter{LT@tables}{20}
\setcounter{LT@chunks}{1}
\setcounter{vrcnt}{3}
\setcounter{section@level}{2}
}
