\relax 
\providecommand\hyper@newdestlabel[2]{}
\newlabel{CCbySAChapter}{{18.8}{124}{Creative Commons Attribution-ShareAlike 4.0 International}{section*.80}{}}
\@writefile{general}{\indexentry{Attribution-ShareAlike 4.0 }{124}}
\@writefile{general}{\indexentry{License!Attribution-ShareAlike 4.0 }{124}}
\@setckpt{cc-by-sa}{
\setcounter{page}{127}
\setcounter{equation}{0}
\setcounter{enumi}{9}
\setcounter{enumii}{0}
\setcounter{enumiii}{0}
\setcounter{enumiv}{0}
\setcounter{footnote}{0}
\setcounter{mpfootnote}{0}
\setcounter{part}{0}
\setcounter{chapter}{18}
\setcounter{section}{8}
\setcounter{subsection}{0}
\setcounter{subsubsection}{0}
\setcounter{paragraph}{0}
\setcounter{subparagraph}{0}
\setcounter{figure}{0}
\setcounter{table}{0}
\setcounter{Item}{22}
\setcounter{Hfootnote}{0}
\setcounter{bookmark@seq@number}{303}
\setcounter{lpart}{0}
\setcounter{lchapter}{2}
\setcounter{lsection}{1}
\setcounter{lsubsection}{0}
\setcounter{lsubsubsection}{0}
\setcounter{lparagraph}{0}
\setcounter{lsubparagraph}{0}
\setcounter{lsubsubparagraph}{0}
\setcounter{float@type}{4}
\setcounter{LT@tables}{22}
\setcounter{LT@chunks}{1}
\setcounter{vrcnt}{3}
\setcounter{section@level}{1}
}
