\relax 
\providecommand\hyper@newdestlabel[2]{}
\providecommand\HyperFirstAtBeginDocument{\AtBeginDocument}
\HyperFirstAtBeginDocument{\ifx\hyper@anchor\@undefined
\global\let\oldcontentsline\contentsline
\gdef\contentsline#1#2#3#4{\oldcontentsline{#1}{#2}{#3}}
\global\let\oldnewlabel\newlabel
\gdef\newlabel#1#2{\newlabelxx{#1}#2}
\gdef\newlabelxx#1#2#3#4#5#6{\oldnewlabel{#1}{{#2}{#3}}}
\AtEndDocument{\ifx\hyper@anchor\@undefined
\let\contentsline\oldcontentsline
\let\newlabel\oldnewlabel
\fi}
\fi}
\global\let\hyper@last\relax 
\gdef\HyperFirstAtBeginDocument#1{#1}
\providecommand\HyField@AuxAddToFields[1]{}
\providecommand\HyField@AuxAddToCoFields[2]{}
\@input{coverpage.aux}
\babel@aux{english}{}
\@input{generaldevel.aux}
\@input{git.aux}
\@input{pluginAPI.aux}
\@input{platformsupport.aux}
\@input{daemonprotocol.aux}
\@input{director.aux}
\@input{file.aux}
\@input{storage.aux}
\@input{catalog.aux}
\@input{mediaformat.aux}
\@input{porting.aux}
\@input{gui-interface.aux}
\@input{tls-techdoc.aux}
\@input{regression.aux}
\@input{md5.aux}
\@input{mempool.aux}
\@input{netprotocol.aux}
\@input{smartall.aux}
\@input{license.aux}
\@input{cc-by-sa.aux}
