\relax 
\providecommand\hyper@newdestlabel[2]{}
\@writefile{toc}{\contentsline {chapter}{\numberline {7}File Services Daemon}{45}{chapter.7}}
\@writefile{lof}{\addvspace {10\p@ }}
\@writefile{lot}{\addvspace {10\p@ }}
\newlabel{TheChapterStart11}{{7}{45}{File Services Daemon}{chapter.7}{}}
\@writefile{default}{\indexentry{File Services Daemon }{45}}
\@writefile{default}{\indexentry{Daemon!File Services }{45}}
\@writefile{toc}{\contentsline {section}{File Services Daemon}{45}{section*.18}}
\@writefile{toc}{\contentsline {section}{\numberline {7.1}Commands Received from the Director for a Backup}{45}{section.7.1}}
\@writefile{default}{\indexentry{Backup!Commands Received from the Director for a }{45}}
\@writefile{default}{\indexentry{Commands Received from the Director for a Backup }{45}}
\@writefile{toc}{\contentsline {subsection}{Commands Received from the Director for a Backup}{45}{section*.19}}
\@writefile{toc}{\contentsline {section}{\numberline {7.2}Commands Received from the Director for a Restore}{46}{section.7.2}}
\@writefile{default}{\indexentry{Commands Received from the Director for a Restore }{46}}
\@writefile{default}{\indexentry{Restore!Commands Received from the Director for a }{46}}
\@writefile{toc}{\contentsline {subsection}{Commands Received from the Director for a Restore}{46}{section*.20}}
\@setckpt{file}{
\setcounter{page}{47}
\setcounter{equation}{0}
\setcounter{enumi}{3}
\setcounter{enumii}{0}
\setcounter{enumiii}{0}
\setcounter{enumiv}{0}
\setcounter{footnote}{0}
\setcounter{mpfootnote}{0}
\setcounter{part}{0}
\setcounter{chapter}{7}
\setcounter{section}{2}
\setcounter{subsection}{0}
\setcounter{subsubsection}{0}
\setcounter{paragraph}{0}
\setcounter{subparagraph}{0}
\setcounter{figure}{0}
\setcounter{table}{0}
\setcounter{Item}{3}
\setcounter{Hfootnote}{0}
\setcounter{bookmark@seq@number}{99}
\setcounter{lpart}{0}
\setcounter{lchapter}{1}
\setcounter{lsection}{0}
\setcounter{lsubsection}{0}
\setcounter{lsubsubsection}{0}
\setcounter{lparagraph}{0}
\setcounter{lsubparagraph}{0}
\setcounter{lsubsubparagraph}{0}
\setcounter{float@type}{4}
\setcounter{LT@tables}{1}
\setcounter{LT@chunks}{1}
\setcounter{vrcnt}{0}
\setcounter{section@level}{1}
}
