\relax 
\providecommand\hyper@newdestlabel[2]{}
\@writefile{toc}{\contentsline {chapter}{\numberline {1}Bacula Developer Notes}{1}{chapter.1}}
\@writefile{lof}{\addvspace {10\p@ }}
\@writefile{lot}{\addvspace {10\p@ }}
\newlabel{TheChapterStart10}{{1}{1}{Bacula Developer Notes}{chapter.1}{}}
\@writefile{default}{\indexentry{Bacula Developer Notes}{1}}
\@writefile{default}{\indexentry{Notes!Bacula Developer}{1}}
\@writefile{toc}{\contentsline {section}{Bacula Developer Notes}{1}{section*.2}}
\@writefile{toc}{\contentsline {subsection}{\numberline {1.0.1}Contributions}{1}{subsection.1.0.1}}
\@writefile{default}{\indexentry{Contributions}{1}}
\@writefile{toc}{\contentsline {subsubsection}{Contributions}{1}{subsection.1.0.1}}
\@writefile{toc}{\contentsline {subsection}{\numberline {1.0.2}Patches}{1}{subsection.1.0.2}}
\@writefile{default}{\indexentry{Patches}{1}}
\@writefile{toc}{\contentsline {subsubsection}{Patches}{1}{subsection.1.0.2}}
\@writefile{toc}{\contentsline {subsection}{\numberline {1.0.3}Copyrights}{1}{subsection.1.0.3}}
\@writefile{default}{\indexentry{Copyrights}{1}}
\@writefile{toc}{\contentsline {subsubsection}{Copyrights}{1}{subsection.1.0.3}}
\@writefile{toc}{\contentsline {subsection}{\numberline {1.0.4}Copyright Assignment -- Fiduciary License Agreement}{2}{subsection.1.0.4}}
\@writefile{default}{\indexentry{Copyright Assignment}{2}}
\@writefile{default}{\indexentry{Assignment!Copyright}{2}}
\@writefile{toc}{\contentsline {subsubsection}{Copyright Assignment -- Fiduciary License Agreement}{2}{subsection.1.0.4}}
\@writefile{toc}{\contentsline {section}{\numberline {1.1}The Development Cycle}{3}{section.1.1}}
\@writefile{default}{\indexentry{Developement Cycle}{3}}
\@writefile{default}{\indexentry{Cycle!Developement}{3}}
\@writefile{toc}{\contentsline {subsubsection}{Development Cycle}{3}{section.1.1}}
\@writefile{default}{\indexentry{Feature Requests}{3}}
\@writefile{toc}{\contentsline {section}{\numberline {1.2}Bacula Code Submissions and Projects}{4}{section.1.2}}
\@writefile{default}{\indexentry{Submissions and Projects}{4}}
\@writefile{toc}{\contentsline {subsection}{Code Submissions and Projects}{4}{section*.3}}
\@writefile{toc}{\contentsline {section}{\numberline {1.3}Patches for Released Versions}{5}{section.1.3}}
\@writefile{default}{\indexentry{Patches for Released Versions}{5}}
\@writefile{toc}{\contentsline {subsection}{Patches for Released Versions}{5}{section*.4}}
\@writefile{toc}{\contentsline {section}{\numberline {1.4}Developing Bacula}{6}{section.1.4}}
\@writefile{default}{\indexentry{Developing Bacula}{6}}
\@writefile{default}{\indexentry{Bacula!Developing}{6}}
\@writefile{toc}{\contentsline {subsubsection}{Developing Bacula}{6}{section.1.4}}
\@writefile{toc}{\contentsline {subsection}{\numberline {1.4.1}Debugging}{6}{subsection.1.4.1}}
\@writefile{default}{\indexentry{Debugging}{6}}
\@writefile{toc}{\contentsline {subsubsection}{Debugging}{6}{subsection.1.4.1}}
\@writefile{toc}{\contentsline {subsection}{\numberline {1.4.2}Using a Debugger}{6}{subsection.1.4.2}}
\@writefile{default}{\indexentry{Using a Debugger}{6}}
\@writefile{default}{\indexentry{Debugger!Using a}{6}}
\@writefile{toc}{\contentsline {subsubsection}{Using a Debugger}{6}{subsection.1.4.2}}
\@writefile{toc}{\contentsline {subsection}{\numberline {1.4.3}Memory Leaks}{6}{subsection.1.4.3}}
\@writefile{default}{\indexentry{Leaks!Memory}{6}}
\@writefile{default}{\indexentry{Memory Leaks}{6}}
\@writefile{toc}{\contentsline {subsubsection}{Memory Leaks}{6}{subsection.1.4.3}}
\@writefile{toc}{\contentsline {subsection}{\numberline {1.4.4}Special Files}{7}{subsection.1.4.4}}
\@writefile{default}{\indexentry{Files!Special}{7}}
\@writefile{default}{\indexentry{Special Files}{7}}
\@writefile{toc}{\contentsline {subsubsection}{Special Files}{7}{subsection.1.4.4}}
\@writefile{toc}{\contentsline {subsection}{\numberline {1.4.5}When Implementing Incomplete Code}{7}{subsection.1.4.5}}
\@writefile{default}{\indexentry{Code!When Implementing Incomplete}{7}}
\@writefile{default}{\indexentry{When Implementing Incomplete Code}{7}}
\@writefile{toc}{\contentsline {subsubsection}{When Implementing Incomplete Code}{7}{subsection.1.4.5}}
\@writefile{toc}{\contentsline {subsection}{\numberline {1.4.6}Bacula Source File Structure}{7}{subsection.1.4.6}}
\@writefile{default}{\indexentry{Structure!Bacula Source File}{7}}
\@writefile{default}{\indexentry{Bacula Source File Structure}{7}}
\@writefile{toc}{\contentsline {subsubsection}{Bacula Source File Structure}{7}{subsection.1.4.6}}
\@writefile{toc}{\contentsline {subsection}{\numberline {1.4.7}Header Files}{8}{subsection.1.4.7}}
\@writefile{default}{\indexentry{Header Files}{8}}
\@writefile{default}{\indexentry{Files!Header}{8}}
\@writefile{toc}{\contentsline {subsubsection}{Header Files}{8}{subsection.1.4.7}}
\@writefile{toc}{\contentsline {subsection}{\numberline {1.4.8}Programming Standards}{9}{subsection.1.4.8}}
\@writefile{default}{\indexentry{Standards!Programming}{9}}
\@writefile{default}{\indexentry{Programming Standards}{9}}
\@writefile{toc}{\contentsline {subsubsection}{Programming Standards}{9}{subsection.1.4.8}}
\@writefile{toc}{\contentsline {subsection}{\numberline {1.4.9}Do Not Use}{9}{subsection.1.4.9}}
\@writefile{default}{\indexentry{Use!Do Not}{9}}
\@writefile{default}{\indexentry{Do Not Use}{9}}
\@writefile{toc}{\contentsline {subsubsection}{Do Not Use}{9}{subsection.1.4.9}}
\@writefile{toc}{\contentsline {subsection}{\numberline {1.4.10}Avoid if Possible}{9}{subsection.1.4.10}}
\@writefile{default}{\indexentry{Possible!Avoid if}{9}}
\@writefile{default}{\indexentry{Avoid if Possible}{9}}
\@writefile{toc}{\contentsline {subsubsection}{Avoid if Possible}{9}{subsection.1.4.10}}
\@writefile{toc}{\contentsline {subsection}{\numberline {1.4.11}Do Use Whenever Possible}{9}{subsection.1.4.11}}
\@writefile{default}{\indexentry{Possible!Do Use Whenever}{9}}
\@writefile{default}{\indexentry{Do Use Whenever Possible}{9}}
\@writefile{toc}{\contentsline {subsubsection}{Do Use Whenever Possible}{9}{subsection.1.4.11}}
\@writefile{toc}{\contentsline {subsection}{\numberline {1.4.12}Indenting Standards}{10}{subsection.1.4.12}}
\@writefile{default}{\indexentry{Standards!Indenting}{10}}
\@writefile{default}{\indexentry{Indenting Standards}{10}}
\@writefile{toc}{\contentsline {subsubsection}{Indenting Standards}{10}{subsection.1.4.12}}
\@writefile{toc}{\contentsline {subsection}{\numberline {1.4.13}Tabbing}{11}{subsection.1.4.13}}
\@writefile{default}{\indexentry{Tabbing}{11}}
\@writefile{toc}{\contentsline {subsubsection}{Tabbing}{11}{subsection.1.4.13}}
\@writefile{toc}{\contentsline {subsection}{\numberline {1.4.14}Don'ts}{12}{subsection.1.4.14}}
\@writefile{default}{\indexentry{Don'ts}{12}}
\@writefile{toc}{\contentsline {subsubsection}{Don'ts}{12}{subsection.1.4.14}}
\@writefile{toc}{\contentsline {subsection}{\numberline {1.4.15}Message Classes}{12}{subsection.1.4.15}}
\@writefile{default}{\indexentry{Classes!Message}{12}}
\@writefile{default}{\indexentry{Message Classes}{12}}
\@writefile{toc}{\contentsline {subsubsection}{Message Classes}{12}{subsection.1.4.15}}
\@writefile{toc}{\contentsline {subsection}{\numberline {1.4.16}Debug Messages}{12}{subsection.1.4.16}}
\@writefile{default}{\indexentry{Messages!Debug}{12}}
\@writefile{default}{\indexentry{Debug Messages}{12}}
\@writefile{toc}{\contentsline {subsubsection}{Debug Messages}{12}{subsection.1.4.16}}
\gdef \LT@i {\LT@entry 
    {1}{111.3767pt}\LT@entry 
    {1}{228.81pt}}
\@writefile{toc}{\contentsline {subsection}{\numberline {1.4.17}Error Messages}{13}{subsection.1.4.17}}
\@writefile{default}{\indexentry{Messages!Error}{13}}
\@writefile{default}{\indexentry{Error Messages}{13}}
\@writefile{toc}{\contentsline {subsubsection}{Error Messages}{13}{subsection.1.4.17}}
\@writefile{lot}{\contentsline {table}{Message Error Code Classes}{13}{subsection.1.4.17}}
\@writefile{toc}{\contentsline {subsection}{\numberline {1.4.18}Job Messages}{13}{subsection.1.4.18}}
\@writefile{default}{\indexentry{Job Messages}{13}}
\@writefile{default}{\indexentry{Messages!Job}{13}}
\@writefile{toc}{\contentsline {subsubsection}{Job Messages}{13}{subsection.1.4.18}}
\@writefile{toc}{\contentsline {subsection}{\numberline {1.4.19}Queued Job Messages}{14}{subsection.1.4.19}}
\@writefile{default}{\indexentry{Queued Job Messages}{14}}
\@writefile{default}{\indexentry{Messages!Job}{14}}
\@writefile{toc}{\contentsline {subsubsection}{Queued Job Messages}{14}{subsection.1.4.19}}
\@writefile{toc}{\contentsline {subsection}{\numberline {1.4.20}Memory Messages}{14}{subsection.1.4.20}}
\@writefile{default}{\indexentry{Messages!Memory}{14}}
\@writefile{default}{\indexentry{Memory Messages}{14}}
\@writefile{toc}{\contentsline {subsubsection}{Memory Messages}{14}{subsection.1.4.20}}
\@writefile{toc}{\contentsline {subsection}{\numberline {1.4.21}Bugs Database}{14}{subsection.1.4.21}}
\@writefile{default}{\indexentry{Database!Bugs}{14}}
\@writefile{default}{\indexentry{Bugs Database}{14}}
\@writefile{toc}{\contentsline {subsubsection}{Bugs Database}{14}{subsection.1.4.21}}
\@setckpt{generaldevel}{
\setcounter{page}{15}
\setcounter{equation}{0}
\setcounter{enumi}{0}
\setcounter{enumii}{0}
\setcounter{enumiii}{0}
\setcounter{enumiv}{0}
\setcounter{footnote}{0}
\setcounter{mpfootnote}{0}
\setcounter{part}{0}
\setcounter{chapter}{1}
\setcounter{section}{4}
\setcounter{subsection}{21}
\setcounter{subsubsection}{0}
\setcounter{paragraph}{0}
\setcounter{subparagraph}{0}
\setcounter{figure}{0}
\setcounter{table}{1}
\setcounter{Item}{0}
\setcounter{Hfootnote}{0}
\setcounter{bookmark@seq@number}{33}
\setcounter{lpart}{0}
\setcounter{lchapter}{1}
\setcounter{lsection}{0}
\setcounter{lsubsection}{0}
\setcounter{lsubsubsection}{0}
\setcounter{lparagraph}{0}
\setcounter{lsubparagraph}{0}
\setcounter{lsubsubparagraph}{0}
\setcounter{float@type}{4}
\setcounter{LT@tables}{1}
\setcounter{LT@chunks}{1}
\setcounter{vrcnt}{0}
\setcounter{section@level}{2}
}
