\relax 
\providecommand\hyper@newdestlabel[2]{}
\newlabel{TheChapterStart}{{11.2}{83}{Implementing a GUI Interface}{chapter*.41}{}}
\@writefile{general}{\indexentry{Interface!Implementing a Bacula GUI }{83}}
\@writefile{general}{\indexentry{Implementing a Bacula GUI Interface }{83}}
\@writefile{toc}{\contentsline {section}{Implementing a Bacula GUI Interface}{83}{chapter*.41}}
\@writefile{toc}{\contentsline {section}{\numberline {11.1}General}{83}{section.11.1}}
\@writefile{general}{\indexentry{General }{83}}
\@writefile{toc}{\contentsline {subsection}{General}{83}{section*.42}}
\@writefile{toc}{\contentsline {subsection}{\numberline {11.1.1}Minimal Code in Console Program}{83}{subsection.11.1.1}}
\@writefile{general}{\indexentry{Program!Minimal Code in Console }{83}}
\@writefile{general}{\indexentry{Minimal Code in Console Program }{83}}
\@writefile{toc}{\contentsline {subsubsection}{Minimal Code in Console Program}{83}{subsection.11.1.1}}
\@writefile{toc}{\contentsline {subsection}{\numberline {11.1.2}GUI Interface is Difficult}{83}{subsection.11.1.2}}
\@writefile{general}{\indexentry{GUI Interface is Difficult }{83}}
\@writefile{general}{\indexentry{Difficult!GUI Interface is }{83}}
\@writefile{toc}{\contentsline {subsubsection}{GUI Interface is Difficult}{83}{subsection.11.1.2}}
\@writefile{toc}{\contentsline {section}{\numberline {11.2}Bvfs API}{84}{section.11.2}}
\newlabel{sec:bvfs}{{11.2}{84}{Bvfs API}{section.11.2}{}}
\newlabel{fig:batbrestore}{{11.2}{85}{Bvfs API}{section.11.2}{}}
\@writefile{lof}{\contentsline {figure}{\numberline {11.1}{\ignorespaces Bat Brestore Panel}}{85}{figure.11.1}}
\@setckpt{gui-interface}{
\setcounter{page}{89}
\setcounter{equation}{0}
\setcounter{enumi}{10}
\setcounter{enumii}{0}
\setcounter{enumiii}{0}
\setcounter{enumiv}{0}
\setcounter{footnote}{0}
\setcounter{mpfootnote}{0}
\setcounter{part}{0}
\setcounter{chapter}{11}
\setcounter{section}{2}
\setcounter{subsection}{0}
\setcounter{subsubsection}{0}
\setcounter{paragraph}{0}
\setcounter{subparagraph}{0}
\setcounter{figure}{1}
\setcounter{table}{0}
\setcounter{Item}{13}
\setcounter{Hfootnote}{0}
\setcounter{bookmark@seq@number}{168}
\setcounter{lpart}{0}
\setcounter{lchapter}{2}
\setcounter{lsection}{0}
\setcounter{lsubsection}{9}
\setcounter{lsubsubsection}{0}
\setcounter{lparagraph}{0}
\setcounter{lsubparagraph}{0}
\setcounter{lsubsubparagraph}{0}
\setcounter{float@type}{4}
\setcounter{LT@tables}{21}
\setcounter{LT@chunks}{1}
\setcounter{vrcnt}{3}
\setcounter{section@level}{1}
}
