\relax 
\providecommand\hyper@newdestlabel[2]{}
\@writefile{toc}{\contentsline {chapter}{\numberline {14}Bacula MD5 Algorithm}{103}{chapter.14}}
\@writefile{lof}{\addvspace {10\p@ }}
\@writefile{lot}{\addvspace {10\p@ }}
\newlabel{MD5Chapter}{{14}{103}{Bacula MD5 Algorithm}{chapter.14}{}}
\@writefile{toc}{\contentsline {section}{}{103}{section*.53}}
\@writefile{toc}{\contentsline {section}{\numberline {14.1}Command Line Message Digest Utility }{103}{section.14.1}}
\@writefile{default}{\indexentry{Utility!Command Line Message Digest }{103}}
\@writefile{default}{\indexentry{Command Line Message Digest Utility }{103}}
\@writefile{toc}{\contentsline {subsection}{Command Line Message Digest Utility}{103}{section*.54}}
\@writefile{toc}{\contentsline {subsection}{\numberline {14.1.1}Name}{103}{subsection.14.1.1}}
\@writefile{default}{\indexentry{Name}{103}}
\@writefile{toc}{\contentsline {subsubsection}{Name}{103}{subsection.14.1.1}}
\@writefile{toc}{\contentsline {subsection}{\numberline {14.1.2}Synopsis}{103}{subsection.14.1.2}}
\@writefile{default}{\indexentry{Synopsis }{103}}
\@writefile{toc}{\contentsline {subsubsection}{Synopsis}{103}{subsection.14.1.2}}
\@writefile{toc}{\contentsline {subsection}{\numberline {14.1.3}Description}{103}{subsection.14.1.3}}
\@writefile{default}{\indexentry{Description }{103}}
\@writefile{toc}{\contentsline {subsubsection}{Description}{103}{subsection.14.1.3}}
\@writefile{toc}{\contentsline {subsection}{\numberline {14.1.4}Options}{104}{subsection.14.1.4}}
\@writefile{default}{\indexentry{Options }{104}}
\@writefile{toc}{\contentsline {subsubsection}{Options}{104}{subsection.14.1.4}}
\@writefile{default}{\indexentry{-csignature }{104}}
\@writefile{default}{\indexentry{-dinput\_text }{104}}
\@writefile{toc}{\contentsline {subsection}{\numberline {14.1.5}Files}{104}{subsection.14.1.5}}
\@writefile{default}{\indexentry{Files }{104}}
\@writefile{toc}{\contentsline {subsubsection}{Files}{104}{subsection.14.1.5}}
\@writefile{toc}{\contentsline {subsection}{\numberline {14.1.6}Bugs}{104}{subsection.14.1.6}}
\@writefile{default}{\indexentry{Bugs }{104}}
\@writefile{toc}{\contentsline {subsubsection}{Bugs}{104}{subsection.14.1.6}}
\@writefile{toc}{\contentsline {section}{\numberline {14.2} \href  {http://www.fourmilab.ch/md5/md5.zip}{Download md5.zip}  (Zipped archive)}{104}{section.14.2}}
\@writefile{default}{\indexentry{Archive!Download md5.zip Zipped }{104}}
\@writefile{default}{\indexentry{Download md5.zip (Zipped archive) }{104}}
\@writefile{toc}{\contentsline {subsection}{Download md5.zip (Zipped archive)}{104}{section*.55}}
\@writefile{toc}{\contentsline {subsection}{\numberline {14.2.1}See Also}{104}{subsection.14.2.1}}
\@writefile{default}{\indexentry{ALSO!SEE }{104}}
\@writefile{default}{\indexentry{See Also }{104}}
\@writefile{toc}{\contentsline {subsubsection}{SEE ALSO}{104}{subsection.14.2.1}}
\@writefile{toc}{\contentsline {subsection}{\numberline {14.2.2}Exit Status}{105}{subsection.14.2.2}}
\@writefile{default}{\indexentry{Status!Exit }{105}}
\@writefile{default}{\indexentry{Exit Status }{105}}
\@writefile{toc}{\contentsline {subsubsection}{Exit Status}{105}{subsection.14.2.2}}
\@writefile{toc}{\contentsline {subsection}{\numberline {14.2.3}Copying}{105}{subsection.14.2.3}}
\@writefile{default}{\indexentry{Copying }{105}}
\@writefile{toc}{\contentsline {subsubsection}{Copying}{105}{subsection.14.2.3}}
\@writefile{toc}{\contentsline {subsection}{\numberline {14.2.4}Acknowledgements}{105}{subsection.14.2.4}}
\@writefile{default}{\indexentry{Acknowledgements }{105}}
\@writefile{toc}{\contentsline {subsubsection}{Acknowledgements}{105}{subsection.14.2.4}}
\@setckpt{md5}{
\setcounter{page}{106}
\setcounter{equation}{0}
\setcounter{enumi}{10}
\setcounter{enumii}{0}
\setcounter{enumiii}{0}
\setcounter{enumiv}{0}
\setcounter{footnote}{0}
\setcounter{mpfootnote}{0}
\setcounter{part}{0}
\setcounter{chapter}{14}
\setcounter{section}{2}
\setcounter{subsection}{4}
\setcounter{subsubsection}{0}
\setcounter{paragraph}{0}
\setcounter{subparagraph}{0}
\setcounter{figure}{0}
\setcounter{table}{0}
\setcounter{Item}{13}
\setcounter{Hfootnote}{0}
\setcounter{bookmark@seq@number}{237}
\setcounter{lpart}{0}
\setcounter{lchapter}{2}
\setcounter{lsection}{0}
\setcounter{lsubsection}{0}
\setcounter{lsubsubsection}{0}
\setcounter{lparagraph}{0}
\setcounter{lsubparagraph}{0}
\setcounter{lsubsubparagraph}{0}
\setcounter{float@type}{4}
\setcounter{LT@tables}{21}
\setcounter{LT@chunks}{1}
\setcounter{vrcnt}{3}
\setcounter{section@level}{2}
}
