\relax 
\providecommand\hyper@newdestlabel[2]{}
\@writefile{toc}{\contentsline {chapter}{\numberline {15}Bacula Memory Management}{107}{chapter.15}}
\@writefile{lof}{\addvspace {10\p@ }}
\@writefile{lot}{\addvspace {10\p@ }}
\newlabel{TheChapterStart7}{{15}{107}{Bacula Memory Management}{chapter.15}{}}
\@writefile{default}{\indexentry{Management!Bacula Memory}{107}}
\@writefile{default}{\indexentry{Bacula Memory Management}{107}}
\@writefile{toc}{\contentsline {section}{Bacula Memory Management}{107}{section*.56}}
\@writefile{toc}{\contentsline {section}{\numberline {15.1}General}{107}{section.15.1}}
\@writefile{default}{\indexentry{General}{107}}
\@writefile{toc}{\contentsline {subsection}{General}{107}{section*.57}}
\@writefile{toc}{\contentsline {subsection}{\numberline {15.1.1}Statically Allocated Memory}{107}{subsection.15.1.1}}
\@writefile{default}{\indexentry{Statically Allocated Memory}{107}}
\@writefile{default}{\indexentry{Memory!Statically Allocated}{107}}
\@writefile{toc}{\contentsline {subsubsection}{Statically Allocated Memory}{107}{subsection.15.1.1}}
\@writefile{toc}{\contentsline {subsection}{\numberline {15.1.2}Dynamically Allocated Memory}{107}{subsection.15.1.2}}
\@writefile{default}{\indexentry{Dynamically Allocated Memory}{107}}
\@writefile{default}{\indexentry{Memory!Dynamically Allocated}{107}}
\@writefile{toc}{\contentsline {subsubsection}{Dynamically Allocated Memory}{107}{subsection.15.1.2}}
\@writefile{toc}{\contentsline {subsection}{\numberline {15.1.3}Pooled and Non-pooled Memory}{108}{subsection.15.1.3}}
\@writefile{default}{\indexentry{Memory!Pooled and Non-pooled}{108}}
\@writefile{default}{\indexentry{Pooled and Non-pooled Memory}{108}}
\@writefile{toc}{\contentsline {subsubsection}{Pooled and Non-pooled Memory}{108}{subsection.15.1.3}}
\@setckpt{mempool}{
\setcounter{page}{110}
\setcounter{equation}{0}
\setcounter{enumi}{10}
\setcounter{enumii}{0}
\setcounter{enumiii}{0}
\setcounter{enumiv}{0}
\setcounter{footnote}{0}
\setcounter{mpfootnote}{0}
\setcounter{part}{0}
\setcounter{chapter}{15}
\setcounter{section}{1}
\setcounter{subsection}{3}
\setcounter{subsubsection}{0}
\setcounter{paragraph}{0}
\setcounter{subparagraph}{0}
\setcounter{figure}{0}
\setcounter{table}{0}
\setcounter{Item}{13}
\setcounter{Hfootnote}{0}
\setcounter{bookmark@seq@number}{244}
\setcounter{lpart}{0}
\setcounter{lchapter}{2}
\setcounter{lsection}{0}
\setcounter{lsubsection}{0}
\setcounter{lsubsubsection}{0}
\setcounter{lparagraph}{8}
\setcounter{lsubparagraph}{0}
\setcounter{lsubsubparagraph}{0}
\setcounter{float@type}{4}
\setcounter{LT@tables}{21}
\setcounter{LT@chunks}{1}
\setcounter{vrcnt}{3}
\setcounter{section@level}{2}
}
