\relax 
\providecommand\hyper@newdestlabel[2]{}
\@writefile{toc}{\contentsline {chapter}{\numberline {16}TCP/IP Network Protocol}{111}{chapter.16}}
\@writefile{lof}{\addvspace {10\p@ }}
\@writefile{lot}{\addvspace {10\p@ }}
\newlabel{TheChapterStart5}{{16}{111}{TCP/IP Network Protocol}{chapter.16}{}}
\@writefile{default}{\indexentry{TCP/IP Network Protocol}{111}}
\@writefile{default}{\indexentry{Protocol!TCP/IP Network}{111}}
\@writefile{toc}{\contentsline {section}{TCP/IP Network Protocol}{111}{section*.66}}
\@writefile{toc}{\contentsline {section}{\numberline {16.1}General}{111}{section.16.1}}
\@writefile{default}{\indexentry{General}{111}}
\@writefile{toc}{\contentsline {subsection}{General}{111}{section*.67}}
\@writefile{toc}{\contentsline {section}{\numberline {16.2}bnet and Threads}{111}{section.16.2}}
\@writefile{default}{\indexentry{Threads!bnet and}{111}}
\@writefile{default}{\indexentry{Bnet and Threads}{111}}
\@writefile{toc}{\contentsline {subsection}{bnet and Threads}{111}{section*.68}}
\@writefile{toc}{\contentsline {section}{\numberline {16.3}bnet\_open}{111}{section.16.3}}
\@writefile{default}{\indexentry{Bnet\_open}{111}}
\@writefile{toc}{\contentsline {subsection}{bnet\_open}{111}{section*.69}}
\@writefile{toc}{\contentsline {section}{\numberline {16.4}bnet\_send}{112}{section.16.4}}
\@writefile{default}{\indexentry{Bnet\_send}{112}}
\@writefile{toc}{\contentsline {subsection}{bnet\_send}{112}{section*.70}}
\@writefile{toc}{\contentsline {section}{\numberline {16.5}bnet\_fsend}{112}{section.16.5}}
\@writefile{default}{\indexentry{Bnet\_fsend}{112}}
\@writefile{toc}{\contentsline {subsection}{bnet\_fsend}{112}{section*.71}}
\@writefile{toc}{\contentsline {section}{\numberline {16.6}Additional Error information}{112}{section.16.6}}
\@writefile{default}{\indexentry{Information!Additional Error}{112}}
\@writefile{default}{\indexentry{Additional Error information}{112}}
\@writefile{toc}{\contentsline {subsection}{Additional Error information}{112}{section*.72}}
\@writefile{toc}{\contentsline {section}{\numberline {16.7}bnet\_recv}{112}{section.16.7}}
\@writefile{default}{\indexentry{Bnet\_recv}{112}}
\@writefile{toc}{\contentsline {subsection}{bnet\_recv}{112}{section*.73}}
\@writefile{toc}{\contentsline {section}{\numberline {16.8}bnet\_sig}{112}{section.16.8}}
\@writefile{default}{\indexentry{Bnet\_sig}{112}}
\@writefile{toc}{\contentsline {subsection}{bnet\_sig}{112}{section*.74}}
\@writefile{toc}{\contentsline {section}{\numberline {16.9}bnet\_strerror}{113}{section.16.9}}
\@writefile{default}{\indexentry{Bnet\_strerror}{113}}
\@writefile{toc}{\contentsline {subsection}{bnet\_strerror}{113}{section*.75}}
\@writefile{toc}{\contentsline {section}{\numberline {16.10}bnet\_close}{113}{section.16.10}}
\@writefile{default}{\indexentry{Bnet\_close}{113}}
\@writefile{toc}{\contentsline {subsection}{bnet\_close}{113}{section*.76}}
\@writefile{toc}{\contentsline {section}{\numberline {16.11}Becoming a Server}{113}{section.16.11}}
\@writefile{default}{\indexentry{Server!Becoming a}{113}}
\@writefile{default}{\indexentry{Becoming a Server}{113}}
\@writefile{toc}{\contentsline {subsection}{Becoming a Server}{113}{section*.77}}
\@writefile{toc}{\contentsline {section}{\numberline {16.12}Higher Level Conventions}{113}{section.16.12}}
\@writefile{default}{\indexentry{Conventions!Higher Level}{113}}
\@writefile{default}{\indexentry{Higher Level Conventions}{113}}
\@writefile{toc}{\contentsline {subsection}{Higher Level Conventions}{113}{section*.78}}
\@setckpt{netprotocol}{
\setcounter{page}{115}
\setcounter{equation}{0}
\setcounter{enumi}{9}
\setcounter{enumii}{0}
\setcounter{enumiii}{0}
\setcounter{enumiv}{0}
\setcounter{footnote}{0}
\setcounter{mpfootnote}{0}
\setcounter{part}{0}
\setcounter{chapter}{16}
\setcounter{section}{12}
\setcounter{subsection}{0}
\setcounter{subsubsection}{0}
\setcounter{paragraph}{0}
\setcounter{subparagraph}{0}
\setcounter{figure}{0}
\setcounter{table}{0}
\setcounter{Item}{22}
\setcounter{Hfootnote}{0}
\setcounter{bookmark@seq@number}{270}
\setcounter{lpart}{0}
\setcounter{lchapter}{2}
\setcounter{lsection}{0}
\setcounter{lsubsection}{0}
\setcounter{lsubsubsection}{0}
\setcounter{lparagraph}{0}
\setcounter{lsubparagraph}{0}
\setcounter{lsubsubparagraph}{0}
\setcounter{float@type}{4}
\setcounter{LT@tables}{21}
\setcounter{LT@chunks}{1}
\setcounter{vrcnt}{3}
\setcounter{section@level}{1}
}
