\relax 
\providecommand\hyper@newdestlabel[2]{}
\@writefile{toc}{\contentsline {chapter}{\numberline {11}Bacula Porting Notes}{79}{chapter.11}}
\@writefile{lof}{\addvspace {10\p@ }}
\@writefile{lot}{\addvspace {10\p@ }}
\newlabel{PortingChapter}{{11}{79}{Bacula Porting Notes}{chapter.11}{}}
\newlabel{TheChapterStart1}{{11}{79}{Bacula Porting Notes}{chapter.11}{}}
\@writefile{default}{\indexentry{Notes!Bacula Porting}{79}}
\@writefile{default}{\indexentry{Bacula Porting Notes}{79}}
\@writefile{toc}{\contentsline {section}{Bacula Porting Notes}{79}{section*.40}}
\@writefile{toc}{\contentsline {section}{\numberline {11.1}Porting Requirements}{79}{section.11.1}}
\@writefile{default}{\indexentry{Requirements!Porting}{79}}
\@writefile{default}{\indexentry{Porting Requirements}{79}}
\@writefile{toc}{\contentsline {section}{Porting Requirements}{79}{section.11.1}}
\@writefile{toc}{\contentsline {section}{\numberline {11.2}Steps to Take for Porting}{80}{section.11.2}}
\@writefile{default}{\indexentry{Porting!Steps to Take for}{80}}
\@writefile{default}{\indexentry{Steps to Take for Porting}{80}}
\@writefile{toc}{\contentsline {section}{Steps to Take for Porting}{80}{section.11.2}}
\@setckpt{porting}{
\setcounter{page}{82}
\setcounter{equation}{0}
\setcounter{enumi}{10}
\setcounter{enumii}{0}
\setcounter{enumiii}{0}
\setcounter{enumiv}{0}
\setcounter{footnote}{0}
\setcounter{mpfootnote}{0}
\setcounter{part}{0}
\setcounter{chapter}{11}
\setcounter{section}{2}
\setcounter{subsection}{0}
\setcounter{subsubsection}{0}
\setcounter{paragraph}{0}
\setcounter{subparagraph}{0}
\setcounter{figure}{0}
\setcounter{table}{0}
\setcounter{Item}{13}
\setcounter{Hfootnote}{0}
\setcounter{bookmark@seq@number}{162}
\setcounter{lpart}{0}
\setcounter{lchapter}{1}
\setcounter{lsection}{0}
\setcounter{lsubsection}{0}
\setcounter{lsubsubsection}{0}
\setcounter{lparagraph}{0}
\setcounter{lsubparagraph}{0}
\setcounter{lsubsubparagraph}{0}
\setcounter{float@type}{4}
\setcounter{LT@tables}{21}
\setcounter{LT@chunks}{1}
\setcounter{vrcnt}{3}
\setcounter{section@level}{1}
}
