\relax 
\providecommand\hyper@newdestlabel[2]{}
\@writefile{toc}{\contentsline {chapter}{\numberline {13}Bacula Regression Testing}{95}{chapter.13}}
\@writefile{lof}{\addvspace {10\p@ }}
\@writefile{lot}{\addvspace {10\p@ }}
\newlabel{TheChapterStart8}{{13}{95}{Bacula Regression Testing}{chapter.13}{}}
\@writefile{default}{\indexentry{Testing!Bacula Regression}{95}}
\@writefile{default}{\indexentry{Bacula Regression Testing}{95}}
\@writefile{toc}{\contentsline {section}{Bacula Regression Testing}{95}{section*.52}}
\@writefile{toc}{\contentsline {section}{\numberline {13.1}Setting up Regession Testing}{95}{section.13.1}}
\@writefile{default}{\indexentry{Setting up Regession Testing}{95}}
\@writefile{toc}{\contentsline {section}{Setting up Regression Testing}{95}{section.13.1}}
\@writefile{default}{\indexentry{Script!Running the Regression}{95}}
\@writefile{toc}{\contentsline {section}{Running the Regression Script}{95}{section.13.1}}
\@writefile{toc}{\contentsline {subsection}{\numberline {13.1.1}Setting the Configuration Parameters}{96}{subsection.13.1.1}}
\@writefile{default}{\indexentry{Setting the Configuration Parameters}{96}}
\@writefile{default}{\indexentry{Parameters!Setting the Configuration}{96}}
\@writefile{toc}{\contentsline {subsection}{Setting the Configuration Parameters}{96}{subsection.13.1.1}}
\@writefile{toc}{\contentsline {subsection}{\numberline {13.1.2}Building the Test Bacula}{97}{subsection.13.1.2}}
\@writefile{default}{\indexentry{Building the Test Bacula}{97}}
\@writefile{default}{\indexentry{Bacula!Building the Test}{97}}
\@writefile{toc}{\contentsline {subsection}{Building the Test Bacula}{97}{subsection.13.1.2}}
\@writefile{toc}{\contentsline {subsection}{\numberline {13.1.3}Setting up your SQL engine}{97}{subsection.13.1.3}}
\@writefile{default}{\indexentry{Setting up your SQL engine}{97}}
\@writefile{toc}{\contentsline {subsection}{Setting up your SQL engine}{97}{subsection.13.1.3}}
\@writefile{toc}{\contentsline {subsection}{\numberline {13.1.4}Running the Disk Only Regression}{98}{subsection.13.1.4}}
\@writefile{default}{\indexentry{Regression!Running the Disk Only}{98}}
\@writefile{default}{\indexentry{Running the Disk Only Regression}{98}}
\@writefile{toc}{\contentsline {subsection}{Running the Disk Only Regression}{98}{subsection.13.1.4}}
\@writefile{toc}{\contentsline {subsection}{\numberline {13.1.5}Other Tests}{99}{subsection.13.1.5}}
\@writefile{default}{\indexentry{Other Tests}{99}}
\@writefile{default}{\indexentry{Tests!Other}{99}}
\@writefile{toc}{\contentsline {subsection}{Other Tests}{99}{subsection.13.1.5}}
\@writefile{default}{\indexentry{all\_non-root-tests}{99}}
\@writefile{default}{\indexentry{all-root-tests}{99}}
\@writefile{default}{\indexentry{all-non-root-tape-tests}{99}}
\@writefile{default}{\indexentry{all-tape-and-file-tests}{99}}
\@writefile{toc}{\contentsline {subsection}{\numberline {13.1.6}If a Test Fails}{100}{subsection.13.1.6}}
\@writefile{default}{\indexentry{Fails!If a Test}{100}}
\@writefile{default}{\indexentry{If a Test Fails}{100}}
\@writefile{toc}{\contentsline {subsection}{If a Test Fails}{100}{subsection.13.1.6}}
\@writefile{toc}{\contentsline {section}{\numberline {13.2}Testing a Binary Installation}{100}{section.13.2}}
\@writefile{default}{\indexentry{Test!Testing a Binary Installation}{100}}
\@writefile{toc}{\contentsline {section}{\numberline {13.3}Running a Single Test}{100}{section.13.3}}
\@writefile{default}{\indexentry{Running a Single Test}{100}}
\@writefile{toc}{\contentsline {section}{Running a Single Test}{100}{section.13.3}}
\@writefile{toc}{\contentsline {section}{\numberline {13.4}Writing a Regression Test}{101}{section.13.4}}
\@writefile{default}{\indexentry{Test!Writing a Regression}{101}}
\@writefile{default}{\indexentry{Writing a Regression Test}{101}}
\@writefile{toc}{\contentsline {section}{Writing a Regression Test}{101}{section.13.4}}
\@writefile{toc}{\contentsline {subsection}{\numberline {13.4.1}Running the Tests by Hand}{101}{subsection.13.4.1}}
\@writefile{default}{\indexentry{Hand!Running the Tests by}{101}}
\@writefile{default}{\indexentry{Running the Tests by Hand}{101}}
\@writefile{toc}{\contentsline {subsection}{Running the Tests by Hand}{101}{subsection.13.4.1}}
\@writefile{toc}{\contentsline {subsection}{\numberline {13.4.2}Directory Structure}{101}{subsection.13.4.2}}
\@writefile{default}{\indexentry{Structure!Directory}{101}}
\@writefile{default}{\indexentry{Directory Structure}{101}}
\@writefile{toc}{\contentsline {subsection}{Directory Structure}{101}{subsection.13.4.2}}
\@writefile{toc}{\contentsline {subsection}{\numberline {13.4.3}Adding a New Test}{101}{subsection.13.4.3}}
\@writefile{default}{\indexentry{Adding a New Test}{101}}
\@writefile{default}{\indexentry{Test!Adding a New}{101}}
\@writefile{toc}{\contentsline {subsection}{Adding a New Test}{101}{subsection.13.4.3}}
\@writefile{toc}{\contentsline {subsection}{\numberline {13.4.4}Running a Test Under The Debugger}{101}{subsection.13.4.4}}
\@writefile{default}{\indexentry{Debugger}{101}}
\@writefile{toc}{\contentsline {subsection}{Running a Test Under The Debugger}{101}{subsection.13.4.4}}
\@setckpt{regression}{
\setcounter{page}{103}
\setcounter{equation}{0}
\setcounter{enumi}{10}
\setcounter{enumii}{0}
\setcounter{enumiii}{0}
\setcounter{enumiv}{0}
\setcounter{footnote}{0}
\setcounter{mpfootnote}{0}
\setcounter{part}{0}
\setcounter{chapter}{13}
\setcounter{section}{4}
\setcounter{subsection}{4}
\setcounter{subsubsection}{0}
\setcounter{paragraph}{0}
\setcounter{subparagraph}{0}
\setcounter{figure}{0}
\setcounter{table}{0}
\setcounter{Item}{13}
\setcounter{Hfootnote}{0}
\setcounter{bookmark@seq@number}{221}
\setcounter{lpart}{0}
\setcounter{lchapter}{2}
\setcounter{lsection}{0}
\setcounter{lsubsection}{0}
\setcounter{lsubsubsection}{0}
\setcounter{lparagraph}{0}
\setcounter{lsubparagraph}{0}
\setcounter{lsubsubparagraph}{0}
\setcounter{float@type}{4}
\setcounter{LT@tables}{21}
\setcounter{LT@chunks}{1}
\setcounter{vrcnt}{3}
\setcounter{section@level}{2}
}
