\relax 
\providecommand\hyper@newdestlabel[2]{}
\@writefile{toc}{\contentsline {chapter}{\numberline {12}TLS}{89}{chapter.12}}
\@writefile{lof}{\addvspace {10\p@ }}
\@writefile{lot}{\addvspace {10\p@ }}
\newlabel{TheChapterTLS}{{12}{89}{TLS}{chapter.12}{}}
\@writefile{default}{\indexentry{TLS}{89}}
\@writefile{toc}{\contentsline {section}{\numberline {12.1}Introduction to TLS}{89}{section.12.1}}
\@writefile{default}{\indexentry{TLS Introduction}{89}}
\@writefile{default}{\indexentry{Introduction!TLS}{89}}
\@writefile{toc}{\contentsline {section}{TLS Introduction}{89}{section.12.1}}
\@writefile{toc}{\contentsline {section}{\numberline {12.2}New Configuration Directives}{89}{section.12.2}}
\@writefile{default}{\indexentry{TLS Configuration Directives}{89}}
\@writefile{default}{\indexentry{Directives!TLS Configuration}{89}}
\@writefile{toc}{\contentsline {section}{New Configuration Directives}{89}{section.12.2}}
\@writefile{toc}{\contentsline {section}{\numberline {12.3}TLS API Implementation}{90}{section.12.3}}
\@writefile{default}{\indexentry{TLS API Implimentation}{90}}
\@writefile{default}{\indexentry{API Implimentation!TLS}{90}}
\@writefile{toc}{\contentsline {section}{TLS API Implementation}{90}{section.12.3}}
\@writefile{toc}{\contentsline {subsection}{\numberline {12.3.1}Library Initialization and Cleanup}{90}{subsection.12.3.1}}
\@writefile{default}{\indexentry{Library Initialization and Cleanup}{90}}
\@writefile{default}{\indexentry{Initialization and Cleanup!Library}{90}}
\@writefile{toc}{\contentsline {subsection}{Library Initialization and Cleanup}{90}{subsection.12.3.1}}
\@writefile{toc}{\contentsline {subsection}{\numberline {12.3.2}Manipulating TLS Contexts}{90}{subsection.12.3.2}}
\@writefile{default}{\indexentry{TLS Context Manipulation}{90}}
\@writefile{default}{\indexentry{Contexts!Manipulating TLS}{90}}
\@writefile{toc}{\contentsline {subsection}{Manipulating TLS Contexts}{90}{subsection.12.3.2}}
\@writefile{toc}{\contentsline {subsection}{\numberline {12.3.3}Performing Post-Connection Verification}{91}{subsection.12.3.3}}
\@writefile{default}{\indexentry{TLS Post-Connection Verification}{91}}
\@writefile{default}{\indexentry{Verification!TLS Post-Connection}{91}}
\@writefile{toc}{\contentsline {subsection}{Performing Post-Connection Verification}{91}{subsection.12.3.3}}
\@writefile{toc}{\contentsline {subsection}{\numberline {12.3.4}Manipulating TLS Connections}{91}{subsection.12.3.4}}
\@writefile{default}{\indexentry{TLS Connection Manipulation}{91}}
\@writefile{default}{\indexentry{Connections!Manipulating TLS}{91}}
\@writefile{toc}{\contentsline {subsection}{Manipulating TLS Connections}{91}{subsection.12.3.4}}
\@writefile{toc}{\contentsline {section}{\numberline {12.4}Bnet API Changes}{92}{section.12.4}}
\@writefile{default}{\indexentry{Bnet API Changes}{92}}
\@writefile{default}{\indexentry{API Changes!Bnet}{92}}
\@writefile{toc}{\contentsline {section}{Bnet API Changes}{92}{section.12.4}}
\@writefile{toc}{\contentsline {subsection}{\numberline {12.4.1}Negotiating a TLS Connection}{92}{subsection.12.4.1}}
\@writefile{default}{\indexentry{Negotiating a TLS Connection}{92}}
\@writefile{default}{\indexentry{TLS Connection!Negotiating}{92}}
\@writefile{toc}{\contentsline {subsection}{Negotiating a TLS Connection}{92}{subsection.12.4.1}}
\@writefile{toc}{\contentsline {subsection}{\numberline {12.4.2}Manipulating Socket Blocking State}{92}{subsection.12.4.2}}
\@writefile{default}{\indexentry{Manipulating Socket Blocking State}{92}}
\@writefile{default}{\indexentry{Socket Blocking State!Manipulating}{92}}
\@writefile{default}{\indexentry{Blocking State!Socket!Manipulating}{92}}
\@writefile{toc}{\contentsline {subsection}{Manipulating Socket Blocking State}{92}{subsection.12.4.2}}
\@writefile{toc}{\contentsline {section}{\numberline {12.5}Authentication Negotiation}{93}{section.12.5}}
\@writefile{default}{\indexentry{Authentication Negotiation}{93}}
\@writefile{default}{\indexentry{Negotiation!TLS Authentication}{93}}
\@writefile{toc}{\contentsline {section}{Authentication Negotiation}{93}{section.12.5}}
\@setckpt{tls-techdoc}{
\setcounter{page}{94}
\setcounter{equation}{0}
\setcounter{enumi}{10}
\setcounter{enumii}{0}
\setcounter{enumiii}{0}
\setcounter{enumiv}{0}
\setcounter{footnote}{0}
\setcounter{mpfootnote}{0}
\setcounter{part}{0}
\setcounter{chapter}{12}
\setcounter{section}{5}
\setcounter{subsection}{0}
\setcounter{subsubsection}{0}
\setcounter{paragraph}{0}
\setcounter{subparagraph}{0}
\setcounter{figure}{0}
\setcounter{table}{0}
\setcounter{Item}{13}
\setcounter{Hfootnote}{0}
\setcounter{bookmark@seq@number}{191}
\setcounter{lpart}{0}
\setcounter{lchapter}{2}
\setcounter{lsection}{0}
\setcounter{lsubsection}{0}
\setcounter{lsubsubsection}{0}
\setcounter{lparagraph}{0}
\setcounter{lsubparagraph}{0}
\setcounter{lsubsubparagraph}{0}
\setcounter{float@type}{4}
\setcounter{LT@tables}{21}
\setcounter{LT@chunks}{1}
\setcounter{vrcnt}{3}
\setcounter{section@level}{1}
}
