\relax 
\providecommand\hyper@newdestlabel[2]{}
\@writefile{toc}{\contentsline {chapter}{\numberline {4}Dealing with Firewalls}{51}{chapter.4}}
\@writefile{lof}{\addvspace {10\p@ }}
\@writefile{lot}{\addvspace {10\p@ }}
\newlabel{FirewallsChapter}{{4}{51}{Dealing with Firewalls}{chapter.4}{}}
\@writefile{general}{\indexentry{Dealing with Firewalls }{51}}
\@writefile{general}{\indexentry{Firewalls!Dealing with }{51}}
\@writefile{toc}{\contentsline {section}{\numberline {4.1}Technical Details}{51}{section.4.1}}
\@writefile{general}{\indexentry{Technical Details }{51}}
\@writefile{general}{\indexentry{Details!Technical }{51}}
\@writefile{toc}{\contentsline {section}{\numberline {4.2}A Concrete Example}{51}{section.4.2}}
\@writefile{general}{\indexentry{Example!Concrete }{51}}
\@writefile{general}{\indexentry{Concrete Example }{51}}
\@writefile{toc}{\contentsline {subsection}{\numberline {4.2.1}The Bacula Configuration Files for the Above}{53}{subsection.4.2.1}}
\@writefile{general}{\indexentry{Above!Bacula Configuration Files for the }{53}}
\@writefile{general}{\indexentry{Bacula Configuration Files for the Above }{53}}
\@writefile{toc}{\contentsline {subsection}{\numberline {4.2.2}How Does It Work?}{54}{subsection.4.2.2}}
\@writefile{general}{\indexentry{How Does It Work? }{54}}
\@writefile{general}{\indexentry{Work!How Does It }{54}}
\@writefile{toc}{\contentsline {subsection}{\numberline {4.2.3}Important Note}{55}{subsection.4.2.3}}
\@writefile{general}{\indexentry{Important Note }{55}}
\@writefile{general}{\indexentry{Note!Important }{55}}
\@writefile{toc}{\contentsline {subsection}{\numberline {4.2.4}Firewall Problems}{55}{subsection.4.2.4}}
\@writefile{general}{\indexentry{Firewall Problems}{55}}
\@writefile{general}{\indexentry{Problems!Firewalls}{55}}
\@setckpt{firewalls}{
\setcounter{page}{56}
\setcounter{equation}{0}
\setcounter{enumi}{7}
\setcounter{enumii}{0}
\setcounter{enumiii}{0}
\setcounter{enumiv}{0}
\setcounter{footnote}{0}
\setcounter{mpfootnote}{0}
\setcounter{part}{0}
\setcounter{chapter}{4}
\setcounter{section}{2}
\setcounter{subsection}{4}
\setcounter{subsubsection}{0}
\setcounter{paragraph}{0}
\setcounter{subparagraph}{0}
\setcounter{figure}{0}
\setcounter{table}{0}
\setcounter{Item}{45}
\setcounter{Hfootnote}{0}
\setcounter{bookmark@seq@number}{90}
\setcounter{lpart}{0}
\setcounter{lchapter}{1}
\setcounter{lsection}{0}
\setcounter{lsubsection}{0}
\setcounter{lsubsubsection}{0}
\setcounter{lparagraph}{0}
\setcounter{lsubparagraph}{0}
\setcounter{lsubsubparagraph}{0}
\setcounter{float@type}{4}
\setcounter{LT@tables}{0}
\setcounter{LT@chunks}{0}
\setcounter{vrcnt}{19}
\setcounter{section@level}{2}
}
