\relax 
\providecommand\hyper@newdestlabel[2]{}
\@writefile{toc}{\contentsline {chapter}{\numberline {5}What To Do When Bacula Crashes (Kaboom)}{57}{chapter.5}}
\@writefile{lof}{\addvspace {10\p@ }}
\@writefile{lot}{\addvspace {10\p@ }}
\newlabel{KaboomChapter}{{5}{57}{What To Do When Bacula Crashes (Kaboom)}{chapter.5}{}}
\@writefile{general}{\indexentry{Kaboom!What To Do When Bacula Crashes }{57}}
\@writefile{general}{\indexentry{What To Do When Bacula Crashes (Kaboom) }{57}}
\@writefile{toc}{\contentsline {section}{\numberline {5.1}Traceback}{57}{section.5.1}}
\@writefile{general}{\indexentry{Traceback}{57}}
\@writefile{toc}{\contentsline {section}{\numberline {5.2}Testing The Traceback}{58}{section.5.2}}
\@writefile{general}{\indexentry{Traceback!Testing The }{58}}
\@writefile{general}{\indexentry{Testing The Traceback }{58}}
\@writefile{toc}{\contentsline {section}{\numberline {5.3}Getting A Traceback On Other Systems}{58}{section.5.3}}
\@writefile{general}{\indexentry{Getting A Traceback On Other Systems}{58}}
\@writefile{general}{\indexentry{Systems!Getting A Traceback On Other}{58}}
\newlabel{ManuallyDebugging}{{5.3}{58}{Getting A Traceback On Other Systems}{section.5.3}{}}
\@writefile{toc}{\contentsline {section}{\numberline {5.4}Manually Running Bacula Under The Debugger}{59}{section.5.4}}
\@writefile{general}{\indexentry{Manually Running Bacula Under The Debugger}{59}}
\@writefile{general}{\indexentry{Debugger!Manually Running Bacula Under The}{59}}
\@writefile{toc}{\contentsline {section}{\numberline {5.5}Getting Debug Output from Bacula}{59}{section.5.5}}
\@writefile{general}{\indexentry{Getting Debug Output from Bacula }{59}}
\@setckpt{kaboom}{
\setcounter{page}{60}
\setcounter{equation}{0}
\setcounter{enumi}{9}
\setcounter{enumii}{0}
\setcounter{enumiii}{0}
\setcounter{enumiv}{0}
\setcounter{footnote}{0}
\setcounter{mpfootnote}{0}
\setcounter{part}{0}
\setcounter{chapter}{5}
\setcounter{section}{5}
\setcounter{subsection}{0}
\setcounter{subsubsection}{0}
\setcounter{paragraph}{0}
\setcounter{subparagraph}{0}
\setcounter{figure}{0}
\setcounter{table}{0}
\setcounter{Item}{60}
\setcounter{Hfootnote}{0}
\setcounter{bookmark@seq@number}{96}
\setcounter{lpart}{0}
\setcounter{lchapter}{1}
\setcounter{lsection}{0}
\setcounter{lsubsection}{0}
\setcounter{lsubsubsection}{0}
\setcounter{lparagraph}{0}
\setcounter{lsubparagraph}{0}
\setcounter{lsubsubparagraph}{0}
\setcounter{float@type}{4}
\setcounter{LT@tables}{0}
\setcounter{LT@chunks}{0}
\setcounter{vrcnt}{19}
\setcounter{section@level}{1}
}
