\relax 
\providecommand\hyper@newdestlabel[2]{}
\@writefile{toc}{\contentsline {chapter}{\numberline {3}Testing Your Tape Drive With Bacula}{33}{chapter.3}}
\@writefile{lof}{\addvspace {10\p@ }}
\@writefile{lot}{\addvspace {10\p@ }}
\newlabel{TapeTestingChapter}{{3}{33}{Testing Your Tape Drive With Bacula}{chapter.3}{}}
\@writefile{general}{\indexentry{Testing Your Tape Drive With Bacula}{33}}
\newlabel{summary}{{3}{33}{Testing Your Tape Drive With Bacula}{chapter.3}{}}
\@writefile{toc}{\contentsline {section}{\numberline {3.1}Get Your Tape Drive Working}{33}{section.3.1}}
\newlabel{18@xvr}{{}{33}{Get Your Tape Drive Working}{Item.9}{}}
\newlabel{18@vr}{{}{33}{Get Your Tape Drive Working}{Item.9}{}}
\newlabel{19@xvr}{{}{33}{Get Your Tape Drive Working}{Item.11}{}}
\newlabel{19@vr}{{}{33}{Get Your Tape Drive Working}{Item.11}{}}
\newlabel{NoTapeInDrive}{{3.1}{34}{Get Your Tape Drive Working}{Item.18}{}}
\@writefile{toc}{\contentsline {subsection}{\numberline {3.1.1}Problems When no Tape in Drive}{34}{subsection.3.1.1}}
\@writefile{general}{\indexentry{Problems When no Tape in Drive}{34}}
\@writefile{toc}{\contentsline {subsection}{\numberline {3.1.2}Specifying the Configuration File}{35}{subsection.3.1.2}}
\@writefile{general}{\indexentry{File!Specifying the Configuration}{35}}
\@writefile{general}{\indexentry{Specifying the Configuration File}{35}}
\@writefile{toc}{\contentsline {subsection}{\numberline {3.1.3}Specifying a Device Name For a Tape}{35}{subsection.3.1.3}}
\@writefile{general}{\indexentry{Tape!Specifying a Device Name For a}{35}}
\@writefile{general}{\indexentry{Specifying a Device Name For a Tape}{35}}
\@writefile{toc}{\contentsline {subsection}{\numberline {3.1.4}Specifying a Device Name For a File}{35}{subsection.3.1.4}}
\@writefile{general}{\indexentry{File!Specifying a Device Name For a}{35}}
\@writefile{general}{\indexentry{Specifying a Device Name For a File}{35}}
\@writefile{toc}{\contentsline {section}{\numberline {3.2}btape}{35}{section.3.2}}
\newlabel{btape1}{{3.2}{35}{btape}{section.3.2}{}}
\@writefile{general}{\indexentry{Btape}{35}}
\@writefile{toc}{\contentsline {subsection}{\numberline {3.2.1}Using btape to Verify your Tape Drive}{36}{subsection.3.2.1}}
\@writefile{general}{\indexentry{Using btape to Verify your Tape Drive}{36}}
\@writefile{general}{\indexentry{Drive!Using btape to Verify your Tape}{36}}
\@writefile{toc}{\contentsline {subsection}{\numberline {3.2.2}Testing tape drive speed}{37}{subsection.3.2.2}}
\newlabel{sec:btapespeed}{{3.2.2}{37}{Testing tape drive speed}{subsection.3.2.2}{}}
\newlabel{SCSITricks}{{3.2.2}{38}{Testing tape drive speed}{subsection.3.2.2}{}}
\@writefile{toc}{\contentsline {subsection}{\numberline {3.2.3}Linux SCSI Tricks}{38}{subsection.3.2.3}}
\@writefile{general}{\indexentry{Tricks!Linux SCSI}{38}}
\@writefile{general}{\indexentry{Linux SCSI Tricks}{38}}
\newlabel{problems1}{{3.2.3}{39}{Linux SCSI Tricks}{subsection.3.2.3}{}}
\@writefile{toc}{\contentsline {section}{\numberline {3.3}Tips for Resolving Problems}{39}{section.3.3}}
\@writefile{general}{\indexentry{Problems!Tips for Resolving}{39}}
\@writefile{general}{\indexentry{Tips for Resolving Problems}{39}}
\newlabel{CannotRestore}{{3.3}{39}{Tips for Resolving Problems}{section.3.3}{}}
\@writefile{toc}{\contentsline {subsection}{\numberline {3.3.1}Bacula Saves But Cannot Restore Files}{39}{subsection.3.3.1}}
\@writefile{general}{\indexentry{Files!Bacula Saves But Cannot Restore}{39}}
\@writefile{general}{\indexentry{Bacula Saves But Cannot Restore Files}{39}}
\newlabel{opendevice}{{3.3.1}{40}{Bacula Saves But Cannot Restore Files}{Item.27}{}}
\@writefile{toc}{\contentsline {subsection}{\numberline {3.3.2}Bacula Cannot Open the Device}{40}{subsection.3.3.2}}
\@writefile{general}{\indexentry{Device!Bacula Cannot Open the}{40}}
\@writefile{general}{\indexentry{Bacula Cannot Open the Device}{40}}
\newlabel{IncorrectFiles}{{3.3.2}{41}{Bacula Cannot Open the Device}{subsection.3.3.2}{}}
\@writefile{toc}{\contentsline {subsection}{\numberline {3.3.3}Incorrect File Number}{41}{subsection.3.3.3}}
\@writefile{general}{\indexentry{Number!Incorrect File}{41}}
\@writefile{general}{\indexentry{Incorrect File Number}{41}}
\newlabel{IncorrectBlocks}{{3.3.3}{41}{Incorrect File Number}{subsection.3.3.3}{}}
\@writefile{toc}{\contentsline {subsection}{\numberline {3.3.4}Incorrect Number of Blocks or Positioning Errors}{41}{subsection.3.3.4}}
\@writefile{general}{\indexentry{Testing!Incorrect Number of Blocks or Positioning Errors}{41}}
\@writefile{general}{\indexentry{Incorrect Number of Blocks or Positioning Errors}{41}}
\newlabel{TapeModes}{{3.3.4}{42}{Incorrect Number of Blocks or Positioning Errors}{subsection.3.3.4}{}}
\@writefile{toc}{\contentsline {subsection}{\numberline {3.3.5}Ensuring that the Tape Modes Are Properly Set -- {\bf  Linux Only}}{42}{subsection.3.3.5}}
\@writefile{general}{\indexentry{Ensuring that the Tape Modes Are Properly Set -- Linux Only}{42}}
\newlabel{compression}{{3.3.5}{43}{Ensuring that the Tape Modes Are Properly Set -- {\bf Linux Only}}{subsection.3.3.5}{}}
\@writefile{toc}{\contentsline {subsection}{\numberline {3.3.6}Tape Hardware Compression and Blocking Size}{43}{subsection.3.3.6}}
\@writefile{general}{\indexentry{Tape Hardware Compression and Blocking Size}{43}}
\@writefile{general}{\indexentry{Size!Tape Hardware Compression and Blocking Size}{43}}
\newlabel{FreeBSDTapes}{{3.3.6}{44}{Tape Hardware Compression and Blocking Size}{subsection.3.3.6}{}}
\@writefile{toc}{\contentsline {subsection}{\numberline {3.3.7}Tape Modes on FreeBSD}{44}{subsection.3.3.7}}
\@writefile{general}{\indexentry{FreeBSD!Tape Modes on}{44}}
\@writefile{general}{\indexentry{Tape Modes on FreeBSD}{44}}
\@writefile{toc}{\contentsline {subsection}{\numberline {3.3.8}Finding your Tape Drives and Autochangers on FreeBSD}{45}{subsection.3.3.8}}
\@writefile{general}{\indexentry{FreeBSD!Finding Tape Drives and Autochangers}{45}}
\@writefile{general}{\indexentry{Finding Tape Drives and Autochangers on FreeBSD}{45}}
\newlabel{onstream}{{3.3.8}{46}{Finding your Tape Drives and Autochangers on FreeBSD}{subsection.3.3.8}{}}
\@writefile{toc}{\contentsline {subsection}{\numberline {3.3.9}Using the OnStream driver on Linux Systems}{46}{subsection.3.3.9}}
\@writefile{general}{\indexentry{Using the OnStream driver on Linux Systems}{46}}
\@writefile{general}{\indexentry{Systems!Using the OnStream driver on Linux}{46}}
\@writefile{toc}{\contentsline {section}{\numberline {3.4}Hardware Compression on EXB-8900}{46}{section.3.4}}
\@writefile{general}{\indexentry{Hardware Compression on EXB-8900}{46}}
\@writefile{general}{\indexentry{EXB-8900!Hardware Compression}{46}}
\newlabel{fill}{{3.4}{46}{Hardware Compression on EXB-8900}{section.3.4}{}}
\@writefile{toc}{\contentsline {subsection}{\numberline {3.4.1}Using btape to Simulate Filling a Tape}{46}{subsection.3.4.1}}
\@writefile{general}{\indexentry{Using btape to Simulate Filling a Tape}{46}}
\@writefile{general}{\indexentry{Tape!Using btape to Simulate Filling}{46}}
\newlabel{RecoveringFiles}{{3.4.1}{47}{Using btape to Simulate Filling a Tape}{subsection.3.4.1}{}}
\@writefile{toc}{\contentsline {section}{\numberline {3.5}Recovering Files Written With Fixed Block Sizes}{47}{section.3.5}}
\@writefile{general}{\indexentry{Recovering Files Written With Fixed Block Sizes}{47}}
\newlabel{BlockModes}{{3.5}{47}{Recovering Files Written With Fixed Block Sizes}{section.3.5}{}}
\@writefile{toc}{\contentsline {section}{\numberline {3.6}Tape Blocking Modes}{47}{section.3.6}}
\@writefile{general}{\indexentry{Modes!Tape Blocking}{47}}
\@writefile{general}{\indexentry{Tape Blocking Modes}{47}}
\@writefile{toc}{\contentsline {section}{\numberline {3.7}Details of Tape Modes}{48}{section.3.7}}
\@writefile{general}{\indexentry{Modes!Details}{48}}
\@writefile{general}{\indexentry{Details of Tape Modes}{48}}
\@writefile{toc}{\contentsline {section}{\numberline {3.8}Tape Performance Problems}{48}{section.3.8}}
\@writefile{general}{\indexentry{Tape Performance}{48}}
\@writefile{toc}{\contentsline {section}{\numberline {3.9}Autochanger Errors}{49}{section.3.9}}
\@writefile{general}{\indexentry{Errors!Autochanger}{49}}
\@writefile{general}{\indexentry{Autochanger Errors}{49}}
\@writefile{toc}{\contentsline {section}{\numberline {3.10}Syslog Errors}{49}{section.3.10}}
\@writefile{general}{\indexentry{Errors!Syslog}{49}}
\@writefile{general}{\indexentry{Syslog Errors}{49}}
\@setckpt{tapetesting}{
\setcounter{page}{50}
\setcounter{equation}{0}
\setcounter{enumi}{4}
\setcounter{enumii}{0}
\setcounter{enumiii}{0}
\setcounter{enumiv}{0}
\setcounter{footnote}{0}
\setcounter{mpfootnote}{0}
\setcounter{part}{0}
\setcounter{chapter}{3}
\setcounter{section}{10}
\setcounter{subsection}{0}
\setcounter{subsubsection}{0}
\setcounter{paragraph}{0}
\setcounter{subparagraph}{0}
\setcounter{figure}{0}
\setcounter{table}{0}
\setcounter{Item}{31}
\setcounter{Hfootnote}{0}
\setcounter{bookmark@seq@number}{83}
\setcounter{lpart}{0}
\setcounter{lchapter}{1}
\setcounter{lsection}{0}
\setcounter{lsubsection}{0}
\setcounter{lsubsubsection}{0}
\setcounter{lparagraph}{0}
\setcounter{lsubparagraph}{0}
\setcounter{lsubsubparagraph}{0}
\setcounter{float@type}{4}
\setcounter{LT@tables}{0}
\setcounter{LT@chunks}{0}
\setcounter{vrcnt}{19}
\setcounter{section@level}{1}
}
