\relax 
\providecommand\hyper@newdestlabel[2]{}
\@writefile{toc}{\contentsline {chapter}{\numberline {2}Tips and Suggestions}{19}{chapter.2}}
\@writefile{lof}{\addvspace {10\p@ }}
\@writefile{lot}{\addvspace {10\p@ }}
\newlabel{TipsChapter}{{2}{19}{Tips and Suggestions}{chapter.2}{}}
\@writefile{general}{\indexentry{Tips and Suggestions }{19}}
\@writefile{general}{\indexentry{Suggestions!Tips and }{19}}
\newlabel{examples}{{2}{19}{Tips and Suggestions}{chapter.2}{}}
\@writefile{general}{\indexentry{Examples }{19}}
\@writefile{toc}{\contentsline {section}{\numberline {2.1}Upgrading Bacula Versions}{19}{section.2.1}}
\newlabel{upgrading}{{2.1}{19}{Upgrading Bacula Versions}{section.2.1}{}}
\@writefile{general}{\indexentry{Upgrading Bacula Versions }{19}}
\@writefile{general}{\indexentry{Versions!Upgrading Bacula }{19}}
\@writefile{general}{\indexentry{Upgrading}{19}}
\@writefile{toc}{\contentsline {section}{\numberline {2.2}Getting Notified of Job Completion}{19}{section.2.2}}
\newlabel{notification}{{2.2}{19}{Getting Notified of Job Completion}{section.2.2}{}}
\@writefile{general}{\indexentry{Getting Notified of Job Completion }{19}}
\@writefile{general}{\indexentry{Completion!Getting Notified of Job }{19}}
\newlabel{12@xvr}{{}{20}{Getting Notified of Job Completion}{section.2.2}{}}
\newlabel{12@vr}{{}{20}{Getting Notified of Job Completion}{section.2.2}{}}
\@writefile{toc}{\contentsline {section}{\numberline {2.3}Getting Email Notification to Work}{20}{section.2.3}}
\newlabel{email}{{2.3}{20}{Getting Email Notification to Work}{section.2.3}{}}
\@writefile{general}{\indexentry{Work!Getting Email Notification to }{20}}
\@writefile{general}{\indexentry{Getting Email Notification to Work }{20}}
\@writefile{toc}{\contentsline {section}{\numberline {2.4}Getting Notified that Bacula is Running}{21}{section.2.4}}
\newlabel{JobNotification}{{2.4}{21}{Getting Notified that Bacula is Running}{section.2.4}{}}
\@writefile{general}{\indexentry{Running!Getting Notified that Bacula is }{21}}
\@writefile{general}{\indexentry{Getting Notified that Bacula is Running }{21}}
\@writefile{toc}{\contentsline {section}{\numberline {2.5}Maintaining a Valid Bootstrap File}{22}{section.2.5}}
\newlabel{bootstrap}{{2.5}{22}{Maintaining a Valid Bootstrap File}{section.2.5}{}}
\@writefile{general}{\indexentry{Maintaining a Valid Bootstrap File }{22}}
\@writefile{general}{\indexentry{File!Maintaining a Valid Bootstrap }{22}}
\newlabel{13@xvr}{{}{22}{Maintaining a Valid Bootstrap File}{section.2.5}{}}
\newlabel{13@vr}{{}{22}{Maintaining a Valid Bootstrap File}{section.2.5}{}}
\newlabel{14@xvr}{{}{22}{Maintaining a Valid Bootstrap File}{section.2.5}{}}
\newlabel{14@vr}{{}{22}{Maintaining a Valid Bootstrap File}{section.2.5}{}}
\@writefile{toc}{\contentsline {section}{\numberline {2.6}Rejected Volumes After a Crash}{23}{section.2.6}}
\newlabel{RejectedVolumes}{{2.6}{23}{Rejected Volumes After a Crash}{section.2.6}{}}
\@writefile{general}{\indexentry{Crash!Rejected Volumes After a }{23}}
\@writefile{general}{\indexentry{Rejected Volumes After a Crash }{23}}
\@writefile{toc}{\contentsline {section}{\numberline {2.7}Security Considerations}{25}{section.2.7}}
\newlabel{security}{{2.7}{25}{Security Considerations}{section.2.7}{}}
\@writefile{general}{\indexentry{Considerations!Security }{25}}
\@writefile{general}{\indexentry{Security Considerations }{25}}
\newlabel{15@xvr}{{}{26}{Security Considerations}{section.2.7}{}}
\newlabel{15@vr}{{}{26}{Security Considerations}{section.2.7}{}}
\@writefile{toc}{\contentsline {section}{\numberline {2.8}Creating Holiday Schedules}{26}{section.2.8}}
\newlabel{holiday}{{2.8}{26}{Creating Holiday Schedules}{section.2.8}{}}
\@writefile{general}{\indexentry{Schedules!Creating Holiday }{26}}
\@writefile{general}{\indexentry{Creating Holiday Schedules }{26}}
\@writefile{toc}{\contentsline {section}{\numberline {2.9}Automatic Labeling Using Your Autochanger}{26}{section.2.9}}
\newlabel{autolabel}{{2.9}{26}{Automatic Labeling Using Your Autochanger}{section.2.9}{}}
\@writefile{general}{\indexentry{Automatic Labeling Using Your Autochanger }{26}}
\@writefile{general}{\indexentry{Autochanger!Automatic Labeling Using Your }{26}}
\@writefile{toc}{\contentsline {section}{\numberline {2.10}Backing Up Portables Using DHCP}{27}{section.2.10}}
\newlabel{DNS}{{2.10}{27}{Backing Up Portables Using DHCP}{section.2.10}{}}
\@writefile{general}{\indexentry{DHCP!Backing Up Portables Using }{27}}
\@writefile{general}{\indexentry{Backing Up Portables Using DHCP }{27}}
\@writefile{toc}{\contentsline {section}{\numberline {2.11}Going on Vacation}{27}{section.2.11}}
\newlabel{Vacation}{{2.11}{27}{Going on Vacation}{section.2.11}{}}
\@writefile{general}{\indexentry{Vacation!Going on }{27}}
\@writefile{general}{\indexentry{Going on Vacation }{27}}
\@writefile{toc}{\contentsline {section}{\numberline {2.12}Exclude Files on Windows Regardless of Case}{28}{section.2.12}}
\newlabel{Case}{{2.12}{28}{Exclude Files on Windows Regardless of Case}{section.2.12}{}}
\@writefile{general}{\indexentry{Exclude Files on Windows Regardless of Case}{28}}
\@writefile{toc}{\contentsline {section}{\numberline {2.13}Executing Scripts on a Remote Machine}{28}{section.2.13}}
\newlabel{RemoteExecution}{{2.13}{28}{Executing Scripts on a Remote Machine}{section.2.13}{}}
\@writefile{general}{\indexentry{Machine!Executing Scripts on a Remote }{28}}
\@writefile{general}{\indexentry{Executing Scripts on a Remote Machine }{28}}
\@writefile{toc}{\contentsline {section}{\numberline {2.14}Recycling All Your Volumes}{29}{section.2.14}}
\newlabel{recycle}{{2.14}{29}{Recycling All Your Volumes}{section.2.14}{}}
\@writefile{general}{\indexentry{Recycling All Your Volumes }{29}}
\@writefile{general}{\indexentry{Volumes!Recycling All Your }{29}}
\@writefile{toc}{\contentsline {section}{\numberline {2.15}Backing up ACLs on ext3 or XFS filesystems}{29}{section.2.15}}
\newlabel{ACLs}{{2.15}{29}{Backing up ACLs on ext3 or XFS filesystems}{section.2.15}{}}
\@writefile{general}{\indexentry{Filesystems!Backing up ACLs on ext3 or XFS }{29}}
\@writefile{general}{\indexentry{Backing up ACLs on ext3 or XFS filesystems }{29}}
\newlabel{16@xvr}{{}{29}{Backing up ACLs on ext3 or XFS filesystems}{section.2.15}{}}
\newlabel{16@vr}{{}{29}{Backing up ACLs on ext3 or XFS filesystems}{section.2.15}{}}
\@writefile{toc}{\contentsline {section}{\numberline {2.16}Total Automation of Bacula Tape Handling}{29}{section.2.16}}
\newlabel{automate}{{2.16}{29}{Total Automation of Bacula Tape Handling}{section.2.16}{}}
\@writefile{general}{\indexentry{Handling!Total Automation of Bacula Tape }{29}}
\@writefile{general}{\indexentry{Total Automation of Bacula Tape Handling }{29}}
\@writefile{toc}{\contentsline {section}{\numberline {2.17}Running Concurrent Jobs}{30}{section.2.17}}
\newlabel{ConcurrentJobs}{{2.17}{30}{Running Concurrent Jobs}{section.2.17}{}}
\@writefile{general}{\indexentry{Jobs!Running Concurrent}{30}}
\@writefile{general}{\indexentry{Running Concurrent Jobs}{30}}
\@writefile{general}{\indexentry{Concurrent Jobs}{30}}
\newlabel{17@xvr}{{}{30}{Running Concurrent Jobs}{section.2.17}{}}
\newlabel{17@vr}{{}{30}{Running Concurrent Jobs}{section.2.17}{}}
\@setckpt{tips}{
\setcounter{page}{32}
\setcounter{equation}{0}
\setcounter{enumi}{2}
\setcounter{enumii}{0}
\setcounter{enumiii}{0}
\setcounter{enumiv}{0}
\setcounter{footnote}{0}
\setcounter{mpfootnote}{0}
\setcounter{part}{0}
\setcounter{chapter}{2}
\setcounter{section}{17}
\setcounter{subsection}{0}
\setcounter{subsubsection}{0}
\setcounter{paragraph}{0}
\setcounter{subparagraph}{0}
\setcounter{figure}{0}
\setcounter{table}{0}
\setcounter{Item}{6}
\setcounter{Hfootnote}{0}
\setcounter{bookmark@seq@number}{55}
\setcounter{lpart}{0}
\setcounter{lchapter}{1}
\setcounter{lsection}{0}
\setcounter{lsubsection}{0}
\setcounter{lsubsubsection}{0}
\setcounter{lparagraph}{0}
\setcounter{lsubparagraph}{0}
\setcounter{lsubsubparagraph}{0}
\setcounter{float@type}{4}
\setcounter{LT@tables}{0}
\setcounter{LT@chunks}{0}
\setcounter{vrcnt}{17}
\setcounter{section@level}{1}
}
