%!PS-Adobe-2.0 EPSF-2.0
%%Title: /home/eric/dev/images/different_time.dia
%%Creator: Dia v0.96.1
%%CreationDate: Thu Oct  2 17:54:36 2008
%%For: eric
%%Orientation: Portrait
%%Magnification: 1.0000
%%BoundingBox: 0 0 939 498
%%BeginSetup
%%EndSetup
%%EndComments
%%BeginProlog
[ /.notdef /.notdef /.notdef /.notdef /.notdef /.notdef /.notdef /.notdef /.notdef /.notdef
/.notdef /.notdef /.notdef /.notdef /.notdef /.notdef /.notdef /.notdef /.notdef /.notdef
/.notdef /.notdef /.notdef /.notdef /.notdef /.notdef /.notdef /.notdef /.notdef /.notdef
/.notdef /.notdef /space /exclam /quotedbl /numbersign /dollar /percent /ampersand /quoteright
/parenleft /parenright /asterisk /plus /comma /hyphen /period /slash /zero /one
/two /three /four /five /six /seven /eight /nine /colon /semicolon
/less /equal /greater /question /at /A /B /C /D /E
/F /G /H /I /J /K /L /M /N /O
/P /Q /R /S /T /U /V /W /X /Y
/Z /bracketleft /backslash /bracketright /asciicircum /underscore /quoteleft /a /b /c
/d /e /f /g /h /i /j /k /l /m
/n /o /p /q /r /s /t /u /v /w
/x /y /z /braceleft /bar /braceright /asciitilde /.notdef /.notdef /.notdef
/.notdef /.notdef /.notdef /.notdef /.notdef /.notdef /.notdef /.notdef /.notdef /.notdef
/.notdef /.notdef /.notdef /.notdef /.notdef /.notdef /.notdef /.notdef /.notdef /.notdef
/.notdef /.notdef /.notdef /.notdef /.notdef /.notdef /.notdef /.notdef /.notdef /.notdef
/space /exclamdown /cent /sterling /currency /yen /brokenbar /section /dieresis /copyright
/ordfeminine /guillemotleft /logicalnot /hyphen /registered /macron /degree /plusminus /twosuperior /threesuperior
/acute /mu /paragraph /periodcentered /cedilla /onesuperior /ordmasculine /guillemotright /onequarter /onehalf
/threequarters /questiondown /Agrave /Aacute /Acircumflex /Atilde /Adieresis /Aring /AE /Ccedilla
/Egrave /Eacute /Ecircumflex /Edieresis /Igrave /Iacute /Icircumflex /Idieresis /Eth /Ntilde
/Ograve /Oacute /Ocircumflex /Otilde /Odieresis /multiply /Oslash /Ugrave /Uacute /Ucircumflex
/Udieresis /Yacute /Thorn /germandbls /agrave /aacute /acircumflex /atilde /adieresis /aring
/ae /ccedilla /egrave /eacute /ecircumflex /edieresis /igrave /iacute /icircumflex /idieresis
/eth /ntilde /ograve /oacute /ocircumflex /otilde /odieresis /divide /oslash /ugrave
/uacute /ucircumflex /udieresis /yacute /thorn /ydieresis] /isolatin1encoding exch def
/cp {closepath} bind def
/c {curveto} bind def
/f {fill} bind def
/a {arc} bind def
/ef {eofill} bind def
/ex {exch} bind def
/gr {grestore} bind def
/gs {gsave} bind def
/sa {save} bind def
/rs {restore} bind def
/l {lineto} bind def
/m {moveto} bind def
/rm {rmoveto} bind def
/n {newpath} bind def
/s {stroke} bind def
/sh {show} bind def
/slc {setlinecap} bind def
/slj {setlinejoin} bind def
/slw {setlinewidth} bind def
/srgb {setrgbcolor} bind def
/rot {rotate} bind def
/sc {scale} bind def
/sd {setdash} bind def
/ff {findfont} bind def
/sf {setfont} bind def
/scf {scalefont} bind def
/sw {stringwidth pop} bind def
/tr {translate} bind def

/ellipsedict 8 dict def
ellipsedict /mtrx matrix put
/ellipse
{ ellipsedict begin
   /endangle exch def
   /startangle exch def
   /yrad exch def
   /xrad exch def
   /y exch def
   /x exch def   /savematrix mtrx currentmatrix def
   x y tr xrad yrad sc
   0 0 1 startangle endangle arc
   savematrix setmatrix
   end
} def

/mergeprocs {
dup length
3 -1 roll
dup
length
dup
5 1 roll
3 -1 roll
add
array cvx
dup
3 -1 roll
0 exch
putinterval
dup
4 2 roll
putinterval
} bind def
/dpi_x 300 def
/dpi_y 300 def
/conicto {
    /to_y exch def
    /to_x exch def
    /conic_cntrl_y exch def
    /conic_cntrl_x exch def
    currentpoint
    /p0_y exch def
    /p0_x exch def
    /p1_x p0_x conic_cntrl_x p0_x sub 2 3 div mul add def
    /p1_y p0_y conic_cntrl_y p0_y sub 2 3 div mul add def
    /p2_x p1_x to_x p0_x sub 1 3 div mul add def
    /p2_y p1_y to_y p0_y sub 1 3 div mul add def
    p1_x p1_y p2_x p2_y to_x to_y curveto
} bind def
/start_ol { gsave 1.1 dpi_x div dup scale} bind def
/end_ol { closepath fill grestore } bind def
28.346000 -28.346000 scale
-4.950000 -19.997500 translate
%%EndProlog


0.100000 slw
[] 0 sd
[] 0 sd
0 slc
0.000000 0.000000 0.000000 srgb
n 5.000000 16.000000 m 37.513197 16.000000 l s
[] 0 sd
0 slj
0 slc
n 37.888197 16.000000 m 37.388197 16.250000 l 37.513197 16.000000 l 37.388197 15.750000 l ef
n 37.888197 16.000000 m 37.388197 16.250000 l 37.513197 16.000000 l 37.388197 15.750000 l cp s
gsave 36.000000 17.000000 translate 0.035278 -0.035278 scale
start_ol
0 3200 moveto
2752 3200 lineto
2752 2816 lineto
1600 2816 lineto
1600 0 lineto
1152 0 lineto
1152 2816 lineto
0 2816 lineto
0 3200 lineto
end_ol grestore 
gsave 36.337178 17.000000 translate 0.035278 -0.035278 scale
start_ol
384 2432 moveto
768 2432 lineto
768 0 lineto
384 0 lineto
384 2432 lineto
384 3328 moveto
768 3328 lineto
768 2816 lineto
384 2816 lineto
384 3328 lineto
end_ol grestore 
gsave 36.499525 17.000000 translate 0.035278 -0.035278 scale
start_ol
2304 1959 moveto
2456 2234 2667 2365 conicto
2878 2496 3165 2496 conicto
3550 2496 3759 2227 conicto
3968 1959 3968 1463 conicto
3968 0 lineto
3584 0 lineto
3584 1450 lineto
3584 1819 3455 1997 conicto
3327 2176 3064 2176 conicto
2742 2176 2555 1959 conicto
2368 1743 2368 1370 conicto
2368 0 lineto
1984 0 lineto
1984 1450 lineto
1984 1821 1855 1998 conicto
1727 2176 1459 2176 conicto
1142 2176 955 1958 conicto
768 1741 768 1370 conicto
768 0 lineto
384 0 lineto
384 2432 lineto
768 2432 lineto
768 2048 lineto
907 2278 1102 2387 conicto
1297 2496 1565 2496 conicto
1835 2496 2024 2358 conicto
2213 2221 2304 1959 conicto
end_ol grestore 
gsave 37.066494 17.000000 translate 0.035278 -0.035278 scale
start_ol
2496 1352 moveto
2496 1152 lineto
704 1152 lineto
730 714 950 485 conicto
1171 256 1565 256 conicto
1793 256 2007 320 conicto
2221 384 2432 512 conicto
2432 128 lineto
2215 34 1988 -15 conicto
1761 -64 1527 -64 conicto
941 -64 598 275 conicto
256 615 256 1194 conicto
256 1793 576 2144 conicto
897 2496 1441 2496 conicto
1928 2496 2212 2188 conicto
2496 1881 2496 1352 conicto
2112 1472 moveto
2108 1793 1932 1984 conicto
1757 2176 1468 2176 conicto
1140 2176 943 1991 conicto
747 1806 717 1470 conicto
2112 1472 lineto
end_ol grestore 
0.060000 slw
[] 0 sd
[] 0 sd
0 slj
0.886275 0.886275 0.886275 srgb
n 13.000000 13.000000 m 13.000000 14.000000 l 34.000000 14.000000 l 34.000000 13.000000 l f
n 13.000000 13.000000 m 13.000000 13.000000 0.000000 0.000000 180.000000 270.000000 ellipse f
n 34.000000 13.000000 m 34.000000 13.000000 0.000000 0.000000 270.000000 360.000000 ellipse f
n 13.000000 13.000000 m 13.000000 14.000000 l 34.000000 14.000000 l 34.000000 13.000000 l f
n 13.000000 14.000000 m 13.000000 14.000000 0.000000 0.000000 90.000000 180.000000 ellipse f
n 34.000000 14.000000 m 34.000000 14.000000 0.000000 0.000000 0.000000 90.000000 ellipse f
0.000000 0.000000 0.000000 srgb
n 13.000000 13.000000 m 34.000000 13.000000 l s
n 13.000000 14.000000 m 34.000000 14.000000 l s
n 13.000000 13.000000 0.000000 0.000000 180.000000 270.000000 ellipse s
n 34.000000 13.000000 0.000000 0.000000 270.000000 360.000000 ellipse s
n 13.000000 13.000000 m 13.000000 14.000000 l s
n 34.000000 13.000000 m 34.000000 14.000000 l s
n 13.000000 14.000000 0.000000 0.000000 90.000000 180.000000 ellipse s
n 34.000000 14.000000 0.000000 0.000000 0.000000 90.000000 ellipse s
0.070000 slw
[] 0 sd
[] 0 sd
0 slj
1.000000 1.000000 1.000000 srgb
n 7.000000 13.000000 m 7.000000 14.000000 l 13.000000 14.000000 l 13.000000 13.000000 l f
n 7.000000 13.000000 m 7.000000 13.000000 0.000000 0.000000 180.000000 270.000000 ellipse f
n 13.000000 13.000000 m 13.000000 13.000000 0.000000 0.000000 270.000000 360.000000 ellipse f
n 7.000000 13.000000 m 7.000000 14.000000 l 13.000000 14.000000 l 13.000000 13.000000 l f
n 7.000000 14.000000 m 7.000000 14.000000 0.000000 0.000000 90.000000 180.000000 ellipse f
n 13.000000 14.000000 m 13.000000 14.000000 0.000000 0.000000 0.000000 90.000000 ellipse f
0.000000 0.000000 0.000000 srgb
n 7.000000 13.000000 m 13.000000 13.000000 l s
n 7.000000 14.000000 m 13.000000 14.000000 l s
n 7.000000 13.000000 0.000000 0.000000 180.000000 270.000000 ellipse s
n 13.000000 13.000000 0.000000 0.000000 270.000000 360.000000 ellipse s
n 7.000000 13.000000 m 7.000000 14.000000 l s
n 13.000000 13.000000 m 13.000000 14.000000 l s
n 7.000000 14.000000 0.000000 0.000000 90.000000 180.000000 ellipse s
n 13.000000 14.000000 0.000000 0.000000 0.000000 90.000000 ellipse s
0.100000 slw
[0.200000] 0 sd
[0.200000] 0 sd
0 slc
n 7.000000 17.000000 m 7.000000 14.486803 l s
[] 0 sd
0 slj
0 slc
n 7.000000 14.111803 m 7.250000 14.611803 l 7.000000 14.486803 l 6.750000 14.611803 l ef
n 7.000000 14.111803 m 7.250000 14.611803 l 7.000000 14.486803 l 6.750000 14.611803 l cp s
gsave 5.000000 18.000000 translate 0.035278 -0.035278 scale
start_ol
2368 3072 moveto
2368 2624 lineto
2125 2753 1910 2816 conicto
1695 2880 1494 2880 conicto
1146 2880 957 2741 conicto
768 2603 768 2348 conicto
768 2134 893 2025 conicto
1019 1916 1369 1849 conicto
1627 1797 lineto
2105 1706 2332 1477 conicto
2560 1249 2560 865 conicto
2560 408 2248 172 conicto
1936 -64 1334 -64 conicto
1107 -64 850 -15 conicto
594 33 320 128 conicto
320 576 lineto
584 449 837 384 conicto
1091 320 1336 320 conicto
1708 320 1910 458 conicto
2112 597 2112 853 conicto
2112 1077 1969 1203 conicto
1827 1330 1502 1393 conicto
1243 1443 lineto
756 1541 538 1750 conicto
320 1960 320 2334 conicto
320 2766 617 3015 conicto
915 3264 1437 3264 conicto
1660 3264 1892 3216 conicto
2125 3168 2368 3072 conicto
end_ol grestore 
gsave 5.369648 18.000000 translate 0.035278 -0.035278 scale
start_ol
2176 2368 moveto
2176 1984 lineto
2010 2080 1843 2128 conicto
1676 2176 1506 2176 conicto
1125 2176 914 1924 conicto
704 1672 704 1216 conicto
704 760 914 508 conicto
1125 256 1506 256 conicto
1676 256 1843 304 conicto
2010 352 2176 448 conicto
2176 64 lineto
2009 0 1830 -32 conicto
1652 -64 1450 -64 conicto
902 -64 579 282 conicto
256 628 256 1216 conicto
256 1812 582 2154 conicto
908 2496 1476 2496 conicto
1660 2496 1835 2464 conicto
2011 2432 2176 2368 conicto
end_ol grestore 
gsave 5.689347 18.000000 translate 0.035278 -0.035278 scale
start_ol
2432 1463 moveto
2432 0 lineto
2048 0 lineto
2048 1450 lineto
2048 1814 1908 1995 conicto
1769 2176 1490 2176 conicto
1155 2176 961 1959 conicto
768 1743 768 1370 conicto
768 0 lineto
384 0 lineto
384 3328 lineto
768 3328 lineto
768 2048 lineto
914 2273 1111 2384 conicto
1309 2496 1568 2496 conicto
1994 2496 2213 2234 conicto
2432 1972 2432 1463 conicto
end_ol grestore 
gsave 6.058995 18.000000 translate 0.035278 -0.035278 scale
start_ol
2496 1352 moveto
2496 1152 lineto
704 1152 lineto
730 714 950 485 conicto
1171 256 1565 256 conicto
1793 256 2007 320 conicto
2221 384 2432 512 conicto
2432 128 lineto
2215 34 1988 -15 conicto
1761 -64 1527 -64 conicto
941 -64 598 275 conicto
256 615 256 1194 conicto
256 1793 576 2144 conicto
897 2496 1441 2496 conicto
1928 2496 2212 2188 conicto
2496 1881 2496 1352 conicto
2112 1472 moveto
2108 1793 1932 1984 conicto
1757 2176 1468 2176 conicto
1140 2176 943 1991 conicto
747 1806 717 1470 conicto
2112 1472 lineto
end_ol grestore 
gsave 6.416157 18.000000 translate 0.035278 -0.035278 scale
start_ol
2048 2048 moveto
2048 3328 lineto
2432 3328 lineto
2432 0 lineto
2048 0 lineto
2048 384 lineto
1921 157 1727 46 conicto
1533 -64 1261 -64 conicto
815 -64 535 288 conicto
256 641 256 1216 conicto
256 1791 535 2143 conicto
815 2496 1261 2496 conicto
1533 2496 1727 2385 conicto
1921 2275 2048 2048 conicto
704 1216 moveto
704 767 883 511 conicto
1062 256 1375 256 conicto
1688 256 1868 511 conicto
2048 767 2048 1216 conicto
2048 1665 1868 1920 conicto
1688 2176 1375 2176 conicto
1062 2176 883 1920 conicto
704 1665 704 1216 conicto
end_ol grestore 
gsave 6.785805 18.000000 translate 0.035278 -0.035278 scale
start_ol
384 967 moveto
384 2432 lineto
768 2432 lineto
768 982 lineto
768 619 907 437 conicto
1046 256 1325 256 conicto
1660 256 1854 472 conicto
2048 688 2048 1060 conicto
2048 2432 lineto
2432 2432 lineto
2432 0 lineto
2048 0 lineto
2048 384 lineto
1900 157 1705 46 conicto
1510 -64 1251 -64 conicto
825 -64 604 198 conicto
384 461 384 967 conicto
1395 2496 moveto
1395 2496 lineto
end_ol grestore 
gsave 7.155453 18.000000 translate 0.035278 -0.035278 scale
start_ol
384 3328 moveto
768 3328 lineto
768 0 lineto
384 0 lineto
384 3328 lineto
end_ol grestore 
gsave 7.317800 18.000000 translate 0.035278 -0.035278 scale
start_ol
2496 1352 moveto
2496 1152 lineto
704 1152 lineto
730 714 950 485 conicto
1171 256 1565 256 conicto
1793 256 2007 320 conicto
2221 384 2432 512 conicto
2432 128 lineto
2215 34 1988 -15 conicto
1761 -64 1527 -64 conicto
941 -64 598 275 conicto
256 615 256 1194 conicto
256 1793 576 2144 conicto
897 2496 1441 2496 conicto
1928 2496 2212 2188 conicto
2496 1881 2496 1352 conicto
2112 1472 moveto
2108 1793 1932 1984 conicto
1757 2176 1468 2176 conicto
1140 2176 943 1991 conicto
747 1806 717 1470 conicto
2112 1472 lineto
end_ol grestore 
gsave 7.674962 18.000000 translate 0.035278 -0.035278 scale
start_ol
2048 2048 moveto
2048 3328 lineto
2432 3328 lineto
2432 0 lineto
2048 0 lineto
2048 384 lineto
1921 157 1727 46 conicto
1533 -64 1261 -64 conicto
815 -64 535 288 conicto
256 641 256 1216 conicto
256 1791 535 2143 conicto
815 2496 1261 2496 conicto
1533 2496 1727 2385 conicto
1921 2275 2048 2048 conicto
704 1216 moveto
704 767 883 511 conicto
1062 256 1375 256 conicto
1688 256 1868 511 conicto
2048 767 2048 1216 conicto
2048 1665 1868 1920 conicto
1688 2176 1375 2176 conicto
1062 2176 883 1920 conicto
704 1665 704 1216 conicto
end_ol grestore 
gsave 8.044610 18.000000 translate 0.035278 -0.035278 scale
start_ol
end_ol grestore 
gsave 8.229430 18.000000 translate 0.035278 -0.035278 scale
start_ol
0 3200 moveto
2752 3200 lineto
2752 2816 lineto
1600 2816 lineto
1600 0 lineto
1152 0 lineto
1152 2816 lineto
0 2816 lineto
0 3200 lineto
end_ol grestore 
gsave 8.566608 18.000000 translate 0.035278 -0.035278 scale
start_ol
384 2432 moveto
768 2432 lineto
768 0 lineto
384 0 lineto
384 2432 lineto
384 3328 moveto
768 3328 lineto
768 2816 lineto
384 2816 lineto
384 3328 lineto
end_ol grestore 
gsave 8.728955 18.000000 translate 0.035278 -0.035278 scale
start_ol
2304 1959 moveto
2456 2234 2667 2365 conicto
2878 2496 3165 2496 conicto
3550 2496 3759 2227 conicto
3968 1959 3968 1463 conicto
3968 0 lineto
3584 0 lineto
3584 1450 lineto
3584 1819 3455 1997 conicto
3327 2176 3064 2176 conicto
2742 2176 2555 1959 conicto
2368 1743 2368 1370 conicto
2368 0 lineto
1984 0 lineto
1984 1450 lineto
1984 1821 1855 1998 conicto
1727 2176 1459 2176 conicto
1142 2176 955 1958 conicto
768 1741 768 1370 conicto
768 0 lineto
384 0 lineto
384 2432 lineto
768 2432 lineto
768 2048 lineto
907 2278 1102 2387 conicto
1297 2496 1565 2496 conicto
1835 2496 2024 2358 conicto
2213 2221 2304 1959 conicto
end_ol grestore 
gsave 9.295924 18.000000 translate 0.035278 -0.035278 scale
start_ol
2496 1352 moveto
2496 1152 lineto
704 1152 lineto
730 714 950 485 conicto
1171 256 1565 256 conicto
1793 256 2007 320 conicto
2221 384 2432 512 conicto
2432 128 lineto
2215 34 1988 -15 conicto
1761 -64 1527 -64 conicto
941 -64 598 275 conicto
256 615 256 1194 conicto
256 1793 576 2144 conicto
897 2496 1441 2496 conicto
1928 2496 2212 2188 conicto
2496 1881 2496 1352 conicto
2112 1472 moveto
2108 1793 1932 1984 conicto
1757 2176 1468 2176 conicto
1140 2176 943 1991 conicto
747 1806 717 1470 conicto
2112 1472 lineto
end_ol grestore 
0.100000 slw
[0.200000] 0 sd
[0.200000] 0 sd
0 slc
n 13.000000 17.000000 m 13.000000 14.486803 l s
[] 0 sd
0 slj
0 slc
n 13.000000 14.111803 m 13.250000 14.611803 l 13.000000 14.486803 l 12.750000 14.611803 l ef
n 13.000000 14.111803 m 13.250000 14.611803 l 13.000000 14.486803 l 12.750000 14.611803 l cp s
gsave 11.000000 18.000000 translate 0.035278 -0.035278 scale
start_ol
2368 3072 moveto
2368 2624 lineto
2125 2753 1910 2816 conicto
1695 2880 1494 2880 conicto
1146 2880 957 2741 conicto
768 2603 768 2348 conicto
768 2134 893 2025 conicto
1019 1916 1369 1849 conicto
1627 1797 lineto
2105 1706 2332 1477 conicto
2560 1249 2560 865 conicto
2560 408 2248 172 conicto
1936 -64 1334 -64 conicto
1107 -64 850 -15 conicto
594 33 320 128 conicto
320 576 lineto
584 449 837 384 conicto
1091 320 1336 320 conicto
1708 320 1910 458 conicto
2112 597 2112 853 conicto
2112 1077 1969 1203 conicto
1827 1330 1502 1393 conicto
1243 1443 lineto
756 1541 538 1750 conicto
320 1960 320 2334 conicto
320 2766 617 3015 conicto
915 3264 1437 3264 conicto
1660 3264 1892 3216 conicto
2125 3168 2368 3072 conicto
end_ol grestore 
gsave 11.369648 18.000000 translate 0.035278 -0.035278 scale
start_ol
768 3136 moveto
768 2432 lineto
1600 2432 lineto
1600 2112 lineto
768 2112 lineto
768 788 lineto
768 490 850 405 conicto
933 320 1185 320 conicto
1600 320 lineto
1600 0 lineto
1185 0 lineto
730 0 557 170 conicto
384 340 384 788 conicto
384 2112 lineto
64 2112 lineto
64 2432 lineto
384 2432 lineto
384 3136 lineto
768 3136 lineto
end_ol grestore 
gsave 11.596933 18.000000 translate 0.035278 -0.035278 scale
start_ol
1515 1216 moveto
1021 1216 830 1104 conicto
640 992 640 723 conicto
640 508 783 382 conicto
926 256 1171 256 conicto
1510 256 1715 494 conicto
1920 733 1920 1129 conicto
1920 1216 lineto
1515 1216 lineto
2304 1385 moveto
2304 0 lineto
1920 0 lineto
1920 384 lineto
1782 154 1577 45 conicto
1372 -64 1075 -64 conicto
699 -64 477 146 conicto
256 356 256 708 conicto
256 1119 530 1327 conicto
805 1536 1349 1536 conicto
1920 1536 lineto
1920 1578 lineto
1920 1864 1739 2020 conicto
1558 2176 1232 2176 conicto
1024 2176 827 2128 conicto
630 2080 448 1984 conicto
448 2368 lineto
665 2432 869 2464 conicto
1073 2496 1266 2496 conicto
1788 2496 2046 2220 conicto
2304 1945 2304 1385 conicto
end_ol grestore 
gsave 11.954096 18.000000 translate 0.035278 -0.035278 scale
start_ol
1792 2112 moveto
1725 2145 1645 2160 conicto
1566 2176 1470 2176 conicto
1131 2176 949 1944 conicto
768 1712 768 1277 conicto
768 0 lineto
384 0 lineto
384 2432 lineto
768 2432 lineto
768 2048 lineto
894 2275 1096 2385 conicto
1298 2496 1588 2496 conicto
1629 2496 1679 2496 conicto
1729 2496 1790 2496 conicto
1792 2112 lineto
end_ol grestore 
gsave 12.193866 18.000000 translate 0.035278 -0.035278 scale
start_ol
768 3136 moveto
768 2432 lineto
1600 2432 lineto
1600 2112 lineto
768 2112 lineto
768 788 lineto
768 490 850 405 conicto
933 320 1185 320 conicto
1600 320 lineto
1600 0 lineto
1185 0 lineto
730 0 557 170 conicto
384 340 384 788 conicto
384 2112 lineto
64 2112 lineto
64 2432 lineto
384 2432 lineto
384 3136 lineto
768 3136 lineto
end_ol grestore 
gsave 12.421151 18.000000 translate 0.035278 -0.035278 scale
start_ol
end_ol grestore 
gsave 12.605971 18.000000 translate 0.035278 -0.035278 scale
start_ol
0 3200 moveto
2752 3200 lineto
2752 2816 lineto
1600 2816 lineto
1600 0 lineto
1152 0 lineto
1152 2816 lineto
0 2816 lineto
0 3200 lineto
end_ol grestore 
gsave 12.943150 18.000000 translate 0.035278 -0.035278 scale
start_ol
384 2432 moveto
768 2432 lineto
768 0 lineto
384 0 lineto
384 2432 lineto
384 3328 moveto
768 3328 lineto
768 2816 lineto
384 2816 lineto
384 3328 lineto
end_ol grestore 
gsave 13.105496 18.000000 translate 0.035278 -0.035278 scale
start_ol
2304 1959 moveto
2456 2234 2667 2365 conicto
2878 2496 3165 2496 conicto
3550 2496 3759 2227 conicto
3968 1959 3968 1463 conicto
3968 0 lineto
3584 0 lineto
3584 1450 lineto
3584 1819 3455 1997 conicto
3327 2176 3064 2176 conicto
2742 2176 2555 1959 conicto
2368 1743 2368 1370 conicto
2368 0 lineto
1984 0 lineto
1984 1450 lineto
1984 1821 1855 1998 conicto
1727 2176 1459 2176 conicto
1142 2176 955 1958 conicto
768 1741 768 1370 conicto
768 0 lineto
384 0 lineto
384 2432 lineto
768 2432 lineto
768 2048 lineto
907 2278 1102 2387 conicto
1297 2496 1565 2496 conicto
1835 2496 2024 2358 conicto
2213 2221 2304 1959 conicto
end_ol grestore 
gsave 13.672465 18.000000 translate 0.035278 -0.035278 scale
start_ol
2496 1352 moveto
2496 1152 lineto
704 1152 lineto
730 714 950 485 conicto
1171 256 1565 256 conicto
1793 256 2007 320 conicto
2221 384 2432 512 conicto
2432 128 lineto
2215 34 1988 -15 conicto
1761 -64 1527 -64 conicto
941 -64 598 275 conicto
256 615 256 1194 conicto
256 1793 576 2144 conicto
897 2496 1441 2496 conicto
1928 2496 2212 2188 conicto
2496 1881 2496 1352 conicto
2112 1472 moveto
2108 1793 1932 1984 conicto
1757 2176 1468 2176 conicto
1140 2176 943 1991 conicto
747 1806 717 1470 conicto
2112 1472 lineto
end_ol grestore 
0.070000 slw
[] 0 sd
[] 0 sd
0 slj
0.717647 0.717647 0.717647 srgb
n 20.000000 13.000000 m 20.000000 14.000000 l 26.000000 14.000000 l 26.000000 13.000000 l f
n 20.000000 13.000000 m 20.000000 13.000000 0.000000 0.000000 180.000000 270.000000 ellipse f
n 26.000000 13.000000 m 26.000000 13.000000 0.000000 0.000000 270.000000 360.000000 ellipse f
n 20.000000 13.000000 m 20.000000 14.000000 l 26.000000 14.000000 l 26.000000 13.000000 l f
n 20.000000 14.000000 m 20.000000 14.000000 0.000000 0.000000 90.000000 180.000000 ellipse f
n 26.000000 14.000000 m 26.000000 14.000000 0.000000 0.000000 0.000000 90.000000 ellipse f
0.000000 0.000000 0.000000 srgb
n 20.000000 13.000000 m 26.000000 13.000000 l s
n 20.000000 14.000000 m 26.000000 14.000000 l s
n 20.000000 13.000000 0.000000 0.000000 180.000000 270.000000 ellipse s
n 26.000000 13.000000 0.000000 0.000000 270.000000 360.000000 ellipse s
n 20.000000 13.000000 m 20.000000 14.000000 l s
n 26.000000 13.000000 m 26.000000 14.000000 l s
n 20.000000 14.000000 0.000000 0.000000 90.000000 180.000000 ellipse s
n 26.000000 14.000000 0.000000 0.000000 0.000000 90.000000 ellipse s
gsave 14.950000 13.700000 translate 0.035278 -0.035278 scale
start_ol
2017 1504 moveto
2155 1456 2285 1299 conicto
2416 1143 2547 869 conicto
3008 0 lineto
2522 0 lineto
2120 816 lineto
1956 1135 1802 1239 conicto
1649 1344 1383 1344 conicto
896 1344 lineto
896 0 lineto
448 0 lineto
448 3200 lineto
1459 3200 lineto
2014 3200 2287 2971 conicto
2560 2742 2560 2280 conicto
2560 1979 2421 1780 conicto
2282 1581 2017 1504 conicto
896 2816 moveto
896 1728 lineto
1459 1728 lineto
1782 1728 1947 1866 conicto
2112 2005 2112 2274 conicto
2112 2543 1947 2679 conicto
1782 2816 1459 2816 conicto
896 2816 lineto
end_ol grestore 
gsave 15.329644 13.700000 translate 0.035278 -0.035278 scale
start_ol
384 967 moveto
384 2432 lineto
768 2432 lineto
768 982 lineto
768 619 907 437 conicto
1046 256 1325 256 conicto
1660 256 1854 472 conicto
2048 688 2048 1060 conicto
2048 2432 lineto
2432 2432 lineto
2432 0 lineto
2048 0 lineto
2048 384 lineto
1900 157 1705 46 conicto
1510 -64 1251 -64 conicto
825 -64 604 198 conicto
384 461 384 967 conicto
1395 2496 moveto
1395 2496 lineto
end_ol grestore 
gsave 15.699292 13.700000 translate 0.035278 -0.035278 scale
start_ol
2432 1463 moveto
2432 0 lineto
2048 0 lineto
2048 1450 lineto
2048 1814 1908 1995 conicto
1769 2176 1490 2176 conicto
1155 2176 961 1959 conicto
768 1743 768 1370 conicto
768 0 lineto
384 0 lineto
384 2432 lineto
768 2432 lineto
768 2048 lineto
914 2273 1111 2384 conicto
1309 2496 1568 2496 conicto
1994 2496 2213 2234 conicto
2432 1972 2432 1463 conicto
end_ol grestore 
gsave 16.068939 13.700000 translate 0.035278 -0.035278 scale
start_ol
end_ol grestore 
gsave 16.253759 13.700000 translate 0.035278 -0.035278 scale
start_ol
768 3136 moveto
768 2432 lineto
1600 2432 lineto
1600 2112 lineto
768 2112 lineto
768 788 lineto
768 490 850 405 conicto
933 320 1185 320 conicto
1600 320 lineto
1600 0 lineto
1185 0 lineto
730 0 557 170 conicto
384 340 384 788 conicto
384 2112 lineto
64 2112 lineto
64 2432 lineto
384 2432 lineto
384 3136 lineto
768 3136 lineto
end_ol grestore 
gsave 16.481045 13.700000 translate 0.035278 -0.035278 scale
start_ol
384 2432 moveto
768 2432 lineto
768 0 lineto
384 0 lineto
384 2432 lineto
384 3328 moveto
768 3328 lineto
768 2816 lineto
384 2816 lineto
384 3328 lineto
end_ol grestore 
gsave 16.643391 13.700000 translate 0.035278 -0.035278 scale
start_ol
2304 1959 moveto
2456 2234 2667 2365 conicto
2878 2496 3165 2496 conicto
3550 2496 3759 2227 conicto
3968 1959 3968 1463 conicto
3968 0 lineto
3584 0 lineto
3584 1450 lineto
3584 1819 3455 1997 conicto
3327 2176 3064 2176 conicto
2742 2176 2555 1959 conicto
2368 1743 2368 1370 conicto
2368 0 lineto
1984 0 lineto
1984 1450 lineto
1984 1821 1855 1998 conicto
1727 2176 1459 2176 conicto
1142 2176 955 1958 conicto
768 1741 768 1370 conicto
768 0 lineto
384 0 lineto
384 2432 lineto
768 2432 lineto
768 2048 lineto
907 2278 1102 2387 conicto
1297 2496 1565 2496 conicto
1835 2496 2024 2358 conicto
2213 2221 2304 1959 conicto
end_ol grestore 
gsave 17.210360 13.700000 translate 0.035278 -0.035278 scale
start_ol
2496 1352 moveto
2496 1152 lineto
704 1152 lineto
730 714 950 485 conicto
1171 256 1565 256 conicto
1793 256 2007 320 conicto
2221 384 2432 512 conicto
2432 128 lineto
2215 34 1988 -15 conicto
1761 -64 1527 -64 conicto
941 -64 598 275 conicto
256 615 256 1194 conicto
256 1793 576 2144 conicto
897 2496 1441 2496 conicto
1928 2496 2212 2188 conicto
2496 1881 2496 1352 conicto
2112 1472 moveto
2108 1793 1932 1984 conicto
1757 2176 1468 2176 conicto
1140 2176 943 1991 conicto
747 1806 717 1470 conicto
2112 1472 lineto
end_ol grestore 
gsave 28.950000 13.700000 translate 0.035278 -0.035278 scale
start_ol
2017 1504 moveto
2155 1456 2285 1299 conicto
2416 1143 2547 869 conicto
3008 0 lineto
2522 0 lineto
2120 816 lineto
1956 1135 1802 1239 conicto
1649 1344 1383 1344 conicto
896 1344 lineto
896 0 lineto
448 0 lineto
448 3200 lineto
1459 3200 lineto
2014 3200 2287 2971 conicto
2560 2742 2560 2280 conicto
2560 1979 2421 1780 conicto
2282 1581 2017 1504 conicto
896 2816 moveto
896 1728 lineto
1459 1728 lineto
1782 1728 1947 1866 conicto
2112 2005 2112 2274 conicto
2112 2543 1947 2679 conicto
1782 2816 1459 2816 conicto
896 2816 lineto
end_ol grestore 
gsave 29.329644 13.700000 translate 0.035278 -0.035278 scale
start_ol
384 967 moveto
384 2432 lineto
768 2432 lineto
768 982 lineto
768 619 907 437 conicto
1046 256 1325 256 conicto
1660 256 1854 472 conicto
2048 688 2048 1060 conicto
2048 2432 lineto
2432 2432 lineto
2432 0 lineto
2048 0 lineto
2048 384 lineto
1900 157 1705 46 conicto
1510 -64 1251 -64 conicto
825 -64 604 198 conicto
384 461 384 967 conicto
1395 2496 moveto
1395 2496 lineto
end_ol grestore 
gsave 29.699292 13.700000 translate 0.035278 -0.035278 scale
start_ol
2432 1463 moveto
2432 0 lineto
2048 0 lineto
2048 1450 lineto
2048 1814 1908 1995 conicto
1769 2176 1490 2176 conicto
1155 2176 961 1959 conicto
768 1743 768 1370 conicto
768 0 lineto
384 0 lineto
384 2432 lineto
768 2432 lineto
768 2048 lineto
914 2273 1111 2384 conicto
1309 2496 1568 2496 conicto
1994 2496 2213 2234 conicto
2432 1972 2432 1463 conicto
end_ol grestore 
gsave 30.068939 13.700000 translate 0.035278 -0.035278 scale
start_ol
end_ol grestore 
gsave 30.253759 13.700000 translate 0.035278 -0.035278 scale
start_ol
768 3136 moveto
768 2432 lineto
1600 2432 lineto
1600 2112 lineto
768 2112 lineto
768 788 lineto
768 490 850 405 conicto
933 320 1185 320 conicto
1600 320 lineto
1600 0 lineto
1185 0 lineto
730 0 557 170 conicto
384 340 384 788 conicto
384 2112 lineto
64 2112 lineto
64 2432 lineto
384 2432 lineto
384 3136 lineto
768 3136 lineto
end_ol grestore 
gsave 30.481045 13.700000 translate 0.035278 -0.035278 scale
start_ol
384 2432 moveto
768 2432 lineto
768 0 lineto
384 0 lineto
384 2432 lineto
384 3328 moveto
768 3328 lineto
768 2816 lineto
384 2816 lineto
384 3328 lineto
end_ol grestore 
gsave 30.643391 13.700000 translate 0.035278 -0.035278 scale
start_ol
2304 1959 moveto
2456 2234 2667 2365 conicto
2878 2496 3165 2496 conicto
3550 2496 3759 2227 conicto
3968 1959 3968 1463 conicto
3968 0 lineto
3584 0 lineto
3584 1450 lineto
3584 1819 3455 1997 conicto
3327 2176 3064 2176 conicto
2742 2176 2555 1959 conicto
2368 1743 2368 1370 conicto
2368 0 lineto
1984 0 lineto
1984 1450 lineto
1984 1821 1855 1998 conicto
1727 2176 1459 2176 conicto
1142 2176 955 1958 conicto
768 1741 768 1370 conicto
768 0 lineto
384 0 lineto
384 2432 lineto
768 2432 lineto
768 2048 lineto
907 2278 1102 2387 conicto
1297 2496 1565 2496 conicto
1835 2496 2024 2358 conicto
2213 2221 2304 1959 conicto
end_ol grestore 
gsave 31.210360 13.700000 translate 0.035278 -0.035278 scale
start_ol
2496 1352 moveto
2496 1152 lineto
704 1152 lineto
730 714 950 485 conicto
1171 256 1565 256 conicto
1793 256 2007 320 conicto
2221 384 2432 512 conicto
2432 128 lineto
2215 34 1988 -15 conicto
1761 -64 1527 -64 conicto
941 -64 598 275 conicto
256 615 256 1194 conicto
256 1793 576 2144 conicto
897 2496 1441 2496 conicto
1928 2496 2212 2188 conicto
2496 1881 2496 1352 conicto
2112 1472 moveto
2108 1793 1932 1984 conicto
1757 2176 1468 2176 conicto
1140 2176 943 1991 conicto
747 1806 717 1470 conicto
2112 1472 lineto
end_ol grestore 
0.100000 slw
[0.200000] 0 sd
[0.200000] 0 sd
0 slc
n 20.000000 17.000000 m 20.000000 14.486803 l s
[] 0 sd
0 slj
0 slc
n 20.000000 14.111803 m 20.250000 14.611803 l 20.000000 14.486803 l 19.750000 14.611803 l ef
n 20.000000 14.111803 m 20.250000 14.611803 l 20.000000 14.486803 l 19.750000 14.611803 l cp s
gsave 18.000000 18.000000 translate 0.035278 -0.035278 scale
start_ol
1536 2781 moveto
946 1216 lineto
2128 1216 lineto
1536 2781 lineto
1291 3200 moveto
1783 3200 lineto
3008 0 lineto
2556 0 lineto
2263 832 lineto
815 832 lineto
522 0 lineto
64 0 lineto
1291 3200 lineto
end_ol grestore 
gsave 18.397123 18.000000 translate 0.035278 -0.035278 scale
start_ol
1984 2368 moveto
1984 1984 lineto
1812 2080 1627 2128 conicto
1442 2176 1244 2176 conicto
942 2176 791 2083 conicto
640 1990 640 1804 conicto
640 1662 750 1581 conicto
861 1500 1196 1427 conicto
1339 1397 lineto
1759 1305 1935 1138 conicto
2112 972 2112 673 conicto
2112 333 1844 134 conicto
1576 -64 1108 -64 conicto
913 -64 701 -16 conicto
490 32 256 128 conicto
256 512 lineto
481 384 699 320 conicto
918 256 1132 256 conicto
1419 256 1573 355 conicto
1728 455 1728 636 conicto
1728 804 1614 893 conicto
1500 982 1113 1065 conicto
968 1097 lineto
591 1175 423 1336 conicto
256 1498 256 1780 conicto
256 2123 501 2309 conicto
747 2496 1199 2496 conicto
1423 2496 1620 2464 conicto
1817 2432 1984 2368 conicto
end_ol grestore 
gsave 18.699335 18.000000 translate 0.035278 -0.035278 scale
start_ol
384 3328 moveto
768 3328 lineto
768 1383 lineto
1933 2432 lineto
2432 2432 lineto
1171 1294 lineto
2496 0 lineto
1983 0 lineto
768 1188 lineto
768 0 lineto
384 0 lineto
384 3328 lineto
end_ol grestore 
gsave 19.036513 18.000000 translate 0.035278 -0.035278 scale
start_ol
end_ol grestore 
gsave 19.221333 18.000000 translate 0.035278 -0.035278 scale
start_ol
1984 2368 moveto
1984 1984 lineto
1812 2080 1627 2128 conicto
1442 2176 1244 2176 conicto
942 2176 791 2083 conicto
640 1990 640 1804 conicto
640 1662 750 1581 conicto
861 1500 1196 1427 conicto
1339 1397 lineto
1759 1305 1935 1138 conicto
2112 972 2112 673 conicto
2112 333 1844 134 conicto
1576 -64 1108 -64 conicto
913 -64 701 -16 conicto
490 32 256 128 conicto
256 512 lineto
481 384 699 320 conicto
918 256 1132 256 conicto
1419 256 1573 355 conicto
1728 455 1728 636 conicto
1728 804 1614 893 conicto
1500 982 1113 1065 conicto
968 1097 lineto
591 1175 423 1336 conicto
256 1498 256 1780 conicto
256 2123 501 2309 conicto
747 2496 1199 2496 conicto
1423 2496 1620 2464 conicto
1817 2432 1984 2368 conicto
end_ol grestore 
gsave 19.523545 18.000000 translate 0.035278 -0.035278 scale
start_ol
1414 -213 moveto
1242 -637 1079 -766 conicto
916 -896 643 -896 conicto
320 -896 lineto
320 -576 lineto
558 -576 lineto
725 -576 817 -500 conicto
910 -424 1022 -140 conicto
1094 42 lineto
128 2432 lineto
527 2432 lineto
1297 530 lineto
2067 2432 lineto
2496 2432 lineto
1414 -213 lineto
end_ol grestore 
gsave 19.868223 18.000000 translate 0.035278 -0.035278 scale
start_ol
1984 2368 moveto
1984 1984 lineto
1812 2080 1627 2128 conicto
1442 2176 1244 2176 conicto
942 2176 791 2083 conicto
640 1990 640 1804 conicto
640 1662 750 1581 conicto
861 1500 1196 1427 conicto
1339 1397 lineto
1759 1305 1935 1138 conicto
2112 972 2112 673 conicto
2112 333 1844 134 conicto
1576 -64 1108 -64 conicto
913 -64 701 -16 conicto
490 32 256 128 conicto
256 512 lineto
481 384 699 320 conicto
918 256 1132 256 conicto
1419 256 1573 355 conicto
1728 455 1728 636 conicto
1728 804 1614 893 conicto
1500 982 1113 1065 conicto
968 1097 lineto
591 1175 423 1336 conicto
256 1498 256 1780 conicto
256 2123 501 2309 conicto
747 2496 1199 2496 conicto
1423 2496 1620 2464 conicto
1817 2432 1984 2368 conicto
end_ol grestore 
gsave 20.170435 18.000000 translate 0.035278 -0.035278 scale
start_ol
1377 2176 moveto
1066 2176 885 1919 conicto
704 1663 704 1216 conicto
704 769 884 512 conicto
1064 256 1377 256 conicto
1686 256 1867 514 conicto
2048 772 2048 1216 conicto
2048 1658 1867 1917 conicto
1686 2176 1377 2176 conicto
1376 2496 moveto
1899 2496 2197 2156 conicto
2496 1817 2496 1216 conicto
2496 617 2197 276 conicto
1899 -64 1376 -64 conicto
851 -64 553 276 conicto
256 617 256 1216 conicto
256 1817 553 2156 conicto
851 2496 1376 2496 conicto
end_ol grestore 
gsave 20.527598 18.000000 translate 0.035278 -0.035278 scale
start_ol
768 384 moveto
768 -896 lineto
384 -896 lineto
384 2432 lineto
768 2432 lineto
768 2048 lineto
895 2275 1089 2385 conicto
1283 2496 1553 2496 conicto
2001 2496 2280 2143 conicto
2560 1791 2560 1216 conicto
2560 641 2280 288 conicto
2001 -64 1553 -64 conicto
1283 -64 1089 46 conicto
895 157 768 384 conicto
2112 1216 moveto
2112 1665 1932 1920 conicto
1753 2176 1440 2176 conicto
1127 2176 947 1920 conicto
768 1665 768 1216 conicto
768 767 947 511 conicto
1127 256 1440 256 conicto
1753 256 1932 511 conicto
2112 767 2112 1216 conicto
end_ol grestore 
gsave 20.897245 18.000000 translate 0.035278 -0.035278 scale
start_ol
end_ol grestore 
gsave 21.082065 18.000000 translate 0.035278 -0.035278 scale
start_ol
768 3136 moveto
768 2432 lineto
1600 2432 lineto
1600 2112 lineto
768 2112 lineto
768 788 lineto
768 490 850 405 conicto
933 320 1185 320 conicto
1600 320 lineto
1600 0 lineto
1185 0 lineto
730 0 557 170 conicto
384 340 384 788 conicto
384 2112 lineto
64 2112 lineto
64 2432 lineto
384 2432 lineto
384 3136 lineto
768 3136 lineto
end_ol grestore 
gsave 21.309350 18.000000 translate 0.035278 -0.035278 scale
start_ol
1377 2176 moveto
1066 2176 885 1919 conicto
704 1663 704 1216 conicto
704 769 884 512 conicto
1064 256 1377 256 conicto
1686 256 1867 514 conicto
2048 772 2048 1216 conicto
2048 1658 1867 1917 conicto
1686 2176 1377 2176 conicto
1376 2496 moveto
1899 2496 2197 2156 conicto
2496 1817 2496 1216 conicto
2496 617 2197 276 conicto
1899 -64 1376 -64 conicto
851 -64 553 276 conicto
256 617 256 1216 conicto
256 1817 553 2156 conicto
851 2496 1376 2496 conicto
end_ol grestore 
gsave 18.000000 18.800000 translate 0.035278 -0.035278 scale
start_ol
2304 1959 moveto
2456 2234 2667 2365 conicto
2878 2496 3165 2496 conicto
3550 2496 3759 2227 conicto
3968 1959 3968 1463 conicto
3968 0 lineto
3584 0 lineto
3584 1450 lineto
3584 1819 3455 1997 conicto
3327 2176 3064 2176 conicto
2742 2176 2555 1959 conicto
2368 1743 2368 1370 conicto
2368 0 lineto
1984 0 lineto
1984 1450 lineto
1984 1821 1855 1998 conicto
1727 2176 1459 2176 conicto
1142 2176 955 1958 conicto
768 1741 768 1370 conicto
768 0 lineto
384 0 lineto
384 2432 lineto
768 2432 lineto
768 2048 lineto
907 2278 1102 2387 conicto
1297 2496 1565 2496 conicto
1835 2496 2024 2358 conicto
2213 2221 2304 1959 conicto
end_ol grestore 
gsave 18.566969 18.800000 translate 0.035278 -0.035278 scale
start_ol
1377 2176 moveto
1066 2176 885 1919 conicto
704 1663 704 1216 conicto
704 769 884 512 conicto
1064 256 1377 256 conicto
1686 256 1867 514 conicto
2048 772 2048 1216 conicto
2048 1658 1867 1917 conicto
1686 2176 1377 2176 conicto
1376 2496 moveto
1899 2496 2197 2156 conicto
2496 1817 2496 1216 conicto
2496 617 2197 276 conicto
1899 -64 1376 -64 conicto
851 -64 553 276 conicto
256 617 256 1216 conicto
256 1817 553 2156 conicto
851 2496 1376 2496 conicto
end_ol grestore 
gsave 18.924132 18.800000 translate 0.035278 -0.035278 scale
start_ol
384 967 moveto
384 2432 lineto
768 2432 lineto
768 982 lineto
768 619 907 437 conicto
1046 256 1325 256 conicto
1660 256 1854 472 conicto
2048 688 2048 1060 conicto
2048 2432 lineto
2432 2432 lineto
2432 0 lineto
2048 0 lineto
2048 384 lineto
1900 157 1705 46 conicto
1510 -64 1251 -64 conicto
825 -64 604 198 conicto
384 461 384 967 conicto
1395 2496 moveto
1395 2496 lineto
end_ol grestore 
gsave 19.293779 18.800000 translate 0.035278 -0.035278 scale
start_ol
2432 1463 moveto
2432 0 lineto
2048 0 lineto
2048 1450 lineto
2048 1814 1908 1995 conicto
1769 2176 1490 2176 conicto
1155 2176 961 1959 conicto
768 1743 768 1370 conicto
768 0 lineto
384 0 lineto
384 2432 lineto
768 2432 lineto
768 2048 lineto
914 2273 1111 2384 conicto
1309 2496 1568 2496 conicto
1994 2496 2213 2234 conicto
2432 1972 2432 1463 conicto
end_ol grestore 
gsave 19.663427 18.800000 translate 0.035278 -0.035278 scale
start_ol
768 3136 moveto
768 2432 lineto
1600 2432 lineto
1600 2112 lineto
768 2112 lineto
768 788 lineto
768 490 850 405 conicto
933 320 1185 320 conicto
1600 320 lineto
1600 0 lineto
1185 0 lineto
730 0 557 170 conicto
384 340 384 788 conicto
384 2112 lineto
64 2112 lineto
64 2432 lineto
384 2432 lineto
384 3136 lineto
768 3136 lineto
end_ol grestore 
gsave 19.890712 18.800000 translate 0.035278 -0.035278 scale
start_ol
end_ol grestore 
gsave 20.075532 18.800000 translate 0.035278 -0.035278 scale
start_ol
2432 1463 moveto
2432 0 lineto
2048 0 lineto
2048 1450 lineto
2048 1814 1908 1995 conicto
1769 2176 1490 2176 conicto
1155 2176 961 1959 conicto
768 1743 768 1370 conicto
768 0 lineto
384 0 lineto
384 2432 lineto
768 2432 lineto
768 2048 lineto
914 2273 1111 2384 conicto
1309 2496 1568 2496 conicto
1994 2496 2213 2234 conicto
2432 1972 2432 1463 conicto
end_ol grestore 
gsave 20.445180 18.800000 translate 0.035278 -0.035278 scale
start_ol
2496 1352 moveto
2496 1152 lineto
704 1152 lineto
730 714 950 485 conicto
1171 256 1565 256 conicto
1793 256 2007 320 conicto
2221 384 2432 512 conicto
2432 128 lineto
2215 34 1988 -15 conicto
1761 -64 1527 -64 conicto
941 -64 598 275 conicto
256 615 256 1194 conicto
256 1793 576 2144 conicto
897 2496 1441 2496 conicto
1928 2496 2212 2188 conicto
2496 1881 2496 1352 conicto
2112 1472 moveto
2108 1793 1932 1984 conicto
1757 2176 1468 2176 conicto
1140 2176 943 1991 conicto
747 1806 717 1470 conicto
2112 1472 lineto
end_ol grestore 
gsave 20.792355 18.800000 translate 0.035278 -0.035278 scale
start_ol
2432 2432 moveto
1550 1249 lineto
2496 0 lineto
2016 0 lineto
1295 955 lineto
594 0 lineto
128 0 lineto
1059 1272 lineto
192 2432 lineto
665 2432 lineto
1312 1566 lineto
1959 2432 lineto
2432 2432 lineto
end_ol grestore 
gsave 21.137032 18.800000 translate 0.035278 -0.035278 scale
start_ol
768 3136 moveto
768 2432 lineto
1600 2432 lineto
1600 2112 lineto
768 2112 lineto
768 788 lineto
768 490 850 405 conicto
933 320 1185 320 conicto
1600 320 lineto
1600 0 lineto
1185 0 lineto
730 0 557 170 conicto
384 340 384 788 conicto
384 2112 lineto
64 2112 lineto
64 2432 lineto
384 2432 lineto
384 3136 lineto
768 3136 lineto
end_ol grestore 
gsave 18.000000 19.600000 translate 0.035278 -0.035278 scale
start_ol
128 2432 moveto
552 2432 lineto
1312 391 lineto
2072 2432 lineto
2496 2432 lineto
1584 0 lineto
1040 0 lineto
128 2432 lineto
end_ol grestore 
gsave 18.344678 19.600000 translate 0.035278 -0.035278 scale
start_ol
1377 2176 moveto
1066 2176 885 1919 conicto
704 1663 704 1216 conicto
704 769 884 512 conicto
1064 256 1377 256 conicto
1686 256 1867 514 conicto
2048 772 2048 1216 conicto
2048 1658 1867 1917 conicto
1686 2176 1377 2176 conicto
1376 2496 moveto
1899 2496 2197 2156 conicto
2496 1817 2496 1216 conicto
2496 617 2197 276 conicto
1899 -64 1376 -64 conicto
851 -64 553 276 conicto
256 617 256 1216 conicto
256 1817 553 2156 conicto
851 2496 1376 2496 conicto
end_ol grestore 
gsave 18.701840 19.600000 translate 0.035278 -0.035278 scale
start_ol
384 3328 moveto
768 3328 lineto
768 0 lineto
384 0 lineto
384 3328 lineto
end_ol grestore 
gsave 18.864187 19.600000 translate 0.035278 -0.035278 scale
start_ol
384 967 moveto
384 2432 lineto
768 2432 lineto
768 982 lineto
768 619 907 437 conicto
1046 256 1325 256 conicto
1660 256 1854 472 conicto
2048 688 2048 1060 conicto
2048 2432 lineto
2432 2432 lineto
2432 0 lineto
2048 0 lineto
2048 384 lineto
1900 157 1705 46 conicto
1510 -64 1251 -64 conicto
825 -64 604 198 conicto
384 461 384 967 conicto
1395 2496 moveto
1395 2496 lineto
end_ol grestore 
gsave 19.233835 19.600000 translate 0.035278 -0.035278 scale
start_ol
2304 1959 moveto
2456 2234 2667 2365 conicto
2878 2496 3165 2496 conicto
3550 2496 3759 2227 conicto
3968 1959 3968 1463 conicto
3968 0 lineto
3584 0 lineto
3584 1450 lineto
3584 1819 3455 1997 conicto
3327 2176 3064 2176 conicto
2742 2176 2555 1959 conicto
2368 1743 2368 1370 conicto
2368 0 lineto
1984 0 lineto
1984 1450 lineto
1984 1821 1855 1998 conicto
1727 2176 1459 2176 conicto
1142 2176 955 1958 conicto
768 1741 768 1370 conicto
768 0 lineto
384 0 lineto
384 2432 lineto
768 2432 lineto
768 2048 lineto
907 2278 1102 2387 conicto
1297 2496 1565 2496 conicto
1835 2496 2024 2358 conicto
2213 2221 2304 1959 conicto
end_ol grestore 
gsave 19.800804 19.600000 translate 0.035278 -0.035278 scale
start_ol
2496 1352 moveto
2496 1152 lineto
704 1152 lineto
730 714 950 485 conicto
1171 256 1565 256 conicto
1793 256 2007 320 conicto
2221 384 2432 512 conicto
2432 128 lineto
2215 34 1988 -15 conicto
1761 -64 1527 -64 conicto
941 -64 598 275 conicto
256 615 256 1194 conicto
256 1793 576 2144 conicto
897 2496 1441 2496 conicto
1928 2496 2212 2188 conicto
2496 1881 2496 1352 conicto
2112 1472 moveto
2108 1793 1932 1984 conicto
1757 2176 1468 2176 conicto
1140 2176 943 1991 conicto
747 1806 717 1470 conicto
2112 1472 lineto
end_ol grestore 
gsave 21.600000 13.750000 translate 0.035278 -0.035278 scale
start_ol
896 1536 moveto
896 384 lineto
1597 384 lineto
1957 384 2130 526 conicto
2304 668 2304 961 conicto
2304 1256 2130 1396 conicto
1957 1536 1597 1536 conicto
896 1536 lineto
896 2816 moveto
896 1920 lineto
1542 1920 lineto
1862 1920 2019 2030 conicto
2176 2141 2176 2368 conicto
2176 2593 2019 2704 conicto
1862 2816 1542 2816 conicto
896 2816 lineto
448 3200 moveto
1575 3200 lineto
2079 3200 2351 2998 conicto
2624 2796 2624 2423 conicto
2624 2134 2483 1963 conicto
2343 1793 2070 1751 conicto
2394 1681 2573 1460 conicto
2752 1240 2752 909 conicto
2752 474 2457 237 conicto
2162 0 1618 0 conicto
448 0 lineto
448 3200 lineto
end_ol grestore 
gsave 21.999620 13.750000 translate 0.035278 -0.035278 scale
start_ol
384 3328 moveto
768 3328 lineto
768 0 lineto
384 0 lineto
384 3328 lineto
end_ol grestore 
gsave 22.161967 13.750000 translate 0.035278 -0.035278 scale
start_ol
1377 2176 moveto
1066 2176 885 1919 conicto
704 1663 704 1216 conicto
704 769 884 512 conicto
1064 256 1377 256 conicto
1686 256 1867 514 conicto
2048 772 2048 1216 conicto
2048 1658 1867 1917 conicto
1686 2176 1377 2176 conicto
1376 2496 moveto
1899 2496 2197 2156 conicto
2496 1817 2496 1216 conicto
2496 617 2197 276 conicto
1899 -64 1376 -64 conicto
851 -64 553 276 conicto
256 617 256 1216 conicto
256 1817 553 2156 conicto
851 2496 1376 2496 conicto
end_ol grestore 
gsave 22.519129 13.750000 translate 0.035278 -0.035278 scale
start_ol
2176 2368 moveto
2176 1984 lineto
2010 2080 1843 2128 conicto
1676 2176 1506 2176 conicto
1125 2176 914 1924 conicto
704 1672 704 1216 conicto
704 760 914 508 conicto
1125 256 1506 256 conicto
1676 256 1843 304 conicto
2010 352 2176 448 conicto
2176 64 lineto
2009 0 1830 -32 conicto
1652 -64 1450 -64 conicto
902 -64 579 282 conicto
256 628 256 1216 conicto
256 1812 582 2154 conicto
908 2496 1476 2496 conicto
1660 2496 1835 2464 conicto
2011 2432 2176 2368 conicto
end_ol grestore 
gsave 22.838829 13.750000 translate 0.035278 -0.035278 scale
start_ol
384 3328 moveto
768 3328 lineto
768 1383 lineto
1933 2432 lineto
2432 2432 lineto
1171 1294 lineto
2496 0 lineto
1983 0 lineto
768 1188 lineto
768 0 lineto
384 0 lineto
384 3328 lineto
end_ol grestore 
gsave 23.156031 13.750000 translate 0.035278 -0.035278 scale
start_ol
2496 1352 moveto
2496 1152 lineto
704 1152 lineto
730 714 950 485 conicto
1171 256 1565 256 conicto
1793 256 2007 320 conicto
2221 384 2432 512 conicto
2432 128 lineto
2215 34 1988 -15 conicto
1761 -64 1527 -64 conicto
941 -64 598 275 conicto
256 615 256 1194 conicto
256 1793 576 2144 conicto
897 2496 1441 2496 conicto
1928 2496 2212 2188 conicto
2496 1881 2496 1352 conicto
2112 1472 moveto
2108 1793 1932 1984 conicto
1757 2176 1468 2176 conicto
1140 2176 943 1991 conicto
747 1806 717 1470 conicto
2112 1472 lineto
end_ol grestore 
gsave 23.513194 13.750000 translate 0.035278 -0.035278 scale
start_ol
2048 2048 moveto
2048 3328 lineto
2432 3328 lineto
2432 0 lineto
2048 0 lineto
2048 384 lineto
1921 157 1727 46 conicto
1533 -64 1261 -64 conicto
815 -64 535 288 conicto
256 641 256 1216 conicto
256 1791 535 2143 conicto
815 2496 1261 2496 conicto
1533 2496 1727 2385 conicto
1921 2275 2048 2048 conicto
704 1216 moveto
704 767 883 511 conicto
1062 256 1375 256 conicto
1688 256 1868 511 conicto
2048 767 2048 1216 conicto
2048 1665 1868 1920 conicto
1688 2176 1375 2176 conicto
1062 2176 883 1920 conicto
704 1665 704 1216 conicto
end_ol grestore 
0.100000 slw
[0.200000] 0 sd
[0.200000] 0 sd
0 slc
n 7.000000 13.000000 m 7.000000 3.000000 l s
0.100000 slw
[0.200000] 0 sd
[0.200000] 0 sd
0 slc
n 13.000000 13.000000 m 13.000000 3.000000 l s
0.100000 slw
[0.200000] 0 sd
[0.200000] 0 sd
0 slc
n 20.000000 13.000000 m 20.000000 3.000000 l s
0.100000 slw
[0.200000] 0 sd
[0.200000] 0 sd
0 slc
n 26.000000 13.000000 m 26.000000 3.000000 l s
0.100000 slw
[0.200000] 0 sd
[0.200000] 0 sd
0 slc
n 34.000000 13.000000 m 34.000000 3.000000 l s
0.100000 slw
[0.200000] 0 sd
[0.200000] 0 sd
0 slc
n 34.000000 17.000000 m 34.000000 14.486803 l s
[] 0 sd
0 slj
0 slc
n 34.000000 14.111803 m 34.250000 14.611803 l 34.000000 14.486803 l 33.750000 14.611803 l ef
n 34.000000 14.111803 m 34.250000 14.611803 l 34.000000 14.486803 l 33.750000 14.611803 l cp s
gsave 33.000000 18.000000 translate 0.035278 -0.035278 scale
start_ol
448 3200 moveto
2432 3200 lineto
2432 2816 lineto
896 2816 lineto
896 1920 lineto
2368 1920 lineto
2368 1536 lineto
896 1536 lineto
896 384 lineto
2496 384 lineto
2496 0 lineto
448 0 lineto
448 3200 lineto
end_ol grestore 
gsave 33.367151 18.000000 translate 0.035278 -0.035278 scale
start_ol
2432 1463 moveto
2432 0 lineto
2048 0 lineto
2048 1450 lineto
2048 1814 1908 1995 conicto
1769 2176 1490 2176 conicto
1155 2176 961 1959 conicto
768 1743 768 1370 conicto
768 0 lineto
384 0 lineto
384 2432 lineto
768 2432 lineto
768 2048 lineto
914 2273 1111 2384 conicto
1309 2496 1568 2496 conicto
1994 2496 2213 2234 conicto
2432 1972 2432 1463 conicto
end_ol grestore 
gsave 33.736798 18.000000 translate 0.035278 -0.035278 scale
start_ol
2048 2048 moveto
2048 3328 lineto
2432 3328 lineto
2432 0 lineto
2048 0 lineto
2048 384 lineto
1921 157 1727 46 conicto
1533 -64 1261 -64 conicto
815 -64 535 288 conicto
256 641 256 1216 conicto
256 1791 535 2143 conicto
815 2496 1261 2496 conicto
1533 2496 1727 2385 conicto
1921 2275 2048 2048 conicto
704 1216 moveto
704 767 883 511 conicto
1062 256 1375 256 conicto
1688 256 1868 511 conicto
2048 767 2048 1216 conicto
2048 1665 1868 1920 conicto
1688 2176 1375 2176 conicto
1062 2176 883 1920 conicto
704 1665 704 1216 conicto
end_ol grestore 
gsave 34.106446 18.000000 translate 0.035278 -0.035278 scale
start_ol
end_ol grestore 
gsave 34.291266 18.000000 translate 0.035278 -0.035278 scale
start_ol
0 3200 moveto
2752 3200 lineto
2752 2816 lineto
1600 2816 lineto
1600 0 lineto
1152 0 lineto
1152 2816 lineto
0 2816 lineto
0 3200 lineto
end_ol grestore 
gsave 34.628444 18.000000 translate 0.035278 -0.035278 scale
start_ol
384 2432 moveto
768 2432 lineto
768 0 lineto
384 0 lineto
384 2432 lineto
384 3328 moveto
768 3328 lineto
768 2816 lineto
384 2816 lineto
384 3328 lineto
end_ol grestore 
gsave 34.790791 18.000000 translate 0.035278 -0.035278 scale
start_ol
2304 1959 moveto
2456 2234 2667 2365 conicto
2878 2496 3165 2496 conicto
3550 2496 3759 2227 conicto
3968 1959 3968 1463 conicto
3968 0 lineto
3584 0 lineto
3584 1450 lineto
3584 1819 3455 1997 conicto
3327 2176 3064 2176 conicto
2742 2176 2555 1959 conicto
2368 1743 2368 1370 conicto
2368 0 lineto
1984 0 lineto
1984 1450 lineto
1984 1821 1855 1998 conicto
1727 2176 1459 2176 conicto
1142 2176 955 1958 conicto
768 1741 768 1370 conicto
768 0 lineto
384 0 lineto
384 2432 lineto
768 2432 lineto
768 2048 lineto
907 2278 1102 2387 conicto
1297 2496 1565 2496 conicto
1835 2496 2024 2358 conicto
2213 2221 2304 1959 conicto
end_ol grestore 
gsave 35.357760 18.000000 translate 0.035278 -0.035278 scale
start_ol
2496 1352 moveto
2496 1152 lineto
704 1152 lineto
730 714 950 485 conicto
1171 256 1565 256 conicto
1793 256 2007 320 conicto
2221 384 2432 512 conicto
2432 128 lineto
2215 34 1988 -15 conicto
1761 -64 1527 -64 conicto
941 -64 598 275 conicto
256 615 256 1194 conicto
256 1793 576 2144 conicto
897 2496 1441 2496 conicto
1928 2496 2212 2188 conicto
2496 1881 2496 1352 conicto
2112 1472 moveto
2108 1793 1932 1984 conicto
1757 2176 1468 2176 conicto
1140 2176 943 1991 conicto
747 1806 717 1470 conicto
2112 1472 lineto
end_ol grestore 
0.100000 slw
[] 0 sd
[] 0 sd
0 slc
n 13.000000 9.000000 m 33.776393 9.000000 l s
0.100000 slw
[] 0 sd
0 slj
0 slc
n 33.388197 9.250000 m 33.888197 9.000000 l 33.388197 8.750000 l s
gsave 14.000000 8.000000 translate 0.035278 -0.035278 scale
start_ol
448 3200 moveto
1117 3200 lineto
1919 1043 lineto
2725 3200 lineto
3392 3200 lineto
3392 0 lineto
2944 0 lineto
2944 2814 lineto
2134 640 lineto
1706 640 lineto
896 2814 lineto
896 0 lineto
448 0 lineto
448 3200 lineto
end_ol grestore 
gsave 14.502030 8.000000 translate 0.035278 -0.035278 scale
start_ol
1515 1216 moveto
1021 1216 830 1104 conicto
640 992 640 723 conicto
640 508 783 382 conicto
926 256 1171 256 conicto
1510 256 1715 494 conicto
1920 733 1920 1129 conicto
1920 1216 lineto
1515 1216 lineto
2304 1385 moveto
2304 0 lineto
1920 0 lineto
1920 384 lineto
1782 154 1577 45 conicto
1372 -64 1075 -64 conicto
699 -64 477 146 conicto
256 356 256 708 conicto
256 1119 530 1327 conicto
805 1536 1349 1536 conicto
1920 1536 lineto
1920 1578 lineto
1920 1864 1739 2020 conicto
1558 2176 1232 2176 conicto
1024 2176 827 2128 conicto
630 2080 448 1984 conicto
448 2368 lineto
665 2432 869 2464 conicto
1073 2496 1266 2496 conicto
1788 2496 2046 2220 conicto
2304 1945 2304 1385 conicto
end_ol grestore 
gsave 14.859193 8.000000 translate 0.035278 -0.035278 scale
start_ol
2432 2432 moveto
1550 1249 lineto
2496 0 lineto
2016 0 lineto
1295 955 lineto
594 0 lineto
128 0 lineto
1059 1272 lineto
192 2432 lineto
665 2432 lineto
1312 1566 lineto
1959 2432 lineto
2432 2432 lineto
end_ol grestore 
gsave 15.203871 8.000000 translate 0.035278 -0.035278 scale
start_ol
end_ol grestore 
gsave 15.388690 8.000000 translate 0.035278 -0.035278 scale
start_ol
2017 1504 moveto
2155 1456 2285 1299 conicto
2416 1143 2547 869 conicto
3008 0 lineto
2522 0 lineto
2120 816 lineto
1956 1135 1802 1239 conicto
1649 1344 1383 1344 conicto
896 1344 lineto
896 0 lineto
448 0 lineto
448 3200 lineto
1459 3200 lineto
2014 3200 2287 2971 conicto
2560 2742 2560 2280 conicto
2560 1979 2421 1780 conicto
2282 1581 2017 1504 conicto
896 2816 moveto
896 1728 lineto
1459 1728 lineto
1782 1728 1947 1866 conicto
2112 2005 2112 2274 conicto
2112 2543 1947 2679 conicto
1782 2816 1459 2816 conicto
896 2816 lineto
end_ol grestore 
gsave 15.768334 8.000000 translate 0.035278 -0.035278 scale
start_ol
384 967 moveto
384 2432 lineto
768 2432 lineto
768 982 lineto
768 619 907 437 conicto
1046 256 1325 256 conicto
1660 256 1854 472 conicto
2048 688 2048 1060 conicto
2048 2432 lineto
2432 2432 lineto
2432 0 lineto
2048 0 lineto
2048 384 lineto
1900 157 1705 46 conicto
1510 -64 1251 -64 conicto
825 -64 604 198 conicto
384 461 384 967 conicto
1395 2496 moveto
1395 2496 lineto
end_ol grestore 
gsave 16.137982 8.000000 translate 0.035278 -0.035278 scale
start_ol
2432 1463 moveto
2432 0 lineto
2048 0 lineto
2048 1450 lineto
2048 1814 1908 1995 conicto
1769 2176 1490 2176 conicto
1155 2176 961 1959 conicto
768 1743 768 1370 conicto
768 0 lineto
384 0 lineto
384 2432 lineto
768 2432 lineto
768 2048 lineto
914 2273 1111 2384 conicto
1309 2496 1568 2496 conicto
1994 2496 2213 2234 conicto
2432 1972 2432 1463 conicto
end_ol grestore 
gsave 16.507630 8.000000 translate 0.035278 -0.035278 scale
start_ol
end_ol grestore 
gsave 16.692450 8.000000 translate 0.035278 -0.035278 scale
start_ol
0 3200 moveto
2752 3200 lineto
2752 2816 lineto
1600 2816 lineto
1600 0 lineto
1152 0 lineto
1152 2816 lineto
0 2816 lineto
0 3200 lineto
end_ol grestore 
gsave 17.029628 8.000000 translate 0.035278 -0.035278 scale
start_ol
384 2432 moveto
768 2432 lineto
768 0 lineto
384 0 lineto
384 2432 lineto
384 3328 moveto
768 3328 lineto
768 2816 lineto
384 2816 lineto
384 3328 lineto
end_ol grestore 
gsave 17.191975 8.000000 translate 0.035278 -0.035278 scale
start_ol
2304 1959 moveto
2456 2234 2667 2365 conicto
2878 2496 3165 2496 conicto
3550 2496 3759 2227 conicto
3968 1959 3968 1463 conicto
3968 0 lineto
3584 0 lineto
3584 1450 lineto
3584 1819 3455 1997 conicto
3327 2176 3064 2176 conicto
2742 2176 2555 1959 conicto
2368 1743 2368 1370 conicto
2368 0 lineto
1984 0 lineto
1984 1450 lineto
1984 1821 1855 1998 conicto
1727 2176 1459 2176 conicto
1142 2176 955 1958 conicto
768 1741 768 1370 conicto
768 0 lineto
384 0 lineto
384 2432 lineto
768 2432 lineto
768 2048 lineto
907 2278 1102 2387 conicto
1297 2496 1565 2496 conicto
1835 2496 2024 2358 conicto
2213 2221 2304 1959 conicto
end_ol grestore 
gsave 17.758944 8.000000 translate 0.035278 -0.035278 scale
start_ol
2496 1352 moveto
2496 1152 lineto
704 1152 lineto
730 714 950 485 conicto
1171 256 1565 256 conicto
1793 256 2007 320 conicto
2221 384 2432 512 conicto
2432 128 lineto
2215 34 1988 -15 conicto
1761 -64 1527 -64 conicto
941 -64 598 275 conicto
256 615 256 1194 conicto
256 1793 576 2144 conicto
897 2496 1441 2496 conicto
1928 2496 2212 2188 conicto
2496 1881 2496 1352 conicto
2112 1472 moveto
2108 1793 1932 1984 conicto
1757 2176 1468 2176 conicto
1140 2176 943 1991 conicto
747 1806 717 1470 conicto
2112 1472 lineto
end_ol grestore 
0.100000 slw
[] 0 sd
[] 0 sd
0 slc
n 20.000000 7.000000 m 25.776393 7.000000 l s
0.100000 slw
[] 0 sd
0 slj
0 slc
n 25.388197 7.250000 m 25.888197 7.000000 l 25.388197 6.750000 l s
gsave 21.000000 6.000000 translate 0.035278 -0.035278 scale
start_ol
448 3200 moveto
1117 3200 lineto
1919 1043 lineto
2725 3200 lineto
3392 3200 lineto
3392 0 lineto
2944 0 lineto
2944 2814 lineto
2134 640 lineto
1706 640 lineto
896 2814 lineto
896 0 lineto
448 0 lineto
448 3200 lineto
end_ol grestore 
gsave 21.502030 6.000000 translate 0.035278 -0.035278 scale
start_ol
1515 1216 moveto
1021 1216 830 1104 conicto
640 992 640 723 conicto
640 508 783 382 conicto
926 256 1171 256 conicto
1510 256 1715 494 conicto
1920 733 1920 1129 conicto
1920 1216 lineto
1515 1216 lineto
2304 1385 moveto
2304 0 lineto
1920 0 lineto
1920 384 lineto
1782 154 1577 45 conicto
1372 -64 1075 -64 conicto
699 -64 477 146 conicto
256 356 256 708 conicto
256 1119 530 1327 conicto
805 1536 1349 1536 conicto
1920 1536 lineto
1920 1578 lineto
1920 1864 1739 2020 conicto
1558 2176 1232 2176 conicto
1024 2176 827 2128 conicto
630 2080 448 1984 conicto
448 2368 lineto
665 2432 869 2464 conicto
1073 2496 1266 2496 conicto
1788 2496 2046 2220 conicto
2304 1945 2304 1385 conicto
end_ol grestore 
gsave 21.859193 6.000000 translate 0.035278 -0.035278 scale
start_ol
2432 2432 moveto
1550 1249 lineto
2496 0 lineto
2016 0 lineto
1295 955 lineto
594 0 lineto
128 0 lineto
1059 1272 lineto
192 2432 lineto
665 2432 lineto
1312 1566 lineto
1959 2432 lineto
2432 2432 lineto
end_ol grestore 
gsave 22.203871 6.000000 translate 0.035278 -0.035278 scale
start_ol
end_ol grestore 
gsave 22.388690 6.000000 translate 0.035278 -0.035278 scale
start_ol
128 3200 moveto
570 3200 lineto
1251 495 lineto
1929 3200 lineto
2421 3200 lineto
3101 495 lineto
3780 3200 lineto
4224 3200 lineto
3411 0 lineto
2861 0 lineto
2178 2778 lineto
1489 0 lineto
939 0 lineto
128 3200 lineto
end_ol grestore 
gsave 22.925687 6.000000 translate 0.035278 -0.035278 scale
start_ol
1515 1216 moveto
1021 1216 830 1104 conicto
640 992 640 723 conicto
640 508 783 382 conicto
926 256 1171 256 conicto
1510 256 1715 494 conicto
1920 733 1920 1129 conicto
1920 1216 lineto
1515 1216 lineto
2304 1385 moveto
2304 0 lineto
1920 0 lineto
1920 384 lineto
1782 154 1577 45 conicto
1372 -64 1075 -64 conicto
699 -64 477 146 conicto
256 356 256 708 conicto
256 1119 530 1327 conicto
805 1536 1349 1536 conicto
1920 1536 lineto
1920 1578 lineto
1920 1864 1739 2020 conicto
1558 2176 1232 2176 conicto
1024 2176 827 2128 conicto
630 2080 448 1984 conicto
448 2368 lineto
665 2432 869 2464 conicto
1073 2496 1266 2496 conicto
1788 2496 2046 2220 conicto
2304 1945 2304 1385 conicto
end_ol grestore 
gsave 23.282850 6.000000 translate 0.035278 -0.035278 scale
start_ol
384 2432 moveto
768 2432 lineto
768 0 lineto
384 0 lineto
384 2432 lineto
384 3328 moveto
768 3328 lineto
768 2816 lineto
384 2816 lineto
384 3328 lineto
end_ol grestore 
gsave 23.445196 6.000000 translate 0.035278 -0.035278 scale
start_ol
768 3136 moveto
768 2432 lineto
1600 2432 lineto
1600 2112 lineto
768 2112 lineto
768 788 lineto
768 490 850 405 conicto
933 320 1185 320 conicto
1600 320 lineto
1600 0 lineto
1185 0 lineto
730 0 557 170 conicto
384 340 384 788 conicto
384 2112 lineto
64 2112 lineto
64 2432 lineto
384 2432 lineto
384 3136 lineto
768 3136 lineto
end_ol grestore 
gsave 23.672482 6.000000 translate 0.035278 -0.035278 scale
start_ol
end_ol grestore 
gsave 23.857302 6.000000 translate 0.035278 -0.035278 scale
start_ol
0 3200 moveto
2752 3200 lineto
2752 2816 lineto
1600 2816 lineto
1600 0 lineto
1152 0 lineto
1152 2816 lineto
0 2816 lineto
0 3200 lineto
end_ol grestore 
gsave 24.194480 6.000000 translate 0.035278 -0.035278 scale
start_ol
384 2432 moveto
768 2432 lineto
768 0 lineto
384 0 lineto
384 2432 lineto
384 3328 moveto
768 3328 lineto
768 2816 lineto
384 2816 lineto
384 3328 lineto
end_ol grestore 
gsave 24.356827 6.000000 translate 0.035278 -0.035278 scale
start_ol
2304 1959 moveto
2456 2234 2667 2365 conicto
2878 2496 3165 2496 conicto
3550 2496 3759 2227 conicto
3968 1959 3968 1463 conicto
3968 0 lineto
3584 0 lineto
3584 1450 lineto
3584 1819 3455 1997 conicto
3327 2176 3064 2176 conicto
2742 2176 2555 1959 conicto
2368 1743 2368 1370 conicto
2368 0 lineto
1984 0 lineto
1984 1450 lineto
1984 1821 1855 1998 conicto
1727 2176 1459 2176 conicto
1142 2176 955 1958 conicto
768 1741 768 1370 conicto
768 0 lineto
384 0 lineto
384 2432 lineto
768 2432 lineto
768 2048 lineto
907 2278 1102 2387 conicto
1297 2496 1565 2496 conicto
1835 2496 2024 2358 conicto
2213 2221 2304 1959 conicto
end_ol grestore 
gsave 24.923796 6.000000 translate 0.035278 -0.035278 scale
start_ol
2496 1352 moveto
2496 1152 lineto
704 1152 lineto
730 714 950 485 conicto
1171 256 1565 256 conicto
1793 256 2007 320 conicto
2221 384 2432 512 conicto
2432 128 lineto
2215 34 1988 -15 conicto
1761 -64 1527 -64 conicto
941 -64 598 275 conicto
256 615 256 1194 conicto
256 1793 576 2144 conicto
897 2496 1441 2496 conicto
1928 2496 2212 2188 conicto
2496 1881 2496 1352 conicto
2112 1472 moveto
2108 1793 1932 1984 conicto
1757 2176 1468 2176 conicto
1140 2176 943 1991 conicto
747 1806 717 1470 conicto
2112 1472 lineto
end_ol grestore 
0.100000 slw
[] 0 sd
[] 0 sd
0 slc
n 7.000000 11.000000 m 12.776393 11.000000 l s
0.100000 slw
[] 0 sd
0 slj
0 slc
n 12.388197 11.250000 m 12.888197 11.000000 l 12.388197 10.750000 l s
gsave 8.000000 10.000000 translate 0.035278 -0.035278 scale
start_ol
448 3200 moveto
1117 3200 lineto
1919 1043 lineto
2725 3200 lineto
3392 3200 lineto
3392 0 lineto
2944 0 lineto
2944 2814 lineto
2134 640 lineto
1706 640 lineto
896 2814 lineto
896 0 lineto
448 0 lineto
448 3200 lineto
end_ol grestore 
gsave 8.502030 10.000000 translate 0.035278 -0.035278 scale
start_ol
1515 1216 moveto
1021 1216 830 1104 conicto
640 992 640 723 conicto
640 508 783 382 conicto
926 256 1171 256 conicto
1510 256 1715 494 conicto
1920 733 1920 1129 conicto
1920 1216 lineto
1515 1216 lineto
2304 1385 moveto
2304 0 lineto
1920 0 lineto
1920 384 lineto
1782 154 1577 45 conicto
1372 -64 1075 -64 conicto
699 -64 477 146 conicto
256 356 256 708 conicto
256 1119 530 1327 conicto
805 1536 1349 1536 conicto
1920 1536 lineto
1920 1578 lineto
1920 1864 1739 2020 conicto
1558 2176 1232 2176 conicto
1024 2176 827 2128 conicto
630 2080 448 1984 conicto
448 2368 lineto
665 2432 869 2464 conicto
1073 2496 1266 2496 conicto
1788 2496 2046 2220 conicto
2304 1945 2304 1385 conicto
end_ol grestore 
gsave 8.859193 10.000000 translate 0.035278 -0.035278 scale
start_ol
2432 2432 moveto
1550 1249 lineto
2496 0 lineto
2016 0 lineto
1295 955 lineto
594 0 lineto
128 0 lineto
1059 1272 lineto
192 2432 lineto
665 2432 lineto
1312 1566 lineto
1959 2432 lineto
2432 2432 lineto
end_ol grestore 
gsave 9.203871 10.000000 translate 0.035278 -0.035278 scale
start_ol
end_ol grestore 
gsave 9.388690 10.000000 translate 0.035278 -0.035278 scale
start_ol
2368 3072 moveto
2368 2624 lineto
2125 2753 1910 2816 conicto
1695 2880 1494 2880 conicto
1146 2880 957 2741 conicto
768 2603 768 2348 conicto
768 2134 893 2025 conicto
1019 1916 1369 1849 conicto
1627 1797 lineto
2105 1706 2332 1477 conicto
2560 1249 2560 865 conicto
2560 408 2248 172 conicto
1936 -64 1334 -64 conicto
1107 -64 850 -15 conicto
594 33 320 128 conicto
320 576 lineto
584 449 837 384 conicto
1091 320 1336 320 conicto
1708 320 1910 458 conicto
2112 597 2112 853 conicto
2112 1077 1969 1203 conicto
1827 1330 1502 1393 conicto
1243 1443 lineto
756 1541 538 1750 conicto
320 1960 320 2334 conicto
320 2766 617 3015 conicto
915 3264 1437 3264 conicto
1660 3264 1892 3216 conicto
2125 3168 2368 3072 conicto
end_ol grestore 
gsave 9.758338 10.000000 translate 0.035278 -0.035278 scale
start_ol
768 3136 moveto
768 2432 lineto
1600 2432 lineto
1600 2112 lineto
768 2112 lineto
768 788 lineto
768 490 850 405 conicto
933 320 1185 320 conicto
1600 320 lineto
1600 0 lineto
1185 0 lineto
730 0 557 170 conicto
384 340 384 788 conicto
384 2112 lineto
64 2112 lineto
64 2432 lineto
384 2432 lineto
384 3136 lineto
768 3136 lineto
end_ol grestore 
gsave 9.985624 10.000000 translate 0.035278 -0.035278 scale
start_ol
1515 1216 moveto
1021 1216 830 1104 conicto
640 992 640 723 conicto
640 508 783 382 conicto
926 256 1171 256 conicto
1510 256 1715 494 conicto
1920 733 1920 1129 conicto
1920 1216 lineto
1515 1216 lineto
2304 1385 moveto
2304 0 lineto
1920 0 lineto
1920 384 lineto
1782 154 1577 45 conicto
1372 -64 1075 -64 conicto
699 -64 477 146 conicto
256 356 256 708 conicto
256 1119 530 1327 conicto
805 1536 1349 1536 conicto
1920 1536 lineto
1920 1578 lineto
1920 1864 1739 2020 conicto
1558 2176 1232 2176 conicto
1024 2176 827 2128 conicto
630 2080 448 1984 conicto
448 2368 lineto
665 2432 869 2464 conicto
1073 2496 1266 2496 conicto
1788 2496 2046 2220 conicto
2304 1945 2304 1385 conicto
end_ol grestore 
gsave 10.342786 10.000000 translate 0.035278 -0.035278 scale
start_ol
1792 2112 moveto
1725 2145 1645 2160 conicto
1566 2176 1470 2176 conicto
1131 2176 949 1944 conicto
768 1712 768 1277 conicto
768 0 lineto
384 0 lineto
384 2432 lineto
768 2432 lineto
768 2048 lineto
894 2275 1096 2385 conicto
1298 2496 1588 2496 conicto
1629 2496 1679 2496 conicto
1729 2496 1790 2496 conicto
1792 2112 lineto
end_ol grestore 
gsave 10.582557 10.000000 translate 0.035278 -0.035278 scale
start_ol
768 3136 moveto
768 2432 lineto
1600 2432 lineto
1600 2112 lineto
768 2112 lineto
768 788 lineto
768 490 850 405 conicto
933 320 1185 320 conicto
1600 320 lineto
1600 0 lineto
1185 0 lineto
730 0 557 170 conicto
384 340 384 788 conicto
384 2112 lineto
64 2112 lineto
64 2432 lineto
384 2432 lineto
384 3136 lineto
768 3136 lineto
end_ol grestore 
gsave 10.809842 10.000000 translate 0.035278 -0.035278 scale
start_ol
end_ol grestore 
gsave 10.994662 10.000000 translate 0.035278 -0.035278 scale
start_ol
896 2816 moveto
896 384 lineto
1417 384 lineto
2076 384 2382 677 conicto
2688 971 2688 1603 conicto
2688 2232 2382 2524 conicto
2076 2816 1417 2816 conicto
896 2816 lineto
448 3200 moveto
1350 3200 lineto
2273 3200 2704 2813 conicto
3136 2426 3136 1603 conicto
3136 776 2702 388 conicto
2269 0 1350 0 conicto
448 0 lineto
448 3200 lineto
end_ol grestore 
gsave 11.441741 10.000000 translate 0.035278 -0.035278 scale
start_ol
2496 1352 moveto
2496 1152 lineto
704 1152 lineto
730 714 950 485 conicto
1171 256 1565 256 conicto
1793 256 2007 320 conicto
2221 384 2432 512 conicto
2432 128 lineto
2215 34 1988 -15 conicto
1761 -64 1527 -64 conicto
941 -64 598 275 conicto
256 615 256 1194 conicto
256 1793 576 2144 conicto
897 2496 1441 2496 conicto
1928 2496 2212 2188 conicto
2496 1881 2496 1352 conicto
2112 1472 moveto
2108 1793 1932 1984 conicto
1757 2176 1468 2176 conicto
1140 2176 943 1991 conicto
747 1806 717 1470 conicto
2112 1472 lineto
end_ol grestore 
gsave 11.798904 10.000000 translate 0.035278 -0.035278 scale
start_ol
384 3328 moveto
768 3328 lineto
768 0 lineto
384 0 lineto
384 3328 lineto
end_ol grestore 
gsave 11.961251 10.000000 translate 0.035278 -0.035278 scale
start_ol
1515 1216 moveto
1021 1216 830 1104 conicto
640 992 640 723 conicto
640 508 783 382 conicto
926 256 1171 256 conicto
1510 256 1715 494 conicto
1920 733 1920 1129 conicto
1920 1216 lineto
1515 1216 lineto
2304 1385 moveto
2304 0 lineto
1920 0 lineto
1920 384 lineto
1782 154 1577 45 conicto
1372 -64 1075 -64 conicto
699 -64 477 146 conicto
256 356 256 708 conicto
256 1119 530 1327 conicto
805 1536 1349 1536 conicto
1920 1536 lineto
1920 1578 lineto
1920 1864 1739 2020 conicto
1558 2176 1232 2176 conicto
1024 2176 827 2128 conicto
630 2080 448 1984 conicto
448 2368 lineto
665 2432 869 2464 conicto
1073 2496 1266 2496 conicto
1788 2496 2046 2220 conicto
2304 1945 2304 1385 conicto
end_ol grestore 
gsave 12.318413 10.000000 translate 0.035278 -0.035278 scale
start_ol
1414 -213 moveto
1242 -637 1079 -766 conicto
916 -896 643 -896 conicto
320 -896 lineto
320 -576 lineto
558 -576 lineto
725 -576 817 -500 conicto
910 -424 1022 -140 conicto
1094 42 lineto
128 2432 lineto
527 2432 lineto
1297 530 lineto
2067 2432 lineto
2496 2432 lineto
1414 -213 lineto
end_ol grestore 
0.100000 slw
[] 0 sd
[] 0 sd
0 slc
n 7.000000 4.000000 m 33.776393 4.000000 l s
0.100000 slw
[] 0 sd
0 slj
0 slc
n 33.388197 4.250000 m 33.888197 4.000000 l 33.388197 3.750000 l s
gsave 14.000000 3.000000 translate 0.035278 -0.035278 scale
start_ol
448 3200 moveto
1117 3200 lineto
1919 1043 lineto
2725 3200 lineto
3392 3200 lineto
3392 0 lineto
2944 0 lineto
2944 2814 lineto
2134 640 lineto
1706 640 lineto
896 2814 lineto
896 0 lineto
448 0 lineto
448 3200 lineto
end_ol grestore 
gsave 14.502030 3.000000 translate 0.035278 -0.035278 scale
start_ol
1515 1216 moveto
1021 1216 830 1104 conicto
640 992 640 723 conicto
640 508 783 382 conicto
926 256 1171 256 conicto
1510 256 1715 494 conicto
1920 733 1920 1129 conicto
1920 1216 lineto
1515 1216 lineto
2304 1385 moveto
2304 0 lineto
1920 0 lineto
1920 384 lineto
1782 154 1577 45 conicto
1372 -64 1075 -64 conicto
699 -64 477 146 conicto
256 356 256 708 conicto
256 1119 530 1327 conicto
805 1536 1349 1536 conicto
1920 1536 lineto
1920 1578 lineto
1920 1864 1739 2020 conicto
1558 2176 1232 2176 conicto
1024 2176 827 2128 conicto
630 2080 448 1984 conicto
448 2368 lineto
665 2432 869 2464 conicto
1073 2496 1266 2496 conicto
1788 2496 2046 2220 conicto
2304 1945 2304 1385 conicto
end_ol grestore 
gsave 14.859193 3.000000 translate 0.035278 -0.035278 scale
start_ol
2432 2432 moveto
1550 1249 lineto
2496 0 lineto
2016 0 lineto
1295 955 lineto
594 0 lineto
128 0 lineto
1059 1272 lineto
192 2432 lineto
665 2432 lineto
1312 1566 lineto
1959 2432 lineto
2432 2432 lineto
end_ol grestore 
gsave 15.203871 3.000000 translate 0.035278 -0.035278 scale
start_ol
end_ol grestore 
gsave 15.388690 3.000000 translate 0.035278 -0.035278 scale
start_ol
2017 1504 moveto
2155 1456 2285 1299 conicto
2416 1143 2547 869 conicto
3008 0 lineto
2522 0 lineto
2120 816 lineto
1956 1135 1802 1239 conicto
1649 1344 1383 1344 conicto
896 1344 lineto
896 0 lineto
448 0 lineto
448 3200 lineto
1459 3200 lineto
2014 3200 2287 2971 conicto
2560 2742 2560 2280 conicto
2560 1979 2421 1780 conicto
2282 1581 2017 1504 conicto
896 2816 moveto
896 1728 lineto
1459 1728 lineto
1782 1728 1947 1866 conicto
2112 2005 2112 2274 conicto
2112 2543 1947 2679 conicto
1782 2816 1459 2816 conicto
896 2816 lineto
end_ol grestore 
gsave 15.768334 3.000000 translate 0.035278 -0.035278 scale
start_ol
384 967 moveto
384 2432 lineto
768 2432 lineto
768 982 lineto
768 619 907 437 conicto
1046 256 1325 256 conicto
1660 256 1854 472 conicto
2048 688 2048 1060 conicto
2048 2432 lineto
2432 2432 lineto
2432 0 lineto
2048 0 lineto
2048 384 lineto
1900 157 1705 46 conicto
1510 -64 1251 -64 conicto
825 -64 604 198 conicto
384 461 384 967 conicto
1395 2496 moveto
1395 2496 lineto
end_ol grestore 
gsave 16.137982 3.000000 translate 0.035278 -0.035278 scale
start_ol
2432 1463 moveto
2432 0 lineto
2048 0 lineto
2048 1450 lineto
2048 1814 1908 1995 conicto
1769 2176 1490 2176 conicto
1155 2176 961 1959 conicto
768 1743 768 1370 conicto
768 0 lineto
384 0 lineto
384 2432 lineto
768 2432 lineto
768 2048 lineto
914 2273 1111 2384 conicto
1309 2496 1568 2496 conicto
1994 2496 2213 2234 conicto
2432 1972 2432 1463 conicto
end_ol grestore 
gsave 16.507630 3.000000 translate 0.035278 -0.035278 scale
start_ol
end_ol grestore 
gsave 16.692450 3.000000 translate 0.035278 -0.035278 scale
start_ol
2368 3072 moveto
2368 2624 lineto
2125 2753 1910 2816 conicto
1695 2880 1494 2880 conicto
1146 2880 957 2741 conicto
768 2603 768 2348 conicto
768 2134 893 2025 conicto
1019 1916 1369 1849 conicto
1627 1797 lineto
2105 1706 2332 1477 conicto
2560 1249 2560 865 conicto
2560 408 2248 172 conicto
1936 -64 1334 -64 conicto
1107 -64 850 -15 conicto
594 33 320 128 conicto
320 576 lineto
584 449 837 384 conicto
1091 320 1336 320 conicto
1708 320 1910 458 conicto
2112 597 2112 853 conicto
2112 1077 1969 1203 conicto
1827 1330 1502 1393 conicto
1243 1443 lineto
756 1541 538 1750 conicto
320 1960 320 2334 conicto
320 2766 617 3015 conicto
915 3264 1437 3264 conicto
1660 3264 1892 3216 conicto
2125 3168 2368 3072 conicto
end_ol grestore 
gsave 17.062097 3.000000 translate 0.035278 -0.035278 scale
start_ol
2176 2368 moveto
2176 1984 lineto
2010 2080 1843 2128 conicto
1676 2176 1506 2176 conicto
1125 2176 914 1924 conicto
704 1672 704 1216 conicto
704 760 914 508 conicto
1125 256 1506 256 conicto
1676 256 1843 304 conicto
2010 352 2176 448 conicto
2176 64 lineto
2009 0 1830 -32 conicto
1652 -64 1450 -64 conicto
902 -64 579 282 conicto
256 628 256 1216 conicto
256 1812 582 2154 conicto
908 2496 1476 2496 conicto
1660 2496 1835 2464 conicto
2011 2432 2176 2368 conicto
end_ol grestore 
gsave 17.381797 3.000000 translate 0.035278 -0.035278 scale
start_ol
2432 1463 moveto
2432 0 lineto
2048 0 lineto
2048 1450 lineto
2048 1814 1908 1995 conicto
1769 2176 1490 2176 conicto
1155 2176 961 1959 conicto
768 1743 768 1370 conicto
768 0 lineto
384 0 lineto
384 3328 lineto
768 3328 lineto
768 2048 lineto
914 2273 1111 2384 conicto
1309 2496 1568 2496 conicto
1994 2496 2213 2234 conicto
2432 1972 2432 1463 conicto
end_ol grestore 
gsave 17.751444 3.000000 translate 0.035278 -0.035278 scale
start_ol
2496 1352 moveto
2496 1152 lineto
704 1152 lineto
730 714 950 485 conicto
1171 256 1565 256 conicto
1793 256 2007 320 conicto
2221 384 2432 512 conicto
2432 128 lineto
2215 34 1988 -15 conicto
1761 -64 1527 -64 conicto
941 -64 598 275 conicto
256 615 256 1194 conicto
256 1793 576 2144 conicto
897 2496 1441 2496 conicto
1928 2496 2212 2188 conicto
2496 1881 2496 1352 conicto
2112 1472 moveto
2108 1793 1932 1984 conicto
1757 2176 1468 2176 conicto
1140 2176 943 1991 conicto
747 1806 717 1470 conicto
2112 1472 lineto
end_ol grestore 
gsave 18.108607 3.000000 translate 0.035278 -0.035278 scale
start_ol
2048 2048 moveto
2048 3328 lineto
2432 3328 lineto
2432 0 lineto
2048 0 lineto
2048 384 lineto
1921 157 1727 46 conicto
1533 -64 1261 -64 conicto
815 -64 535 288 conicto
256 641 256 1216 conicto
256 1791 535 2143 conicto
815 2496 1261 2496 conicto
1533 2496 1727 2385 conicto
1921 2275 2048 2048 conicto
704 1216 moveto
704 767 883 511 conicto
1062 256 1375 256 conicto
1688 256 1868 511 conicto
2048 767 2048 1216 conicto
2048 1665 1868 1920 conicto
1688 2176 1375 2176 conicto
1062 2176 883 1920 conicto
704 1665 704 1216 conicto
end_ol grestore 
gsave 18.478255 3.000000 translate 0.035278 -0.035278 scale
start_ol
end_ol grestore 
gsave 18.663075 3.000000 translate 0.035278 -0.035278 scale
start_ol
0 3200 moveto
2752 3200 lineto
2752 2816 lineto
1600 2816 lineto
1600 0 lineto
1152 0 lineto
1152 2816 lineto
0 2816 lineto
0 3200 lineto
end_ol grestore 
gsave 19.000253 3.000000 translate 0.035278 -0.035278 scale
start_ol
384 2432 moveto
768 2432 lineto
768 0 lineto
384 0 lineto
384 2432 lineto
384 3328 moveto
768 3328 lineto
768 2816 lineto
384 2816 lineto
384 3328 lineto
end_ol grestore 
gsave 19.162600 3.000000 translate 0.035278 -0.035278 scale
start_ol
2304 1959 moveto
2456 2234 2667 2365 conicto
2878 2496 3165 2496 conicto
3550 2496 3759 2227 conicto
3968 1959 3968 1463 conicto
3968 0 lineto
3584 0 lineto
3584 1450 lineto
3584 1819 3455 1997 conicto
3327 2176 3064 2176 conicto
2742 2176 2555 1959 conicto
2368 1743 2368 1370 conicto
2368 0 lineto
1984 0 lineto
1984 1450 lineto
1984 1821 1855 1998 conicto
1727 2176 1459 2176 conicto
1142 2176 955 1958 conicto
768 1741 768 1370 conicto
768 0 lineto
384 0 lineto
384 2432 lineto
768 2432 lineto
768 2048 lineto
907 2278 1102 2387 conicto
1297 2496 1565 2496 conicto
1835 2496 2024 2358 conicto
2213 2221 2304 1959 conicto
end_ol grestore 
gsave 19.729569 3.000000 translate 0.035278 -0.035278 scale
start_ol
2496 1352 moveto
2496 1152 lineto
704 1152 lineto
730 714 950 485 conicto
1171 256 1565 256 conicto
1793 256 2007 320 conicto
2221 384 2432 512 conicto
2432 128 lineto
2215 34 1988 -15 conicto
1761 -64 1527 -64 conicto
941 -64 598 275 conicto
256 615 256 1194 conicto
256 1793 576 2144 conicto
897 2496 1441 2496 conicto
1928 2496 2212 2188 conicto
2496 1881 2496 1352 conicto
2112 1472 moveto
2108 1793 1932 1984 conicto
1757 2176 1468 2176 conicto
1140 2176 943 1991 conicto
747 1806 717 1470 conicto
2112 1472 lineto
end_ol grestore 
gsave 8.700000 13.700000 translate 0.035278 -0.035278 scale
start_ol
128 3200 moveto
570 3200 lineto
1251 495 lineto
1929 3200 lineto
2421 3200 lineto
3101 495 lineto
3780 3200 lineto
4224 3200 lineto
3411 0 lineto
2861 0 lineto
2178 2778 lineto
1489 0 lineto
939 0 lineto
128 3200 lineto
end_ol grestore 
gsave 9.236997 13.700000 translate 0.035278 -0.035278 scale
start_ol
1515 1216 moveto
1021 1216 830 1104 conicto
640 992 640 723 conicto
640 508 783 382 conicto
926 256 1171 256 conicto
1510 256 1715 494 conicto
1920 733 1920 1129 conicto
1920 1216 lineto
1515 1216 lineto
2304 1385 moveto
2304 0 lineto
1920 0 lineto
1920 384 lineto
1782 154 1577 45 conicto
1372 -64 1075 -64 conicto
699 -64 477 146 conicto
256 356 256 708 conicto
256 1119 530 1327 conicto
805 1536 1349 1536 conicto
1920 1536 lineto
1920 1578 lineto
1920 1864 1739 2020 conicto
1558 2176 1232 2176 conicto
1024 2176 827 2128 conicto
630 2080 448 1984 conicto
448 2368 lineto
665 2432 869 2464 conicto
1073 2496 1266 2496 conicto
1788 2496 2046 2220 conicto
2304 1945 2304 1385 conicto
end_ol grestore 
gsave 9.594159 13.700000 translate 0.035278 -0.035278 scale
start_ol
384 2432 moveto
768 2432 lineto
768 0 lineto
384 0 lineto
384 2432 lineto
384 3328 moveto
768 3328 lineto
768 2816 lineto
384 2816 lineto
384 3328 lineto
end_ol grestore 
gsave 9.756506 13.700000 translate 0.035278 -0.035278 scale
start_ol
768 3136 moveto
768 2432 lineto
1600 2432 lineto
1600 2112 lineto
768 2112 lineto
768 788 lineto
768 490 850 405 conicto
933 320 1185 320 conicto
1600 320 lineto
1600 0 lineto
1185 0 lineto
730 0 557 170 conicto
384 340 384 788 conicto
384 2112 lineto
64 2112 lineto
64 2432 lineto
384 2432 lineto
384 3136 lineto
768 3136 lineto
end_ol grestore 
gsave 9.983791 13.700000 translate 0.035278 -0.035278 scale
start_ol
end_ol grestore 
gsave 10.168611 13.700000 translate 0.035278 -0.035278 scale
start_ol
768 3136 moveto
768 2432 lineto
1600 2432 lineto
1600 2112 lineto
768 2112 lineto
768 788 lineto
768 490 850 405 conicto
933 320 1185 320 conicto
1600 320 lineto
1600 0 lineto
1185 0 lineto
730 0 557 170 conicto
384 340 384 788 conicto
384 2112 lineto
64 2112 lineto
64 2432 lineto
384 2432 lineto
384 3136 lineto
768 3136 lineto
end_ol grestore 
gsave 10.395896 13.700000 translate 0.035278 -0.035278 scale
start_ol
384 2432 moveto
768 2432 lineto
768 0 lineto
384 0 lineto
384 2432 lineto
384 3328 moveto
768 3328 lineto
768 2816 lineto
384 2816 lineto
384 3328 lineto
end_ol grestore 
gsave 10.558243 13.700000 translate 0.035278 -0.035278 scale
start_ol
2304 1959 moveto
2456 2234 2667 2365 conicto
2878 2496 3165 2496 conicto
3550 2496 3759 2227 conicto
3968 1959 3968 1463 conicto
3968 0 lineto
3584 0 lineto
3584 1450 lineto
3584 1819 3455 1997 conicto
3327 2176 3064 2176 conicto
2742 2176 2555 1959 conicto
2368 1743 2368 1370 conicto
2368 0 lineto
1984 0 lineto
1984 1450 lineto
1984 1821 1855 1998 conicto
1727 2176 1459 2176 conicto
1142 2176 955 1958 conicto
768 1741 768 1370 conicto
768 0 lineto
384 0 lineto
384 2432 lineto
768 2432 lineto
768 2048 lineto
907 2278 1102 2387 conicto
1297 2496 1565 2496 conicto
1835 2496 2024 2358 conicto
2213 2221 2304 1959 conicto
end_ol grestore 
gsave 11.125212 13.700000 translate 0.035278 -0.035278 scale
start_ol
2496 1352 moveto
2496 1152 lineto
704 1152 lineto
730 714 950 485 conicto
1171 256 1565 256 conicto
1793 256 2007 320 conicto
2221 384 2432 512 conicto
2432 128 lineto
2215 34 1988 -15 conicto
1761 -64 1527 -64 conicto
941 -64 598 275 conicto
256 615 256 1194 conicto
256 1793 576 2144 conicto
897 2496 1441 2496 conicto
1928 2496 2212 2188 conicto
2496 1881 2496 1352 conicto
2112 1472 moveto
2108 1793 1932 1984 conicto
1757 2176 1468 2176 conicto
1140 2176 943 1991 conicto
747 1806 717 1470 conicto
2112 1472 lineto
end_ol grestore 
showpage
