\relax 
\providecommand\hyper@newdestlabel[2]{}
\newlabel{GplChapter}{{4.8}{21}{Affero GNU General Public License}{section*.3}{}}
\@writefile{general}{\indexentry{Affero GNU General Public License }{21}}
\@writefile{general}{\indexentry{License!Affero GNU General Public }{21}}
\@setckpt{gpl}{
\setcounter{page}{29}
\setcounter{equation}{0}
\setcounter{enumi}{17}
\setcounter{enumii}{6}
\setcounter{enumiii}{0}
\setcounter{enumiv}{0}
\setcounter{footnote}{0}
\setcounter{mpfootnote}{0}
\setcounter{part}{0}
\setcounter{chapter}{4}
\setcounter{section}{8}
\setcounter{subsection}{0}
\setcounter{subsubsection}{0}
\setcounter{paragraph}{0}
\setcounter{subparagraph}{0}
\setcounter{figure}{0}
\setcounter{table}{0}
\setcounter{Item}{33}
\setcounter{Hfootnote}{0}
\setcounter{bookmark@seq@number}{33}
\setcounter{lpart}{0}
\setcounter{lchapter}{1}
\setcounter{lsection}{2}
\setcounter{lsubsection}{0}
\setcounter{lsubsubsection}{0}
\setcounter{lparagraph}{0}
\setcounter{lsubparagraph}{0}
\setcounter{lsubsubparagraph}{0}
\setcounter{float@type}{4}
\setcounter{LT@tables}{0}
\setcounter{LT@chunks}{0}
\setcounter{vrcnt}{1}
\setcounter{section@level}{1}
}
