\relax 
\providecommand\hyper@newdestlabel[2]{}
\@writefile{toc}{\contentsline {chapter}{\numberline {4}Bacula Copyright, Trademark, and Licenses}{15}{chapter.4}}
\@writefile{lof}{\addvspace {10\p@ }}
\@writefile{lot}{\addvspace {10\p@ }}
\newlabel{LicenseChapter}{{4}{15}{Bacula Copyright, Trademark, and Licenses}{chapter.4}{}}
\@writefile{general}{\indexentry{Licenses!Bacula Copyright Trademark}{15}}
\@writefile{general}{\indexentry{Bacula Copyright, Trademark, and Licenses}{15}}
\@writefile{toc}{\contentsline {section}{\numberline {4.1}CC-BY-SA}{15}{section.4.1}}
\@writefile{general}{\indexentry{CC-BY-SA}{15}}
\@writefile{toc}{\contentsline {section}{\numberline {4.2}GPL}{15}{section.4.2}}
\@writefile{general}{\indexentry{GPL }{15}}
\@writefile{toc}{\contentsline {section}{\numberline {4.3}LGPL}{15}{section.4.3}}
\@writefile{general}{\indexentry{LGPL }{15}}
\@writefile{toc}{\contentsline {section}{\numberline {4.4}Public Domain}{15}{section.4.4}}
\@writefile{general}{\indexentry{Domain!Public }{15}}
\@writefile{general}{\indexentry{Public Domain }{15}}
\@writefile{toc}{\contentsline {section}{\numberline {4.5}Trademark}{16}{section.4.5}}
\@writefile{general}{\indexentry{Trademark }{16}}
\@writefile{toc}{\contentsline {section}{\numberline {4.6}Fiduciary License Agreement}{16}{section.4.6}}
\@writefile{general}{\indexentry{Fiduciary License Agreement }{16}}
\@writefile{toc}{\contentsline {section}{\numberline {4.7}Disclaimer}{16}{section.4.7}}
\@writefile{general}{\indexentry{Disclaimer }{16}}
\@writefile{toc}{\contentsline {section}{\numberline {4.8}Authors}{16}{section.4.8}}
\@setckpt{license}{
\setcounter{page}{18}
\setcounter{equation}{0}
\setcounter{enumi}{0}
\setcounter{enumii}{0}
\setcounter{enumiii}{0}
\setcounter{enumiv}{0}
\setcounter{footnote}{0}
\setcounter{mpfootnote}{0}
\setcounter{part}{0}
\setcounter{chapter}{4}
\setcounter{section}{8}
\setcounter{subsection}{0}
\setcounter{subsubsection}{0}
\setcounter{paragraph}{0}
\setcounter{subparagraph}{0}
\setcounter{figure}{0}
\setcounter{table}{0}
\setcounter{Item}{0}
\setcounter{Hfootnote}{0}
\setcounter{bookmark@seq@number}{33}
\setcounter{lpart}{0}
\setcounter{lchapter}{1}
\setcounter{lsection}{0}
\setcounter{lsubsection}{0}
\setcounter{lsubsubsection}{0}
\setcounter{lparagraph}{0}
\setcounter{lsubparagraph}{0}
\setcounter{lsubsubparagraph}{0}
\setcounter{float@type}{4}
\setcounter{LT@tables}{0}
\setcounter{LT@chunks}{0}
\setcounter{vrcnt}{1}
\setcounter{section@level}{1}
}
