\relax 
\providecommand\hyper@newdestlabel[2]{}
\@writefile{toc}{\contentsline {chapter}{\numberline {2}Using Stunnel to Encrypt Communications}{5}{chapter.2}}
\@writefile{lof}{\addvspace {10\p@ }}
\@writefile{lot}{\addvspace {10\p@ }}
\newlabel{StunnelChapter}{{2}{5}{Using Stunnel to Encrypt Communications}{chapter.2}{}}
\@writefile{general}{\indexentry{Using Stunnel to Encrypt Communications to Clients }{5}}
\newlabel{1@xvr}{{}{5}{Using Stunnel to Encrypt Communications}{chapter.2}{}}
\newlabel{1@vr}{{}{5}{Using Stunnel to Encrypt Communications}{chapter.2}{}}
\@writefile{toc}{\contentsline {section}{\numberline {2.1}Communications Ports Used}{5}{section.2.1}}
\@writefile{general}{\indexentry{Used!Communications Ports }{5}}
\@writefile{general}{\indexentry{Communications Ports Used }{5}}
\@writefile{toc}{\contentsline {section}{\numberline {2.2}Encryption}{5}{section.2.2}}
\@writefile{general}{\indexentry{Encryption }{5}}
\@writefile{toc}{\contentsline {section}{\numberline {2.3}A Picture}{6}{section.2.3}}
\@writefile{general}{\indexentry{Picture }{6}}
\@writefile{toc}{\contentsline {section}{\numberline {2.4}Certificates}{6}{section.2.4}}
\@writefile{general}{\indexentry{Certificates }{6}}
\@writefile{toc}{\contentsline {section}{\numberline {2.5}Securing the Data Channel}{6}{section.2.5}}
\@writefile{general}{\indexentry{Channel!Securing the Data }{6}}
\@writefile{general}{\indexentry{Securing the Data Channel }{6}}
\@writefile{toc}{\contentsline {section}{\numberline {2.6}Data Channel Configuration}{7}{section.2.6}}
\@writefile{general}{\indexentry{Modification of bacula-dir.conf for the Data Channel }{7}}
\@writefile{general}{\indexentry{baculoa-dir.conf!Modification for the Data Channel }{7}}
\@writefile{toc}{\contentsline {section}{\numberline {2.7}Stunnel Configuration for the Data Channel}{7}{section.2.7}}
\@writefile{general}{\indexentry{Stunnel Configuration for the Data Channel }{7}}
\@writefile{toc}{\contentsline {section}{\numberline {2.8}Starting and Testing the Data Encryption}{8}{section.2.8}}
\@writefile{general}{\indexentry{Starting and Testing the Data Encryption }{8}}
\@writefile{general}{\indexentry{Encryption!Starting and Testing the Data }{8}}
\@writefile{toc}{\contentsline {section}{\numberline {2.9}Encrypting the Control Channel}{8}{section.2.9}}
\@writefile{general}{\indexentry{Channel!Encrypting the Control }{8}}
\@writefile{general}{\indexentry{Encrypting the Control Channel }{8}}
\@writefile{toc}{\contentsline {section}{\numberline {2.10}Control Channel Configuration}{9}{section.2.10}}
\@writefile{general}{\indexentry{Control Channel Configuration }{9}}
\@writefile{toc}{\contentsline {section}{\numberline {2.11}Stunnel Configuration for the Control Channel}{9}{section.2.11}}
\@writefile{general}{\indexentry{Config Files for stunnel to Encrypt the Control Channel }{9}}
\@writefile{toc}{\contentsline {section}{\numberline {2.12}Starting and Testing the Control Channel}{10}{section.2.12}}
\@writefile{general}{\indexentry{Starting and Testing the Control Channel }{10}}
\@writefile{general}{\indexentry{Channel!Starting and Testing the Control }{10}}
\@writefile{toc}{\contentsline {section}{\numberline {2.13}Using stunnel to Encrypt to a Second Client}{10}{section.2.13}}
\@writefile{general}{\indexentry{Using stunnel to Encrypt to a Second Client }{10}}
\@writefile{general}{\indexentry{Client!Using stunnel to Encrypt to a Second }{10}}
\@writefile{toc}{\contentsline {section}{\numberline {2.14}Creating a Self-signed Certificate}{11}{section.2.14}}
\@writefile{general}{\indexentry{Creating a Self-signed Certificate }{11}}
\@writefile{general}{\indexentry{Certificate!Creating a Self-signed }{11}}
\@writefile{toc}{\contentsline {section}{\numberline {2.15}Getting a CA Signed Certificate}{12}{section.2.15}}
\@writefile{general}{\indexentry{Certificate!Getting a CA Signed }{12}}
\@writefile{general}{\indexentry{Getting a CA Signed Certificate }{12}}
\@writefile{toc}{\contentsline {section}{\numberline {2.16}Using ssh to Secure the Communications}{12}{section.2.16}}
\@writefile{general}{\indexentry{Communications!Using ssh to Secure the }{12}}
\@writefile{general}{\indexentry{Using ssh to Secure the Communications }{12}}
\@setckpt{stunnel}{
\setcounter{page}{13}
\setcounter{equation}{0}
\setcounter{enumi}{0}
\setcounter{enumii}{0}
\setcounter{enumiii}{0}
\setcounter{enumiv}{0}
\setcounter{footnote}{0}
\setcounter{mpfootnote}{0}
\setcounter{part}{0}
\setcounter{chapter}{2}
\setcounter{section}{16}
\setcounter{subsection}{0}
\setcounter{subsubsection}{0}
\setcounter{paragraph}{0}
\setcounter{subparagraph}{0}
\setcounter{figure}{0}
\setcounter{table}{0}
\setcounter{Item}{0}
\setcounter{Hfootnote}{0}
\setcounter{bookmark@seq@number}{23}
\setcounter{lpart}{0}
\setcounter{lchapter}{1}
\setcounter{lsection}{0}
\setcounter{lsubsection}{0}
\setcounter{lsubsubsection}{0}
\setcounter{lparagraph}{0}
\setcounter{lsubparagraph}{0}
\setcounter{lsubsubparagraph}{0}
\setcounter{float@type}{4}
\setcounter{LT@tables}{0}
\setcounter{LT@chunks}{0}
\setcounter{vrcnt}{1}
\setcounter{section@level}{1}
}
