\relax 
\providecommand\hyper@newdestlabel[2]{}
\@writefile{toc}{\contentsline {chapter}{\numberline {1}Variable Expansion}{1}{chapter.1}}
\@writefile{lof}{\addvspace {10\p@ }}
\@writefile{lot}{\addvspace {10\p@ }}
\newlabel{VarsChapter}{{1}{1}{Variable Expansion}{chapter.1}{}}
\@writefile{general}{\indexentry{Variable Expansion }{1}}
\@writefile{general}{\indexentry{Expansion!Variable }{1}}
\@writefile{toc}{\contentsline {section}{\numberline {1.1}General Functionality}{1}{section.1.1}}
\@writefile{general}{\indexentry{Functionality!General }{1}}
\@writefile{general}{\indexentry{General Functionality }{1}}
\@writefile{toc}{\contentsline {section}{\numberline {1.2}Bacula Variables}{1}{section.1.2}}
\@writefile{general}{\indexentry{Bacula Variables }{1}}
\@writefile{general}{\indexentry{Variables!Bacula }{1}}
\@writefile{general}{\indexentry{Counters }{1}}
\@writefile{general}{\indexentry{Internal Variables }{1}}
\@writefile{general}{\indexentry{Environment Variables }{2}}
\@writefile{toc}{\contentsline {section}{\numberline {1.3}Full Syntax}{2}{section.1.3}}
\@writefile{general}{\indexentry{Syntax!Full }{2}}
\@writefile{general}{\indexentry{Full Syntax }{2}}
\@writefile{toc}{\contentsline {section}{\numberline {1.4}Semantics}{3}{section.1.4}}
\@writefile{general}{\indexentry{Semantics }{3}}
\@writefile{toc}{\contentsline {section}{\numberline {1.5}Examples}{3}{section.1.5}}
\@writefile{general}{\indexentry{Examples }{3}}
\@setckpt{vars}{
\setcounter{page}{5}
\setcounter{equation}{0}
\setcounter{enumi}{0}
\setcounter{enumii}{0}
\setcounter{enumiii}{0}
\setcounter{enumiv}{0}
\setcounter{footnote}{0}
\setcounter{mpfootnote}{0}
\setcounter{part}{0}
\setcounter{chapter}{1}
\setcounter{section}{5}
\setcounter{subsection}{0}
\setcounter{subsubsection}{0}
\setcounter{paragraph}{0}
\setcounter{subparagraph}{0}
\setcounter{figure}{0}
\setcounter{table}{0}
\setcounter{Item}{0}
\setcounter{Hfootnote}{0}
\setcounter{bookmark@seq@number}{6}
\setcounter{lpart}{0}
\setcounter{lchapter}{1}
\setcounter{lsection}{0}
\setcounter{lsubsection}{0}
\setcounter{lsubsubsection}{0}
\setcounter{lparagraph}{0}
\setcounter{lsubparagraph}{0}
\setcounter{lsubsubparagraph}{0}
\setcounter{float@type}{4}
\setcounter{LT@tables}{0}
\setcounter{LT@chunks}{0}
\setcounter{vrcnt}{0}
\setcounter{section@level}{1}
}
