\relax 
\providecommand\hyper@newdestlabel[2]{}
\@writefile{toc}{\contentsline {section}{\numberline {1.16}bimagemgr}{23}{section.1.16}}
\newlabel{bimagemgr}{{1.16}{23}{bimagemgr}{section.1.16}{}}
\@writefile{general}{\indexentry{Bimagemgr }{23}}
\@writefile{toc}{\contentsline {subsection}{\numberline {1.16.1}bimagemgr installation}{23}{subsection.1.16.1}}
\@writefile{general}{\indexentry{bimagemgr!Installation }{23}}
\@writefile{general}{\indexentry{bimagemgr Installation }{23}}
\@writefile{toc}{\contentsline {subsection}{\numberline {1.16.2}bimagemgr usage}{24}{subsection.1.16.2}}
\@writefile{general}{\indexentry{bimagemgr!Usage }{24}}
\@writefile{general}{\indexentry{bimagemgr Usage }{24}}
\@writefile{lof}{\contentsline {figure}{Bacula CD Image Manager}{24}{subsection.1.16.2}}
\@writefile{lof}{\contentsline {figure}{Bacula CD Image Burn Progress Window}{24}{subsection.1.16.2}}
\@writefile{lof}{\contentsline {figure}{Bacula CD Image Burn Results}{25}{subsection.1.16.2}}
\@setckpt{bimagemgr-chapter}{
\setcounter{page}{27}
\setcounter{equation}{0}
\setcounter{enumi}{3}
\setcounter{enumii}{0}
\setcounter{enumiii}{0}
\setcounter{enumiv}{0}
\setcounter{footnote}{0}
\setcounter{mpfootnote}{0}
\setcounter{part}{0}
\setcounter{chapter}{1}
\setcounter{section}{16}
\setcounter{subsection}{2}
\setcounter{subsubsection}{0}
\setcounter{paragraph}{0}
\setcounter{subparagraph}{0}
\setcounter{figure}{0}
\setcounter{table}{0}
\setcounter{Item}{3}
\setcounter{Hfootnote}{0}
\setcounter{bookmark@seq@number}{31}
\setcounter{lpart}{0}
\setcounter{lchapter}{1}
\setcounter{lsection}{0}
\setcounter{lsubsection}{0}
\setcounter{lsubsubsection}{0}
\setcounter{lparagraph}{0}
\setcounter{lsubparagraph}{0}
\setcounter{lsubsubparagraph}{0}
\setcounter{float@type}{4}
\setcounter{LT@tables}{0}
\setcounter{LT@chunks}{0}
\setcounter{vrcnt}{10}
\setcounter{section@level}{2}
}
