\relax 
\providecommand\hyper@newdestlabel[2]{}
\@writefile{toc}{\contentsline {chapter}{\numberline {1}Volume Utility Tools}{5}{chapter.1}}
\@writefile{lof}{\addvspace {10\p@ }}
\@writefile{lot}{\addvspace {10\p@ }}
\newlabel{TheUtilityChapter}{{1}{5}{Volume Utility Tools}{chapter.1}{}}
\@writefile{general}{\indexentry{Volume Utility Tools}{5}}
\@writefile{general}{\indexentry{Tools!Volume Utility}{5}}
\@writefile{toc}{\contentsline {section}{\numberline {1.1}Specifying the Configuration File}{5}{section.1.1}}
\@writefile{general}{\indexentry{Specifying the Configuration File}{5}}
\@writefile{toc}{\contentsline {section}{\numberline {1.2}Specifying a Device Name For a Tape}{5}{section.1.2}}
\@writefile{general}{\indexentry{Tape!Specifying a Device Name For a}{5}}
\@writefile{general}{\indexentry{Specifying a Device Name For a Tape}{5}}
\@writefile{toc}{\contentsline {section}{\numberline {1.3}Specifying a Device Name For a File}{5}{section.1.3}}
\@writefile{general}{\indexentry{File!Specifying a Device Name For a}{5}}
\@writefile{general}{\indexentry{Specifying a Device Name For a File}{5}}
\@writefile{toc}{\contentsline {section}{\numberline {1.4}Specifying Volumes}{5}{section.1.4}}
\@writefile{general}{\indexentry{Volumes!Specifying}{5}}
\@writefile{general}{\indexentry{Specifying Volumes}{5}}
\@writefile{toc}{\contentsline {section}{\numberline {1.5}bls}{6}{section.1.5}}
\newlabel{bls}{{1.5}{6}{bls}{section.1.5}{}}
\@writefile{general}{\indexentry{bls}{6}}
\@writefile{general}{\indexentry{program!bls}{6}}
\@writefile{toc}{\contentsline {subsection}{\numberline {1.5.1}Listing Jobs}{7}{subsection.1.5.1}}
\@writefile{general}{\indexentry{Listing Jobs with bls}{7}}
\@writefile{general}{\indexentry{bls!Listing Jobs}{7}}
\@writefile{toc}{\contentsline {subsection}{\numberline {1.5.2}Listing Blocks}{7}{subsection.1.5.2}}
\@writefile{general}{\indexentry{Listing Blocks with bls}{7}}
\@writefile{general}{\indexentry{bls!Listing Blocks}{7}}
\@writefile{toc}{\contentsline {section}{\numberline {1.6}bextract}{8}{section.1.6}}
\newlabel{bextract}{{1.6}{8}{bextract}{section.1.6}{}}
\@writefile{general}{\indexentry{Bextract}{8}}
\@writefile{general}{\indexentry{program!bextract}{8}}
\newlabel{1@xvr}{{}{9}{bextract}{section.1.6}{}}
\newlabel{1@vr}{{}{9}{bextract}{section.1.6}{}}
\@writefile{toc}{\contentsline {subsection}{\numberline {1.6.1}Extracting with Include or Exclude Lists}{9}{subsection.1.6.1}}
\@writefile{general}{\indexentry{Lists!Extracting with Include or Exclude}{9}}
\@writefile{general}{\indexentry{Extracting with Include or Exclude Lists}{9}}
\@writefile{toc}{\contentsline {subsection}{\numberline {1.6.2}Extracting With a Bootstrap File}{10}{subsection.1.6.2}}
\@writefile{general}{\indexentry{File!Extracting With a Bootstrap}{10}}
\@writefile{general}{\indexentry{Extracting With a Bootstrap File}{10}}
\newlabel{2@xvr}{{}{10}{Extracting With a Bootstrap File}{subsection.1.6.2}{}}
\newlabel{2@vr}{{}{10}{Extracting With a Bootstrap File}{subsection.1.6.2}{}}
\@writefile{toc}{\contentsline {subsection}{\numberline {1.6.3}Extracting From Multiple Volumes}{10}{subsection.1.6.3}}
\@writefile{general}{\indexentry{Volumes!Extracting From Multiple}{10}}
\@writefile{general}{\indexentry{Extracting From Multiple Volumes}{10}}
\newlabel{3@xvr}{{}{10}{Extracting From Multiple Volumes}{subsection.1.6.3}{}}
\newlabel{3@vr}{{}{10}{Extracting From Multiple Volumes}{subsection.1.6.3}{}}
\@writefile{toc}{\contentsline {section}{\numberline {1.7}bscan}{10}{section.1.7}}
\newlabel{bscan}{{1.7}{10}{bscan}{section.1.7}{}}
\@writefile{general}{\indexentry{bscan}{10}}
\@writefile{general}{\indexentry{program!bscan}{10}}
\newlabel{4@xvr}{{}{10}{bscan}{section.1.7}{}}
\newlabel{4@vr}{{}{10}{bscan}{section.1.7}{}}
\newlabel{5@xvr}{{}{11}{bscan}{section.1.7}{}}
\newlabel{5@vr}{{}{11}{bscan}{section.1.7}{}}
\newlabel{6@xvr}{{}{11}{bscan}{section.1.7}{}}
\newlabel{6@vr}{{}{11}{bscan}{section.1.7}{}}
\newlabel{7@xvr}{{}{11}{bscan}{section.1.7}{}}
\newlabel{7@vr}{{}{11}{bscan}{section.1.7}{}}
\@writefile{toc}{\contentsline {subsection}{\numberline {1.7.1}Using bscan to Compare a Volume to an existing Catalog}{12}{subsection.1.7.1}}
\@writefile{general}{\indexentry{Catalog!Using bscan to Compare a Volume to an existing}{12}}
\@writefile{general}{\indexentry{Using bscan to Compare a Volume to an existing Catalog}{12}}
\@writefile{toc}{\contentsline {subsection}{\numberline {1.7.2}Using bscan to Recreate a Catalog from a Volume}{12}{subsection.1.7.2}}
\@writefile{general}{\indexentry{Volume!Using bscan to Recreate a Catalog from a Volume}{12}}
\@writefile{general}{\indexentry{Using bscan to Recreate a Catalog from a Volume}{12}}
\@writefile{toc}{\contentsline {subsection}{\numberline {1.7.3}Using bscan to Correct the Volume File Count}{14}{subsection.1.7.3}}
\@writefile{general}{\indexentry{Using bscan to Correct the Volume File Count}{14}}
\@writefile{general}{\indexentry{Count!Using bscan to Correct the Volume File Count}{14}}
\@writefile{toc}{\contentsline {subsection}{\numberline {1.7.4}After bscan}{14}{subsection.1.7.4}}
\@writefile{general}{\indexentry{After bscan}{14}}
\@writefile{general}{\indexentry{Bscan!After}{14}}
\@writefile{toc}{\contentsline {section}{\numberline {1.8}bcopy}{14}{section.1.8}}
\newlabel{bcopy}{{1.8}{14}{bcopy}{section.1.8}{}}
\@writefile{general}{\indexentry{Bcopy}{14}}
\@writefile{general}{\indexentry{program!bcopy}{14}}
\@writefile{toc}{\contentsline {subsection}{\numberline {1.8.1}bcopy Command Options}{14}{subsection.1.8.1}}
\@writefile{general}{\indexentry{Options!bcopy Command}{14}}
\@writefile{general}{\indexentry{Bcopy Command Options}{14}}
\@writefile{toc}{\contentsline {section}{\numberline {1.9}btape}{15}{section.1.9}}
\newlabel{btape}{{1.9}{15}{btape}{section.1.9}{}}
\@writefile{general}{\indexentry{Btape}{15}}
\@writefile{general}{\indexentry{program!btape}{15}}
\@writefile{toc}{\contentsline {subsection}{\numberline {1.9.1}Using btape to Verify your Tape Drive}{15}{subsection.1.9.1}}
\@writefile{general}{\indexentry{Using btape to Verify your Tape Drive}{15}}
\@writefile{general}{\indexentry{Drive!Using btape to Verify your Tape}{15}}
\newlabel{8@xvr}{{}{15}{Using btape to Verify your Tape Drive}{subsection.1.9.1}{}}
\newlabel{8@vr}{{}{15}{Using btape to Verify your Tape Drive}{subsection.1.9.1}{}}
\@writefile{toc}{\contentsline {subsection}{\numberline {1.9.2}btape Commands}{15}{subsection.1.9.2}}
\@writefile{general}{\indexentry{Btape Commands}{15}}
\@writefile{general}{\indexentry{Commands!btape}{15}}
\newlabel{sec:btapespeed}{{1.9.2}{16}{Testing your Tape Drive}{section*.2}{}}
\@writefile{toc}{\contentsline {section}{\numberline {1.10}Other Programs}{17}{section.1.10}}
\@writefile{general}{\indexentry{Programs!Other}{17}}
\@writefile{general}{\indexentry{Other Programs}{17}}
\@writefile{toc}{\contentsline {section}{\numberline {1.11}bsmtp}{17}{section.1.11}}
\newlabel{bsmtp}{{1.11}{17}{bsmtp}{section.1.11}{}}
\@writefile{general}{\indexentry{Bsmtp}{17}}
\@writefile{general}{\indexentry{program!bsmtp}{17}}
\newlabel{9@xvr}{{}{18}{bsmtp}{section.1.11}{}}
\newlabel{9@vr}{{}{18}{bsmtp}{section.1.11}{}}
\@writefile{toc}{\contentsline {section}{\numberline {1.12}dbcheck}{18}{section.1.12}}
\newlabel{dbcheck}{{1.12}{18}{dbcheck}{section.1.12}{}}
\@writefile{general}{\indexentry{Dbcheck}{18}}
\@writefile{general}{\indexentry{program!dbcheck}{18}}
\@writefile{toc}{\contentsline {section}{\numberline {1.13}bregex}{21}{section.1.13}}
\newlabel{bregex}{{1.13}{21}{bregex}{section.1.13}{}}
\@writefile{general}{\indexentry{bregex}{21}}
\@writefile{general}{\indexentry{program!bregex}{21}}
\@writefile{toc}{\contentsline {section}{\numberline {1.14}bwild}{21}{section.1.14}}
\newlabel{bwild}{{1.14}{21}{bwild}{section.1.14}{}}
\@writefile{general}{\indexentry{bwild}{21}}
\@writefile{general}{\indexentry{program!bwild}{21}}
\@writefile{toc}{\contentsline {section}{\numberline {1.15}testfind}{21}{section.1.15}}
\newlabel{testfind}{{1.15}{21}{testfind}{section.1.15}{}}
\@writefile{general}{\indexentry{Testfind}{21}}
\@writefile{general}{\indexentry{program!testfind}{21}}
\newlabel{10@xvr}{{}{21}{testfind}{section.1.15}{}}
\newlabel{10@vr}{{}{21}{testfind}{section.1.15}{}}
\@setckpt{progs}{
\setcounter{page}{23}
\setcounter{equation}{0}
\setcounter{enumi}{3}
\setcounter{enumii}{0}
\setcounter{enumiii}{0}
\setcounter{enumiv}{0}
\setcounter{footnote}{0}
\setcounter{mpfootnote}{0}
\setcounter{part}{0}
\setcounter{chapter}{1}
\setcounter{section}{15}
\setcounter{subsection}{0}
\setcounter{subsubsection}{0}
\setcounter{paragraph}{0}
\setcounter{subparagraph}{0}
\setcounter{figure}{0}
\setcounter{table}{0}
\setcounter{Item}{3}
\setcounter{Hfootnote}{0}
\setcounter{bookmark@seq@number}{28}
\setcounter{lpart}{0}
\setcounter{lchapter}{1}
\setcounter{lsection}{0}
\setcounter{lsubsection}{0}
\setcounter{lsubsubsection}{0}
\setcounter{lparagraph}{0}
\setcounter{lsubparagraph}{0}
\setcounter{lsubsubparagraph}{0}
\setcounter{float@type}{4}
\setcounter{LT@tables}{0}
\setcounter{LT@chunks}{0}
\setcounter{vrcnt}{10}
\setcounter{section@level}{1}
}
