\relax 
\providecommand\hyper@newdestlabel[2]{}
\@writefile{toc}{\contentsline {chapter}{\numberline {2}Bacula RPM Packaging FAQ}{27}{chapter.2}}
\@writefile{lof}{\addvspace {10\p@ }}
\@writefile{lot}{\addvspace {10\p@ }}
\newlabel{RpmFaqChapter}{{2}{27}{Bacula RPM Packaging FAQ}{chapter.2}{}}
\@writefile{general}{\indexentry{FAQ!Bacula\textsuperscript{\textregistered} - RPM Packaging }{27}}
\@writefile{general}{\indexentry{Bacula\textsuperscript{\textregistered} - RPM Packaging FAQ }{27}}
\@writefile{toc}{\contentsline {section}{\numberline {2.1}Answers}{27}{section.2.1}}
\@writefile{general}{\indexentry{Answers }{27}}
\newlabel{faq1}{{1}{27}{Answers}{Item.14}{}}
\newlabel{faq2}{{2}{28}{Answers}{Item.15}{}}
\newlabel{faq3}{{3}{28}{Answers}{Item.16}{}}
\newlabel{faq4}{{4}{28}{Answers}{Item.17}{}}
\newlabel{faq5}{{5}{29}{Answers}{Item.18}{}}
\newlabel{faq6}{{6}{29}{Answers}{Item.19}{}}
\newlabel{faq7}{{7}{29}{Answers}{Item.20}{}}
\newlabel{faq8}{{8}{29}{Answers}{Item.21}{}}
\newlabel{faq9}{{9}{29}{Answers}{Item.22}{}}
\newlabel{faq10}{{10}{29}{Answers}{Item.23}{}}
\@writefile{toc}{\contentsline {section}{\numberline {2.2}Build Options}{30}{section.2.2}}
\@writefile{general}{\indexentry{Build Options}{30}}
\@writefile{toc}{\contentsline {section}{\numberline {2.3}RPM Install Problems}{31}{section.2.3}}
\@writefile{general}{\indexentry{RPM Install Problems}{31}}
\@setckpt{rpm-faq}{
\setcounter{page}{32}
\setcounter{equation}{0}
\setcounter{enumi}{11}
\setcounter{enumii}{0}
\setcounter{enumiii}{0}
\setcounter{enumiv}{0}
\setcounter{footnote}{0}
\setcounter{mpfootnote}{0}
\setcounter{part}{0}
\setcounter{chapter}{2}
\setcounter{section}{3}
\setcounter{subsection}{0}
\setcounter{subsubsection}{0}
\setcounter{paragraph}{0}
\setcounter{subparagraph}{0}
\setcounter{figure}{0}
\setcounter{table}{0}
\setcounter{Item}{24}
\setcounter{Hfootnote}{0}
\setcounter{bookmark@seq@number}{35}
\setcounter{lpart}{0}
\setcounter{lchapter}{1}
\setcounter{lsection}{0}
\setcounter{lsubsection}{0}
\setcounter{lsubsubsection}{0}
\setcounter{lparagraph}{0}
\setcounter{lsubparagraph}{0}
\setcounter{lsubsubparagraph}{0}
\setcounter{float@type}{4}
\setcounter{LT@tables}{0}
\setcounter{LT@chunks}{0}
\setcounter{vrcnt}{10}
\setcounter{section@level}{1}
}
