\relax 
\providecommand\hyper@newdestlabel[2]{}
\@writefile{toc}{\contentsline {chapter}{\numberline {3}Bacula Copyright, Trademark, and Licenses}{47}{chapter.3}}
\@writefile{lof}{\addvspace {10\p@ }}
\@writefile{lot}{\addvspace {10\p@ }}
\newlabel{LicenseChapter}{{3}{47}{Bacula Copyright, Trademark, and Licenses}{chapter.3}{}}
\@writefile{general}{\indexentry{Licenses!Bacula Copyright Trademark}{47}}
\@writefile{general}{\indexentry{Bacula Copyright, Trademark, and Licenses}{47}}
\@writefile{toc}{\contentsline {section}{\numberline {3.1}CC-BY-SA}{47}{section.3.1}}
\@writefile{general}{\indexentry{CC-BY-SA}{47}}
\@writefile{toc}{\contentsline {section}{\numberline {3.2}GPL}{47}{section.3.2}}
\@writefile{general}{\indexentry{GPL }{47}}
\@writefile{toc}{\contentsline {section}{\numberline {3.3}LGPL}{47}{section.3.3}}
\@writefile{general}{\indexentry{LGPL }{47}}
\@writefile{toc}{\contentsline {section}{\numberline {3.4}Public Domain}{47}{section.3.4}}
\@writefile{general}{\indexentry{Domain!Public }{47}}
\@writefile{general}{\indexentry{Public Domain }{47}}
\@writefile{toc}{\contentsline {section}{\numberline {3.5}Trademark}{47}{section.3.5}}
\@writefile{general}{\indexentry{Trademark }{47}}
\@writefile{toc}{\contentsline {section}{\numberline {3.6}Fiduciary License Agreement}{47}{section.3.6}}
\@writefile{general}{\indexentry{Fiduciary License Agreement }{47}}
\@writefile{toc}{\contentsline {section}{\numberline {3.7}Disclaimer}{48}{section.3.7}}
\@writefile{general}{\indexentry{Disclaimer }{48}}
\@writefile{toc}{\contentsline {section}{\numberline {3.8}Authors}{48}{section.3.8}}
\@setckpt{license}{
\setcounter{page}{49}
\setcounter{equation}{0}
\setcounter{enumi}{3}
\setcounter{enumii}{0}
\setcounter{enumiii}{0}
\setcounter{enumiv}{0}
\setcounter{footnote}{0}
\setcounter{mpfootnote}{0}
\setcounter{part}{0}
\setcounter{chapter}{3}
\setcounter{section}{8}
\setcounter{subsection}{0}
\setcounter{subsubsection}{0}
\setcounter{paragraph}{0}
\setcounter{subparagraph}{0}
\setcounter{figure}{0}
\setcounter{table}{0}
\setcounter{Item}{7}
\setcounter{Hfootnote}{0}
\setcounter{bookmark@seq@number}{57}
\setcounter{lpart}{0}
\setcounter{lchapter}{1}
\setcounter{lsection}{0}
\setcounter{lsubsection}{0}
\setcounter{lsubsubsection}{0}
\setcounter{lparagraph}{0}
\setcounter{lsubparagraph}{0}
\setcounter{lsubsubparagraph}{0}
\setcounter{float@type}{4}
\setcounter{LT@tables}{0}
\setcounter{LT@chunks}{0}
\setcounter{vrcnt}{2}
\setcounter{section@level}{1}
}
